%!PS-Adobe-3.0 EPSF-3.0
%%BoundingBox: 0 0 496 383
%%Creator: yExport 1.5
%%Producer: org.freehep.graphicsio.ps.EPSGraphics2D Revision: 12753 
%%For: 
%%Title: 
%%CreationDate: Tuesday, March 21, 2017 10:34:36 PM CDT
%%LanguageLevel: 3
%%EndComments
%%BeginProlog
100 dict dup begin

%
% File: org/freehep/graphicsio.ps/PSProlog.txt
% Author: Charles Loomis
%

% Redefinitions which save some space in the output file.  These are also
% the same as the PDF operators.
/q {gsave} def
/Q {grestore} def

/n {newpath} def
/m {moveto} def
/l {lineto} def
/c {curveto} def
/h {closepath} def

/re {4 -2 roll moveto
     dup 0 exch rlineto exch 0 rlineto
     neg 0 exch rlineto closepath} def

/f {fill} def
/f* {eofill} def
/F {gsave vg&FC fill grestore} def
/F* {gsave vg&FC eofill grestore} def

/s {closepath stroke} def
/S {stroke} def

/b {closepath gsave vg&FC fill grestore
    gsave stroke grestore newpath} def
/B {gsave vg&FC fill grestore gsave stroke grestore newpath} def
/b* {closepath gsave vg&FC eofill grestore
    gsave stroke grestore newpath} def
/B* {gsave vg&FC eofill grestore gsave stroke grestore newpath} def

/g {1 array astore /vg&fcolor exch def} def
/G {setgray} def
/k {4 array astore /vg&fcolor exch def} def
/K {setcmykcolor} def
/rg {3 array astore /vg&fcolor exch def} def
/RG {setrgbcolor} def

% Initialize the fill color.
0 0 0 rg

/vg&FC {mark vg&fcolor aload pop
        counttomark 1 eq {G} if
        counttomark 3 eq {RG} if
        counttomark 4 eq {K} if
        cleartomark } def

/vg&DFC {/vg&fcolor exch def} def

/vg&C {mark exch aload pop
       counttomark 1 eq {G} if
       counttomark 3 eq {RG} if
       counttomark 4 eq {K} if
       cleartomark } def

/w {setlinewidth} def
/j {setlinejoin} def
/J {setlinecap} def
/M {setmiterlimit} def
/d {setdash} def
/i {setflat} def

/W {clip} def
/W* {eoclip} def

% Setup the default graphics state.
% (black; 1 pt. linewidth; miter join; butt-ends; solid)
/defaultGraphicsState {0 g 1 w 0 j 0 J [] 0 d} def

% Emulation of the rectangle operators for PostScript implementations
% which do not implement all Level 2 features.  This is an INCOMPLETE
% emulation; only the "x y width height rect..." form is emulated.
/*rf {gsave newpath re fill grestore} def
/*rs {gsave newpath re stroke grestore} def
/*rc {newpath re clip} def
/rf  /rectfill where {pop /rectfill}{/*rf} ifelse load def
/rs  /rectstroke where {pop /rectstroke}{/*rs} ifelse load def
/rc  /rectclip where {pop /rectclip}{/*rc} ifelse load def

% Emulation of the selectfont operator.  This includes a 20% increase in
% the fontsize which is necessary to get sizes similar to the Java fonts.
/*sf {exch findfont exch
      dup type /arraytype eq {makefont}{scalefont} ifelse setfont} bind def
/sf /selectfont where {pop {1.2 mul selectfont}}{{1.2 mul *sf}} ifelse def

% Special version of stroke which allows the dash pattern to continue
% across path segments.  (This may be needed for PostScript although
% modern printers seem to do this correctly.)
/vg&stroke {
  currentdash pop length 0 eq
  {stroke}
  {
    currentdash /vg&doffset exch def pop
    flattenpath
    {m vg&resetdash}
    {2 copy
     currentpoint
     3 -1 roll sub dup mul
     3 1 roll sub dup mul
     add sqrt
     3 1 roll l
     currentdash 3 -1 roll add setdash}
     {}
     {h vg&resetdash}
     pathforall
     stroke
     vg&resetdash
  } ifelse
} def
/vg&resetdash {currentdash pop vg&doffset setdash} def

% Initialize variables for safety.
/delta 0 def
/xv 0 def  /yv 0 def  /width 0 def  /height 0 def

% Initialize to portrait INTERNATIONAL (Letter-height, A4-width) page.
/pw 595 def  /ph 791  def  /po true def /ftp false def

% Initialize margins to 20 points.
/ml 20 def  /mr 20 def  /mt 20 def  /mb 20 def

% Temporary matrices.
/smatrix 0 def  /nmatrix 0 def

% set page size (usage: <page width><page height> setpagesize)
/setpagesize {/ph exch def /pw exch def} def

% set page orientation (usage: portrait or landscape)
/portrait {/po true def} def
/landscape {/po false def} def

% force natural size for image (usage: naturalsize)
/naturalsize {/ftp false def} def

% resize image to fill page (usage: fittopage)
/fittopage {/ftp true def} def

% set margins of the page (usage: <left><bottom><top><right> setmargins)
/setmargins {/mr exch def /mt exch def /mb exch def /ml exch def} def

% set the graphic's size (usage: <width><height> setsize)
/setsize {/gh exch def /gw exch def} def

% set the graphic's origin (usage: <x0><y0> setorigin)
/setorigin {/gy exch def /gx exch def} def

% calculate image center
/imagecenter {pw ml sub mr sub 2 div ml add
              ph mt sub mb sub 2 div mb add} def

% calculate the necessary scaling
/imagescale {po {gw}{gh} ifelse pw ml sub mr sub div
             po {gh}{gw} ifelse ph mt sub mb sub div
             2 copy lt {exch} if pop
             ftp not {1 2 copy lt {exch} if pop} if
             1 exch div /sfactor exch def
             /gw gw sfactor mul def /gh gh sfactor mul def} def

% calculate image origin
/imageorigin {pw ml sub mr sub 2 div ml add
              po {gw}{gh} ifelse 2 div sub
              ph mt sub mb sub 2 div mb add
              po {gh}{gw} ifelse 2 div po {add}{sub} ifelse} def

% calculate the clipping origin
/cliporigin  {pw ml sub mr sub 2 div ml add
              po {gw}{gh} ifelse 2 div sub floor
              ph mt sub mb sub 2 div mb add
              po {gh}{gw} ifelse 2 div sub floor} def

% Set the clipping region to the bounding box.
/cliptobounds {cliporigin po {gw}{gh} ifelse 1 add
                          po {gh}{gw} ifelse 1 add rc} def

% set the base transformation matrix (usage: setbasematrix)
/setbasematrix {imageorigin translate
                po {0}{90} ifelse rotate
                sfactor sfactor neg scale
                /defaultmatrix matrix currentmatrix def} def

% The lower-right bias in drawing 1 pt. wide lines.
/bias  {q 0.5 0.5 translate} def
/unbias {Q} def

% Define the composite fonts used to print Unicode strings.
% Undefine particular values in an encoding array.
/vg&undef { {exch dup 3 -1 roll /.notdef put} forall } def
/vg&redef { {3 -1 roll dup 4 2 roll put} forall } def

% usage: key encoding basefontname vg&newbasefont font
/vg&newbasefont {
findfont dup length dict copy
  begin
    currentdict /FID undef
    /Encoding exch def
    dup /FontName exch def
    currentdict
  end
definefont
} def

% usage: key encoding basefontname vg&newskewedbasefont font
/vg&newskewedbasefont {
findfont dup length dict copy
  begin
    currentdict /FID undef
    /Encoding exch def
    dup /FontName exch def
    exch FontMatrix exch matrix concatmatrix /FontMatrix exch def
    currentdict
  end
definefont
} def

% usage: basekey suffix vg&nconcat name
/vg&nconcat {
  2 {dup length string cvs exch} repeat
  dup length 3 -1 roll dup length 3 -1 roll add string
  dup 0 4 -1 roll dup length 5 1 roll putinterval
  dup 4 -2 roll exch putinterval cvn
} def

%usage: fontname vg&skewmatrix matrix
/vg&skewmatrix {
findfont dup /FontInfo known
  {
    /FontInfo get dup /ItalicAngle known
    {
      [ 1 0 4 -1 roll /ItalicAngle get neg dup sin exch cos div 1 0 0 ]
    }
    {pop matrix} ifelse
  }
  {pop matrix} ifelse
} def

% usage: newfontname basefontname vg&newcompositefont --
/vg&newcompositefont {
/vg&fstyle exch def
/vg&bfont exch def
/vg&fname exch def
<<
/FontStyleBits vg&fstyle
/FontType 0
/FontMatrix matrix
/FontName vg&fname
/FMapType 2
/Encoding [ 0 1 255 {pop 6} for ]
          dup 16#00 0 put % Latin
          dup 16#03 1 put % Greek
          dup 16#20 2 put % Punctuation
          dup 16#21 3 put % Arrows
          dup 16#22 4 put % MathOps
          dup 16#27 5 put % Dingbats

/FDepVector [
vg&bfont /-UC-Latin vg&nconcat UCLatinEncoding
vg&bfont vg&newbasefont

vg&bfont vg&skewmatrix
vg&bfont /-UC-Greek vg&nconcat UCGreekEncoding
/Symbol vg&newskewedbasefont

vg&bfont /-UC-Punctuation vg&nconcat UCPunctuationEncoding
vg&bfont vg&newbasefont

/Arrows-UC findfont
/MathOps-UC findfont
/Dingbats-UC findfont
/Undefined-UC findfont ]
>>
vg&fname exch definefont pop
} def

% Null encoding vector (all elements set to .notdef)
/NullEncoding [ 256 {/.notdef} repeat ] def

% Unicode Latin encoding (unicode codes \u0000-\u00ff)
/UCLatinEncoding
  ISOLatin1Encoding dup length array copy
  dup 16#60 /grave put
  [ 16#90 16#91 16#92 16#93 16#94 16#95 16#96
    16#97 16#98 16#9a 16#9b 16#9d 16#9e 16#9f
  ] vg&undef
  def

% Unicode Greek encoding (unicode codes \u0370-\u03ff)
/UCGreekEncoding
  NullEncoding dup length array copy
  << 16#91 /Alpha    16#92 /Beta      16#93 /Gamma    16#94 /Delta
     16#95 /Epsilon  16#96 /Zeta      16#97 /Eta      16#98 /Theta
     16#99 /Iota     16#9a /Kappa     16#9b /Lambda   16#9c /Mu
     16#9d /Nu       16#9e /Xi        16#9f /Omicron  16#a0 /Pi
     16#a1 /Rho      16#a3 /Sigma     16#a4 /Tau      16#a5 /Upsilon
     16#a6 /Phi      16#a7 /Chi       16#a8 /Psi      16#a9 /Omega
     16#b1 /alpha    16#b2 /beta      16#b3 /gamma    16#b4 /delta
     16#b5 /epsilon  16#b6 /zeta      16#b7 /eta      16#b8 /theta
     16#b9 /iota     16#ba /kappa     16#bb /lambda   16#bc /mu
     16#bd /nu       16#be /xi        16#bf /omicron  16#c0 /pi
     16#c1 /rho      16#c2 /sigma1    16#c3 /sigma    16#c4 /tau
     16#c5 /upsilon  16#c6 /phi1      16#c7 /chi      16#c8 /psi
     16#c9 /omega    16#7e /semicolon 16#87 /dotmath  16#d1 /theta1
     16#d2 /Upsilon1 16#d5 /phi       16#d6 /omega1
  >> vg&redef
  def

% Unicode punctuation encoding (unicode codes \u2000-\u206f)
/UCPunctuationEncoding
  NullEncoding dup length array copy
  << 16#10 /hyphen          16#11 /hyphen              16#12 /endash
     16#13 /emdash          16#18 /quoteleft           16#19 /quoteright
     16#1a /quotesinglbase  16#1b /quotesingle         16#1c /quotedblleft
     16#1d /quotedblright   16#1e /quotedblbase        16#1f /quotedbl
     16#20 /dagger          16#21 /daggerdbl           16#22 /bullet
     16#24 /period          16#26 /ellipsis            16#27 /periodcentered
     16#30 /perthousand     16#44 /fraction
     16#70 /zerosuperior    16#74 /foursuperior        16#75 /fivesuperior
     16#76 /sixsuperior     16#77 /sevensuperior       16#78 /eightsuperior
     16#79 /ninesuperior    16#7b /hyphensuperior      16#7d /parenleftsuperior
     16#7e /parenrightsuperior
     16#80 /zeroinferior    16#84 /fourinferior        16#85 /fiveinferior
     16#81 /oneinferior     16#82 /twoinferior         16#83 /threeinferior
     16#86 /sixinferior     16#87 /seveninferior       16#88 /eightinferior
     16#89 /nineinferior    16#8b /hypheninferior      16#8d /parenleftinferior
     16#8e /parenrightinferior
  >> vg&redef
  def

% Unicode mathematical operators encoding (unicode codes \u2200-\u22ff)
/UCMathOpsEncoding
  NullEncoding dup length array copy
  << 16#00 /universal       16#02 /partialdiff         16#03 /existential
     16#05 /emptyset        16#06 /Delta               16#07 /gradient
     16#08 /element         16#09 /notelement          16#0b /suchthat
     16#0f /product         16#11 /summation           16#12 /minus
     16#15 /fraction        16#17 /asteriskmath        16#19 /bullet
     16#1a /radical         16#1d /proportional        16#1e /infinity
     16#20 /angle           16#23 /bar                 16#27 /logicaland
     16#28 /logicalor       16#29 /intersection        16#2a /union
     16#2b /integral        16#34 /therefore           16#36 /colon
     16#3c /similar         16#45 /congruent           16#48 /approxequal
     16#60 /notequal        16#61 /equivalence         16#64 /lessequal
     16#65 /greaterequal    16#82 /propersubset        16#83 /propersuperset
     16#86 /reflexsubset    16#87 /reflexsuperset      16#95 /circleplus
     16#97 /circlemultiply  16#a5 /perpendicular       16#03 /existential
     16#c0 /logicaland      16#c1 /logicalor           16#c2 /intersection
     16#c3 /union           16#c4 /diamond             16#c5 /dotmath
  >> vg&redef
  def

% Unicode arrows encoding (unicode codes \u2190-\u21ff)
% Also includes those "Letterlike" unicode characters
% which are available in the symbol font. (unicode codes \u2100-\u214f)
/UCArrowsEncoding
  NullEncoding dup length array copy
  << 16#11 /Ifraktur        16#1c /Rfraktur            16#22 /trademarkserif
     16#35 /aleph
     16#90 /arrowleft       16#91 /arrowup             16#92 /arrowright
     16#93 /arrowdown       16#94 /arrowboth           16#d0 /arrowdblleft
     16#d1 /arrowdblup      16#d2 /arrowdblright       16#d3 /arrowdbldown
     16#d4 /arrowdblboth
  >> vg&redef
  def

/ZapfDingbats findfont /Encoding get
dup length array copy /UCDingbatsEncoding exch def
16#20 1 16#7f {
  dup 16#20 sub exch
  UCDingbatsEncoding exch get
  UCDingbatsEncoding 3 1 roll put
} for
16#a0 1 16#ff {
  dup 16#40 sub exch
  UCDingbatsEncoding exch get
  UCDingbatsEncoding 3 1 roll put
} for
UCDingbatsEncoding [ 16#c0 1 16#ff {} for ] vg&undef
[ 16#00  16#05 16#0a 16#0b  16#28 16#4c 16#4e  16#53 16#54 16#55  16#57 16#5f
  16#60  16#68 16#69 16#6a  16#6b 16#6c 16#6d  16#6e 16#6f 16#70  16#71 16#72
  16#73  16#74 16#75 16#95  16#96 16#97 16#b0  16#bf
] vg&undef pop

% Define the base fonts which don't change.
/Undefined-UC NullEncoding       /Helvetica    vg&newbasefont pop
/MathOps-UC   UCMathOpsEncoding  /Symbol       vg&newbasefont pop
/Arrows-UC    UCArrowsEncoding   /Symbol       vg&newbasefont pop
/Dingbats-UC  UCDingbatsEncoding /ZapfDingbats vg&newbasefont pop

% Make the SansSerif composite fonts.
/SansSerif /Helvetica 16#00 vg&newcompositefont
/SansSerif-Bold /Helvetica-Bold 16#01 vg&newcompositefont
/SansSerif-Italic /Helvetica-Oblique 16#02 vg&newcompositefont
/SansSerif-BoldItalic /Helvetica-BoldOblique 16#03 vg&newcompositefont

% Make the Serif composite fonts.
/Serif /Times-Roman 16#00 vg&newcompositefont
/Serif-Bold /Times-Bold 16#01 vg&newcompositefont
/Serif-Italic /Times-Italic 16#02 vg&newcompositefont
/Serif-BoldItalic /Times-BoldItalic 16#03 vg&newcompositefont

% Make the Monospaced composite fonts.
/Monospaced /Courier 16#00 vg&newcompositefont
/Monospaced-Bold /Courier-Bold 16#01 vg&newcompositefont
/Monospaced-Italic /Courier-Oblique 16#02 vg&newcompositefont
/Monospaced-BoldItalic /Courier-BoldOblique 16#03 vg&newcompositefont

% Make the Dialog composite fonts.
/Dialog /Helvetica 16#00 vg&newcompositefont
/Dialog-Bold /Helvetica-Bold 16#01 vg&newcompositefont
/Dialog-Italic /Helvetica-Oblique 16#02 vg&newcompositefont
/Dialog-BoldItalic /Helvetica-BoldOblique 16#03 vg&newcompositefont

% Make the DialogInput composite fonts.
/DialogInput /Courier 16#00 vg&newcompositefont
/DialogInput-Bold /Courier-Bold 16#01 vg&newcompositefont
/DialogInput-Italic /Courier-Oblique 16#02 vg&newcompositefont
/DialogInput-BoldItalic /Courier-BoldOblique 16#03 vg&newcompositefont

% Make the Typewriter composite fonts (JDK 1.1 only).
/Typewriter /Courier 16#00 vg&newcompositefont
/Typewriter-Bold /Courier-Bold 16#01 vg&newcompositefont
/Typewriter-Italic /Courier-Oblique 16#02 vg&newcompositefont
/Typewriter-BoldItalic /Courier-BoldOblique 16#03 vg&newcompositefont


/cfontH {
 dup /fontsize exch def /SansSerif exch sf
 /vg&fontstyles [{cfontH} {cfontHB} {cfontHI} {cfontHBI}] def
} def
/cfontHB {
  dup /fontsize exch def /SansSerif-Bold exch sf
 /vg&fontstyles [{cfontH} {cfontHB} {cfontHI} {cfontHBI}] def
} def
/cfontHI {
 dup /fontsize exch def /SansSerif-Italic exch sf
 /vg&fontstyles [{cfontH} {cfontHB} {cfontHI} {cfontHBI}] def
} def
/cfontHBI {
 dup /fontsize exch def /SansSerif-BoldItalic exch sf
 /vg&fontstyles [{cfontH} {cfontHB} {cfontHI} {cfontHBI}] def
} def

/cfontT {
 dup /fontsize exch def /Serif exch sf
 /vg&fontstyles [{cfontT} {cfontTB} {cfontTI} {cfontTBI}] def
} def
/cfontTB {
 dup /fontsize exch def /Serif-Bold exch sf
 /vg&fontstyles [{cfontT} {cfontTB} {cfontTI} {cfontTBI}] def
} def
/cfontTI {
 dup /fontsize exch def /Serif-Italic exch sf
 /vg&fontstyles [{cfontT} {cfontTB} {cfontTI} {cfontTBI}] def
} def
/cfontTBI {
 dup /fontsize exch def /Serif-BoldItalic exch sf
 /vg&fontstyles [{cfontT} {cfontTB} {cfontTI} {cfontTBI}] def
} def

/cfontC {
 dup /fontsize exch def /Typewriter exch sf
 /vg&fontstyles [{cfontC} {cfontCB} {cfontCI} {cfontCBI}] def
} def
/cfontCB {
 dup /fontsize exch def /Typewriter-Bold exch sf
 /vg&fontstyles [{cfontC} {cfontCB} {cfontCI} {cfontCBI}] def
} def
/cfontCI {
 dup /fontsize exch def /Typewriter-Italic exch sf
 /vg&fontstyles [{cfontC} {cfontCB} {cfontCI} {cfontCBI}] def
} def
/cfontCBI {
 dup /fontsize exch def /Typewriter-BoldItalic exch sf
 /vg&fontstyles [{cfontC} {cfontCB} {cfontCI} {cfontCBI}] def
} def

% Darken or lighten the current color.
/darken {0.7 exch exp 3 copy
         q 4 -1 roll vg&C
         currentrgbcolor 3 {4 -2 roll mul} repeat
         3 array astore Q} def

/displayColorMap
<< /Cr   [1.00 0.00 0.00]       /Cg     [0.00 1.00 0.00]
   /Cb   [0.00 0.00 1.00]       /Cc     [1.00 0.00 0.00 0.00]
   /Cm   [0.00 1.00 0.00 0.00]  /Cy     [0.00 0.00 1.00 0.00]
   /Co   [1.00 0.78 0.00]       /Cp     [1.00 0.67 0.67]
   /Cw   [1   ]                 /Cgrl   [0.75]
   /Cgr  [0.50]                 /Cgrd   [0.25]
   /Ck   [0   ]
   /CGr  [1.00 0.00 0.00]       /CGg    [0.00 1.00 0.00]
   /CGb  [0.00 0.00 1.00]       /CGc    [1.00 0.00 0.00 0.00]
   /CGm  [0.00 1.00 0.00 0.00]  /CGy    [0.00 0.00 1.00 0.00]
   /CGo  [1.00 0.78 0.00]       /CGp    [1.00 0.67 0.67]
   /CGw  [1   ]                 /CGgrl  [0.75]
   /CGgr [0.50]                 /CGgrd  [0.25]
   /CGk  [0   ]
   /CIr  [1.00 0.00 0.00]       /CIg    [0.00 1.00 0.00]
   /CIb  [0.00 0.00 1.00]       /CIc    [1.00 0.00 0.00 0.00]
   /CIm  [0.00 1.00 0.00 0.00]  /CIy    [0.00 0.00 1.00 0.00]
   /CIo  [1.00 0.78 0.00]       /CIp    [1.00 0.67 0.67]
   /CIw  [1   ]                 /CIgrl  [0.75]
   /CIgr [0.50]                 /CIgrd  [0.25]
   /CIk  [0   ]
>> def

/printColorMap
<< /Cr   [1.00 0.33 0.33]       /Cg     [0.33 1.00 0.33]
   /Cb   [0.33 0.33 1.00]       /Cc     [1.00 0.00 0.00 0.00]
   /Cm   [0.00 1.00 0.00 0.00]  /Cy     [0.00 0.00 1.00 0.00]
   /Co   [1.00 0.78 0.00]       /Cp     [1.00 0.67 0.67]
   /Cw   [1   ]                 /Cgrl   [0.75]
   /Cgr  [0.50]                 /Cgrd   [0.25]
   /Ck   [0   ]
   /CGr  [1.00 0.33 0.33]       /CGg    [0.33 1.00 0.33]
   /CGb  [0.33 0.33 1.00]       /CGc    [1.00 0.00 0.00 0.00]
   /CGm  [0.00 1.00 0.00 0.00]  /CGy    [0.00 0.00 1.00 0.00]
   /CGo  [1.00 0.78 0.00]       /CGp    [1.00 0.67 0.67]
   /CGw  [1   ]                 /CGgrl  [0.75]
   /CGgr [0.50]                 /CGgrd  [0.25]
   /CGk  [0   ]
   /CIr  [1.00 0.33 0.33]       /CIg    [0.33 1.00 0.33]
   /CIb  [0.33 0.33 1.00]       /CIc    [1.00 0.00 0.00 0.00]
   /CIm  [0.00 1.00 0.00 0.00]  /CIy    [0.00 0.00 1.00 0.00]
   /CIo  [1.00 0.78 0.00]       /CIp    [1.00 0.67 0.67]
   /CIw  [1   ]                 /CIgrl  [0.75]
   /CIgr [0.50]                 /CIgrd  [0.25]
   /CIk  [0   ]
>> def

/grayColorMap
<< /Cr   [0   ]                 /Cg     [0   ]
   /Cb   [0   ]                 /Cc     [0   ]
   /Cm   [0   ]                 /Cy     [0   ]
   /Co   [0   ]                 /Cp     [0   ]
   /Cw   [0   ]                 /Cgrl   [0   ]
   /Cgr  [0   ]                 /Cgrd   [0   ]
   /Ck   [0   ]
   /CGr  [0.75]                 /CGg    [1   ]
   /CGb  [0.50]                 /CGc    [0.75]
   /CGm  [0.50]                 /CGy    [1   ]
   /CGo  [0.75]                 /CGp    [1   ]
   /CGw  [0   ]                 /CGgrl  [0.25]
   /CGgr [0.50]                 /CGgrd  [0.75]
   /CGk  [1   ]
   /CIr  [1   ]                 /CIg    [1   ]
   /CIb  [1   ]                 /CIc    [1   ]
   /CIm  [1   ]                 /CIy    [1   ]
   /CIo  [1   ]                 /CIp    [1   ]
   /CIw  [1   ]                 /CIgrl  [1   ]
   /CIgr [1   ]                 /CIgrd  [1   ]
   /CIk  [1   ]
>> def

/bwColorMap
<< /Cr   [0   ]                 /Cg     [0   ]
   /Cb   [0   ]                 /Cc     [0   ]
   /Cm   [0   ]                 /Cy     [0   ]
   /Co   [0   ]                 /Cp     [0   ]
   /Cw   [0   ]                 /Cgrl   [0   ]
   /Cgr  [0   ]                 /Cgrd   [0   ]
   /Ck   [0   ]
   /CGr  [1   ]                 /CGg    [1   ]
   /CGb  [1   ]                 /CGc    [1   ]
   /CGm  [1   ]                 /CGy    [1   ]
   /CGo  [1   ]                 /CGp    [1   ]
   /CGw  [0   ]                 /CGgrl  [1   ]
   /CGgr [1   ]                 /CGgrd  [1   ]
   /CGk  [1   ]
   /CIr  [1   ]                 /CIg    [1   ]
   /CIb  [1   ]                 /CIc    [1   ]
   /CIm  [1   ]                 /CIy    [1   ]
   /CIo  [1   ]                 /CIp    [1   ]
   /CIw  [1   ]                 /CIgrl  [1   ]
   /CIgr [1   ]                 /CIgrd  [1   ]
   /CIk  [1   ]
>> def

%
% The following routines handle the alignment of and printing of
% tagged strings.
%

% Predefine the bounding box values.
/bbllx 0 def /bblly 0 def /bburx 0 def /bbury 0 def

% This routine pops the first unicode character off of a string and returns
% the remainder of the string, the character code of first character,
% and a "true" if the string was non-zero length.
% <string>      popfirst <remaining string> <true>
% <null string> popfirst <false>
/popfirst {
  dup length 1 gt
    {dup 0 get /vg&fbyte exch def
     dup 1 get /vg&cbyte exch def
     dup length 2 sub 2 exch getinterval true}
    {pop false} ifelse
} def

% This routine shows a single unicode character given the font and
% character codes.
% <font code> <char code> unicharshow --
/unicharshow {
  2 string
  dup 0 5 -1 roll put
  dup 1 4 -1 roll put
  internalshow
} def

% This is an internal routine to alternate between determining the
% bounding box for stringsize and showing the string for recshow.
% <string> internalshow --
/internalshow {show} def

% This is an internal routine to alternate between determining the
% bounding box for stringsize and stroking various ornaments.
% <string> internalstroke --
/internalstroke {S} def

% Sets up internalshow to use the null device to determine string size.
% -- nullinternalshow --
/nullinternalshow {/internalshow {false charpath flattenpath
                                  pathbbox updatebbox} def} def

% Sets up internalstroke to use the null device to determine string size.
% -- nullinternalstroke --
/nullinternalstroke {
 /internalstroke {flattenpath pathbbox updatebbox} def} def

% This routine tests to see if the character code matches the first
% character of a string.
% <char code> <string> testchar <char code> <true or false>
/testchar {exch dup 3 -1 roll 0 get eq} def

% Raise the text baseline for superscripts.
% -- raise --
/raise {
  0 fontsize 2 div rmoveto
  /fontsize fontsize 2 mul 3 div def
  currentfont /FontName get fontsize sf
} def

% Un-raise the text baseline for superscripts.
% -- unraise --
/unraise {
  /fontsize fontsize 1.5 mul def
  0 fontsize 2 div neg rmoveto
} def

% Lower the text baseline for subscripts.
% -- lower --
/lower {
  0 fontsize 3 div neg rmoveto
  /fontsize fontsize 2 mul 3 div def
  currentfont /FontName get fontsize sf
} def

% Un-lower the text baseline for subscripts.
% -- unlower --
/unlower {
  /fontsize fontsize 1.5 mul def
  0 fontsize 3 div rmoveto
} def

% Compare the top two elements on the stack and leave only the
% larger one.
/maxval {2 copy gt {pop} {exch pop} ifelse} def

% Tokenize a string.  Do not use the usual PostScript token because
% parentheses will not be interpreted correctly because of rescanning
% of the string.
/vg&token {/vg&string exch def /vg&index -1 def /vg&level 0 def
0 2 vg&string length 2 sub {
  dup dup 1 add exch vg&string exch get 8 bitshift vg&string 3 -1 roll get or
  dup 16#f0fe eq {pop 1}{16#f0ff eq {-1}{0} ifelse} ifelse
  /vg&level exch vg&level add def
  vg&level 0 eq {/vg&index exch def exit} if pop
} for
vg&index 0 ge {
  vg&string vg&index 2 add dup vg&string length exch sub getinterval
  vg&index 2 gt {vg&string 2 vg&index 2 sub getinterval}{()} ifelse
  true}
{false} ifelse
} bind def

% Recursively show an unicode string.
% <string> recshow --
/recshow {
  popfirst
  {
    % Test to see if this is a string attribute.
    vg&fbyte 16#f0 and 16#e0 eq
    {
      q

      % Font style.
      currentfont dup /FontStyleBits known {/FontStyleBits get}{pop 0} ifelse
      vg&cbyte or vg&fontstyles exch get fontsize exch exec

      vg&token pop recshow currentpoint Q m recshow
    }
    {
      vg&fbyte 16#F8 and 16#F0 eq {

        % Superscript and/or subscript.
        vg&cbyte 16#00 eq {
          vg&token pop exch vg&token pop 3 -1 roll
          q raise recshow unraise currentpoint pop Q exch
          q lower recshow unlower currentpoint pop Q
          maxval currentpoint exch pop m recshow } if

        % Strikeout.
        vg&cbyte 16#01 eq {
          vg&token pop currentpoint 3 -1 roll recshow
          q 0 J vg&underline vg&uthick w
          currentpoint 4 -2 roll fontsize 3 div add moveto
          fontsize 3 div add lineto internalstroke Q
          recshow} if

        % Underline.
        vg&cbyte 16#02 eq {
          vg&token pop currentpoint 3 -1 roll recshow
          q 0 J vg&underline vg&uthick w
          currentpoint 4 -2 roll vg&uoffset add moveto
          vg&uoffset add lineto internalstroke Q
          recshow} if

        % Dashed underline.
        vg&cbyte 16#03 eq {
          vg&token pop currentpoint 3 -1 roll recshow
          q 0 J [ vg&uthick 5 mul vg&uthick 2 mul] 0 d
          vg&underline vg&uthick w
          currentpoint 4 -2 roll vg&uoffset add moveto
          vg&uoffset add lineto internalstroke Q
          recshow} if

        % Dotted underline.
        vg&cbyte 16#04 eq {
          vg&token pop currentpoint 3 -1 roll recshow
          q 1 J [ 0 vg&uthick 3 mul] 0 d
          vg&underline vg&uthick w
          currentpoint 4 -2 roll vg&uoffset add moveto
          vg&uoffset add lineto internalstroke Q
          recshow} if

        % Thick underline.
        vg&cbyte 16#05 eq {
          vg&token pop currentpoint 3 -1 roll recshow
          q 0 J vg&underline vg&uthick 2 mul w
          currentpoint 4 -2 roll vg&uoffset vg&uthick 2 div sub add moveto
          vg&uoffset vg&uthick 2 div sub add lineto internalstroke Q
          recshow} if

        % Gray thick underline.
        vg&cbyte 16#06 eq {
          vg&token pop currentpoint 3 -1 roll recshow
          q 0 J vg&underline vg&uthick 2 mul w 0.5 setgray
          currentpoint 4 -2 roll vg&uoffset vg&uthick 2 div sub add moveto
          vg&uoffset vg&uthick 2 div sub add lineto internalstroke Q
          recshow} if

        % Overbar.
        vg&cbyte 16#07 eq {
          vg&token pop dup stringsize relative 4 1 roll pop pop exch
          3 -1 roll recshow
          q 0 J vg&underline vg&uthick w
          vg&uoffset neg add dup currentpoint pop exch m l internalstroke Q
          recshow} if
      }
      {
        vg&fbyte vg&cbyte unicharshow recshow
      } ifelse
    } ifelse
  } if
} def

% Get the underline position and thickness from the current font.
/vg&underline {

currentfont dup /FontType get 0 eq {/FDepVector get 0 get} if
dup dup /FontInfo known {
  /FontInfo get dup
  dup /UnderlinePosition known {
    /UnderlinePosition get /vg&uoffset exch def
  }
  {
    pop /vg&uoffset 0 def
  } ifelse
  dup /UnderlineThickness known {
    /UnderlineThickness get /vg&uthick exch def
  }
  {
    pop /vg&uthick 0 def
  } ifelse
}
{
  pop /vg&uoffset 0 def /vg&uthick 0 def
} ifelse
/FontMatrix get
currentfont dup /FontType get 0 eq
{/FontMatrix get matrix concatmatrix}{pop} ifelse
dup 0 vg&uoffset 3 -1 roll transform /vg&uoffset exch def pop
0 vg&uthick 3 -1 roll transform /vg&uthick exch def pop
} def

% Make a frame with the coordinates on the stack.
% <llx> <lly> <urx> <ury> frame --
/frame {4 copy m 3 1 roll exch l 4 -2 roll l l h} def

% Resets the accumulated bounding box to a degenerate box at the
% current point.
% -- resetbbox --
/resetbbox {
  currentpoint 2 copy
  /bbury exch def
  /bburx exch def
  /bblly exch def
  /bbllx exch def
} def

% Update the accumulated bounding box.
% <llx'> <lly'> <urx'> <ury'> updatebbox --
/updatebbox {
  dup bbury gt {/bbury exch def} {pop} ifelse
  dup bburx gt {/bburx exch def} {pop} ifelse
  dup bblly lt {/bblly exch def} {pop} ifelse
  dup bbllx lt {/bbllx exch def} {pop} ifelse
} def

% Set the bounding box to the values on the stack.
% <llx'> <lly'> <urx'> <ury'> updatebbox --
/restorebbox {
  /bbury exch def /bburx exch def /bblly exch def /bbllx exch def
} def

% Push the accumulated bounding box onto the stack.
% -- pushbbox <llx> <lly> <urx> <ury>
/pushbbox {bbllx bblly bburx bbury} def

% Make the relative bounding box relative to the currentpoint.
% <llx'> <lly'> <urx'> <ury'> inflate <llx> <lly> <urx> <ury>
/inflate {
  2 {fontsize 0.2 mul add 4 1 roll} repeat
  2 {fontsize 0.2 mul sub 4 1 roll} repeat
} def

% Make the relative bounding box relative to the currentpoint.
% <llx'> <lly'> <urx'> <ury'> relative <llx> <lly> <urx> <ury>
/relative {
  currentpoint 3 -1 roll add 3 1 roll add exch 4 2 roll
  currentpoint 3 -1 roll add 3 1 roll add exch 4 2 roll
} def

% Returns the size of a string appropriate for recshow.
% <string> stringsize <llx> <lly> <urx> <ury>
/stringsize {
  pushbbox /internalshow load /internalstroke load 7 -1 roll
  q
  nulldevice 0 0 m
  nullinternalshow nullinternalstroke
  resetbbox
  recshow
  /internalstroke exch def /internalshow exch def
  pushbbox 8 -4 roll restorebbox
  Q
} def

% Calculate values for string positioning.
/calcval {4 copy
  3 -1 roll sub /widy exch def sub neg /widx exch def
  pop pop /dy exch def /dx exch def} def

% Utilities to position a string.
% First letter (U=upper, C=center, B=baseline, L=lower)
% Second letter (L=left, C=center, R=right)
/align [
{calcval dx neg widy dy add neg rmoveto} % UL
{calcval dx neg widy 2 div dy add neg rmoveto} % CL
{calcval dx neg 0 rmoveto} % BL
{calcval dx neg dy neg rmoveto} % LL
{calcval widx dx add neg widy dy add neg rmoveto} % UR
{calcval widx dx add neg widy 2 div dy add neg rmoveto} % CR
{calcval widx dx add neg 0 rmoveto} % BR
{calcval widx dx add neg dy neg rmoveto} % LR
{calcval widx 2 div dx add neg widy dy add neg rmoveto} % UC
{calcval widx 2 div dx add neg widy 2 div dy add neg rmoveto} % CC
{calcval widx 2 div dx add neg 0 rmoveto} % BC
{calcval widx 2 div dx add neg dy neg rmoveto} % LC
] def

/vg&str {m q 1 -1 scale dup stringsize 4 copy align 11 -1 roll get exec
         q inflate relative frame exch exec Q recshow Q} def

end /procDict exch def
%%EndProlog

%%BeginSetup
save
procDict begin
printColorMap begin
496 383 setpagesize
0 0 0 0 setmargins
0 0 setorigin
496 383 setsize
naturalsize
portrait
imagescale
cliptobounds
setbasematrix
/Helvetica 10 sf
defaultGraphicsState
%%EndSetup

0.00000 0.00000 0.00000 RG
[ 1.00000 0.00000 0.00000 1.00000 0.00000 0.00000 ] defaultmatrix matrix concatmatrix setmatrix
cliprestore
1.00000 1.00000 1.00000 RG
newpath
0.00000 0.00000 m
496.000 0.00000 l
496.000 383.000 l
0.00000 383.000 l
0.00000 0.00000 l
h
f
0.00000 0.00000 0.00000 RG
0.00000 0.00000 0.00000 RG
[ 1.00000 0.00000 0.00000 1.00000 0.00000 0.00000 ] defaultmatrix matrix concatmatrix setmatrix
cliprestore
1.00000 1.00000 1.00000 RG
newpath
0.00000 0.00000 m
496.000 0.00000 l
496.000 383.000 l
0.00000 383.000 l
0.00000 0.00000 l
h
f
0.00000 0.00000 0.00000 RG
0 0 496 383 rc
q
[ 1.00000 0.00000 0.00000 1.00000 0.00000 0.00000 ] concat
[ 1.00000 0.00000 0.00000 1.00000 -234.000 -206.000 ] concat
1.00000 1.00000 1.00000 RG
newpath
234.000 206.000 m
730.000 206.000 l
730.000 589.000 l
234.000 589.000 l
234.000 206.000 l
h
f
0.00000 0.00000 0.00000 RG
[ 1.00000 0.00000 0.00000 1.00000 -234.000 -206.000 ] defaultmatrix matrix concatmatrix setmatrix
[ 1.00000 0.00000 0.00000 1.00000 -234.000 -206.000 ] defaultmatrix matrix concatmatrix setmatrix
[ 1.00000 0.00000 0.00000 1.00000 0.00000 0.00000 ] defaultmatrix matrix concatmatrix setmatrix
[ 1.00000 0.00000 0.00000 1.00000 -234.000 -206.000 ] defaultmatrix matrix concatmatrix setmatrix
0 J
1.45000 M
newpath
249.500 308.000 m
249.500 330.000 l
249.500 332.209 251.291 334.000 253.500 334.000  c
456.500 334.000 l
458.709 334.000 460.500 332.209 460.500 330.000  c
460.500 308.000 l
460.500 305.791 458.709 304.000 456.500 304.000  c
253.500 304.000 l
251.291 304.000 249.500 305.791 249.500 308.000  c
h
S
2 J
10.0000 M
0 J
1.45000 M
newpath
266.292 323.301 m
265.241 323.602 264.325 323.752 263.544 323.752  c
262.165 323.752 261.107 323.359 260.371 322.574  c
259.635 321.789 259.267 320.664 259.267 319.199  c
259.267 317.762 259.640 316.644 260.386 315.845  c
261.132 315.046 262.179 314.646 263.526 314.646  c
264.409 314.646 265.327 314.777 266.280 315.039  c
266.280 316.176 l
265.085 315.770 264.169 315.566 263.532 315.566  c
262.595 315.566 261.867 315.885 261.350 316.521  c
260.832 317.158 260.573 318.055 260.573 319.211  c
260.573 320.355 260.851 321.245 261.405 321.880  c
261.960 322.515 262.737 322.832 263.737 322.832  c
264.147 322.832 264.591 322.760 265.067 322.615  c
265.067 319.791 l
266.292 319.791 l
h
273.147 323.330 m
272.374 323.564 271.712 323.682 271.161 323.682  c
270.224 323.682 269.459 323.370 268.867 322.747  c
268.275 322.124 267.979 321.316 267.979 320.324  c
267.979 319.359 268.240 318.568 268.762 317.951  c
269.283 317.334 269.950 317.025 270.763 317.025  c
271.532 317.025 272.127 317.299 272.547 317.846  c
272.967 318.393 273.177 319.170 273.177 320.178  c
273.171 320.535 l
269.157 320.535 l
269.325 322.047 270.065 322.803 271.378 322.803  c
271.858 322.803 272.448 322.674 273.147 322.416  c
h
269.210 319.668 m
272.017 319.668 l
272.017 318.484 271.575 317.893 270.692 317.893  c
269.806 317.893 269.312 318.484 269.210 319.668  c
h
275.169 323.535 m
275.169 317.172 l
276.323 317.172 l
276.323 318.367 l
276.933 317.477 277.679 317.031 278.562 317.031  c
279.112 317.031 279.552 317.206 279.880 317.556  c
280.208 317.905 280.372 318.375 280.372 318.965  c
280.372 323.535 l
279.218 323.535 l
279.218 319.340 l
279.218 318.867 279.148 318.530 279.010 318.329  c
278.871 318.128 278.642 318.027 278.321 318.027  c
277.614 318.027 276.948 318.490 276.323 319.416  c
276.323 323.535 l
h
287.280 323.330 m
286.507 323.564 285.845 323.682 285.294 323.682  c
284.356 323.682 283.592 323.370 283.000 322.747  c
282.408 322.124 282.112 321.316 282.112 320.324  c
282.112 319.359 282.373 318.568 282.895 317.951  c
283.416 317.334 284.083 317.025 284.896 317.025  c
285.665 317.025 286.260 317.299 286.680 317.846  c
287.100 318.393 287.310 319.170 287.310 320.178  c
287.304 320.535 l
283.290 320.535 l
283.458 322.047 284.198 322.803 285.511 322.803  c
285.991 322.803 286.581 322.674 287.280 322.416  c
h
283.343 319.668 m
286.149 319.668 l
286.149 318.484 285.708 317.893 284.825 317.893  c
283.938 317.893 283.444 318.484 283.343 319.668  c
h
289.302 323.535 m
289.302 317.172 l
290.456 317.172 l
290.456 318.367 l
290.913 317.477 291.577 317.031 292.448 317.031  c
292.565 317.031 292.688 317.041 292.817 317.061  c
292.817 318.139 l
292.618 318.072 292.442 318.039 292.290 318.039  c
291.560 318.039 290.948 318.473 290.456 319.340  c
290.456 323.535 l
h
297.493 322.727 m
296.802 323.363 296.136 323.682 295.495 323.682  c
294.968 323.682 294.530 323.517 294.183 323.187  c
293.835 322.856 293.661 322.439 293.661 321.936  c
293.661 321.240 293.953 320.706 294.537 320.333  c
295.121 319.960 295.958 319.773 297.048 319.773  c
297.323 319.773 l
297.323 319.006 l
297.323 318.268 296.944 317.898 296.187 317.898  c
295.577 317.898 294.919 318.086 294.212 318.461  c
294.212 317.506 l
294.989 317.189 295.718 317.031 296.397 317.031  c
297.108 317.031 297.633 317.191 297.971 317.512  c
298.309 317.832 298.478 318.330 298.478 319.006  c
298.478 321.889 l
298.478 322.549 298.681 322.879 299.087 322.879  c
299.138 322.879 299.212 322.871 299.310 322.855  c
299.392 323.494 l
299.130 323.619 298.841 323.682 298.524 323.682  c
297.985 323.682 297.642 323.363 297.493 322.727  c
h
297.323 322.100 m
297.323 320.453 l
296.937 320.441 l
296.304 320.441 295.792 320.562 295.401 320.802  c
295.011 321.042 294.815 321.357 294.815 321.748  c
294.815 322.025 294.913 322.260 295.108 322.451  c
295.304 322.643 295.542 322.738 295.823 322.738  c
296.304 322.738 296.804 322.525 297.323 322.100  c
h
302.749 323.682 m
302.163 323.682 301.706 323.514 301.378 323.178  c
301.050 322.842 300.886 322.375 300.886 321.777  c
300.886 318.039 l
300.089 318.039 l
300.089 317.172 l
300.886 317.172 l
300.886 316.018 l
302.040 315.906 l
302.040 317.172 l
303.704 317.172 l
303.704 318.039 l
302.040 318.039 l
302.040 321.566 l
302.040 322.398 302.399 322.814 303.118 322.814  c
303.271 322.814 303.456 322.789 303.675 322.738  c
303.675 323.535 l
303.319 323.633 303.011 323.682 302.749 323.682  c
h
309.991 323.330 m
309.218 323.564 308.556 323.682 308.005 323.682  c
307.067 323.682 306.303 323.370 305.711 322.747  c
305.119 322.124 304.823 321.316 304.823 320.324  c
304.823 319.359 305.084 318.568 305.605 317.951  c
306.127 317.334 306.794 317.025 307.606 317.025  c
308.376 317.025 308.971 317.299 309.391 317.846  c
309.811 318.393 310.021 319.170 310.021 320.178  c
310.015 320.535 l
306.001 320.535 l
306.169 322.047 306.909 322.803 308.222 322.803  c
308.702 322.803 309.292 322.674 309.991 322.416  c
h
306.054 319.668 m
308.860 319.668 l
308.860 318.484 308.419 317.893 307.536 317.893  c
306.649 317.893 306.155 318.484 306.054 319.668  c
h
318.294 323.682 m
317.435 323.682 316.722 323.363 316.155 322.727  c
315.589 322.090 315.306 321.287 315.306 320.318  c
315.306 319.283 315.586 318.477 316.146 317.898  c
316.707 317.320 317.489 317.031 318.493 317.031  c
318.989 317.031 319.544 317.100 320.157 317.236  c
320.157 318.203 l
319.505 318.012 318.974 317.916 318.563 317.916  c
317.974 317.916 317.500 318.138 317.143 318.581  c
316.785 319.024 316.606 319.615 316.606 320.354  c
316.606 321.068 316.790 321.646 317.157 322.088  c
317.524 322.529 318.005 322.750 318.599 322.750  c
319.126 322.750 319.669 322.615 320.228 322.346  c
320.228 323.342 l
319.481 323.568 318.837 323.682 318.294 323.682  c
h
321.956 323.535 m
321.956 317.172 l
323.110 317.172 l
323.110 318.367 l
323.567 317.477 324.231 317.031 325.103 317.031  c
325.220 317.031 325.343 317.041 325.472 317.061  c
325.472 318.139 l
325.272 318.072 325.097 318.039 324.944 318.039  c
324.214 318.039 323.603 318.473 323.110 319.340  c
323.110 323.535 l
h
331.530 323.330 m
330.757 323.564 330.095 323.682 329.544 323.682  c
328.606 323.682 327.842 323.370 327.250 322.747  c
326.658 322.124 326.362 321.316 326.362 320.324  c
326.362 319.359 326.623 318.568 327.145 317.951  c
327.666 317.334 328.333 317.025 329.146 317.025  c
329.915 317.025 330.510 317.299 330.930 317.846  c
331.350 318.393 331.560 319.170 331.560 320.178  c
331.554 320.535 l
327.540 320.535 l
327.708 322.047 328.448 322.803 329.761 322.803  c
330.241 322.803 330.831 322.674 331.530 322.416  c
h
327.593 319.668 m
330.399 319.668 l
330.399 318.484 329.958 317.893 329.075 317.893  c
328.188 317.893 327.694 318.484 327.593 319.668  c
h
337.636 323.535 m
337.636 322.340 l
337.167 323.234 336.460 323.682 335.515 323.682  c
334.749 323.682 334.146 323.402 333.707 322.844  c
333.268 322.285 333.048 321.521 333.048 320.553  c
333.048 319.494 333.297 318.643 333.795 317.998  c
334.293 317.354 334.948 317.031 335.761 317.031  c
336.515 317.031 337.140 317.320 337.636 317.898  c
337.636 314.283 l
338.796 314.283 l
338.796 323.535 l
h
337.636 318.689 m
337.038 318.162 336.472 317.898 335.937 317.898  c
334.831 317.898 334.278 318.744 334.278 320.436  c
334.278 321.924 334.771 322.668 335.755 322.668  c
336.396 322.668 337.022 322.318 337.636 321.619  c
h
345.769 323.330 m
344.995 323.564 344.333 323.682 343.782 323.682  c
342.845 323.682 342.080 323.370 341.488 322.747  c
340.896 322.124 340.601 321.316 340.601 320.324  c
340.601 319.359 340.861 318.568 341.383 317.951  c
341.904 317.334 342.571 317.025 343.384 317.025  c
344.153 317.025 344.748 317.299 345.168 317.846  c
345.588 318.393 345.798 319.170 345.798 320.178  c
345.792 320.535 l
341.778 320.535 l
341.946 322.047 342.687 322.803 343.999 322.803  c
344.479 322.803 345.069 322.674 345.769 322.416  c
h
341.831 319.668 m
344.638 319.668 l
344.638 318.484 344.196 317.893 343.313 317.893  c
342.427 317.893 341.933 318.484 341.831 319.668  c
h
347.790 323.535 m
347.790 317.172 l
348.944 317.172 l
348.944 318.367 l
349.554 317.477 350.300 317.031 351.183 317.031  c
351.733 317.031 352.173 317.206 352.501 317.556  c
352.829 317.905 352.993 318.375 352.993 318.965  c
352.993 323.535 l
351.839 323.535 l
351.839 319.340 l
351.839 318.867 351.770 318.530 351.631 318.329  c
351.492 318.128 351.263 318.027 350.942 318.027  c
350.235 318.027 349.569 318.490 348.944 319.416  c
348.944 323.535 l
h
357.147 323.682 m
356.562 323.682 356.104 323.514 355.776 323.178  c
355.448 322.842 355.284 322.375 355.284 321.777  c
355.284 318.039 l
354.487 318.039 l
354.487 317.172 l
355.284 317.172 l
355.284 316.018 l
356.438 315.906 l
356.438 317.172 l
358.103 317.172 l
358.103 318.039 l
356.438 318.039 l
356.438 321.566 l
356.438 322.398 356.798 322.814 357.517 322.814  c
357.669 322.814 357.854 322.789 358.073 322.738  c
358.073 323.535 l
357.718 323.633 357.409 323.682 357.147 323.682  c
h
359.726 323.535 m
359.726 317.172 l
360.880 317.172 l
360.880 323.535 l
h
359.726 316.018 m
359.726 314.863 l
360.880 314.863 l
360.880 316.018 l
h
366.476 322.727 m
365.784 323.363 365.118 323.682 364.478 323.682  c
363.950 323.682 363.513 323.517 363.165 323.187  c
362.817 322.856 362.644 322.439 362.644 321.936  c
362.644 321.240 362.936 320.706 363.520 320.333  c
364.104 319.960 364.940 319.773 366.030 319.773  c
366.306 319.773 l
366.306 319.006 l
366.306 318.268 365.927 317.898 365.169 317.898  c
364.560 317.898 363.901 318.086 363.194 318.461  c
363.194 317.506 l
363.972 317.189 364.700 317.031 365.380 317.031  c
366.091 317.031 366.615 317.191 366.953 317.512  c
367.291 317.832 367.460 318.330 367.460 319.006  c
367.460 321.889 l
367.460 322.549 367.663 322.879 368.069 322.879  c
368.120 322.879 368.194 322.871 368.292 322.855  c
368.374 323.494 l
368.112 323.619 367.823 323.682 367.507 323.682  c
366.968 323.682 366.624 323.363 366.476 322.727  c
h
366.306 322.100 m
366.306 320.453 l
365.919 320.441 l
365.286 320.441 364.774 320.562 364.384 320.802  c
363.993 321.042 363.798 321.357 363.798 321.748  c
363.798 322.025 363.896 322.260 364.091 322.451  c
364.286 322.643 364.524 322.738 364.806 322.738  c
365.286 322.738 365.786 322.525 366.306 322.100  c
h
369.821 323.535 m
369.821 314.283 l
370.976 314.283 l
370.976 323.535 l
h
374.978 323.682 m
374.450 323.682 373.810 323.559 373.056 323.312  c
373.056 322.252 l
373.810 322.627 374.466 322.814 375.024 322.814  c
375.356 322.814 375.632 322.725 375.851 322.545  c
376.069 322.365 376.179 322.141 376.179 321.871  c
376.179 321.477 375.872 321.150 375.259 320.893  c
374.585 320.605 l
373.589 320.191 373.091 319.596 373.091 318.818  c
373.091 318.264 373.287 317.827 373.680 317.509  c
374.072 317.190 374.610 317.031 375.294 317.031  c
375.649 317.031 376.089 317.080 376.612 317.178  c
376.853 317.225 l
376.853 318.186 l
376.208 317.994 375.696 317.898 375.317 317.898  c
374.575 317.898 374.204 318.168 374.204 318.707  c
374.204 319.055 374.485 319.348 375.048 319.586  c
375.604 319.820 l
376.233 320.086 376.679 320.366 376.940 320.661  c
377.202 320.956 377.333 321.324 377.333 321.766  c
377.333 322.324 377.112 322.783 376.671 323.143  c
376.229 323.502 375.665 323.682 374.978 323.682  c
h
386.485 322.727 m
385.794 323.363 385.128 323.682 384.487 323.682  c
383.960 323.682 383.522 323.517 383.175 323.187  c
382.827 322.856 382.653 322.439 382.653 321.936  c
382.653 321.240 382.945 320.706 383.529 320.333  c
384.113 319.960 384.950 319.773 386.040 319.773  c
386.315 319.773 l
386.315 319.006 l
386.315 318.268 385.937 317.898 385.179 317.898  c
384.569 317.898 383.911 318.086 383.204 318.461  c
383.204 317.506 l
383.981 317.189 384.710 317.031 385.390 317.031  c
386.101 317.031 386.625 317.191 386.963 317.512  c
387.301 317.832 387.470 318.330 387.470 319.006  c
387.470 321.889 l
387.470 322.549 387.673 322.879 388.079 322.879  c
388.130 322.879 388.204 322.871 388.302 322.855  c
388.384 323.494 l
388.122 323.619 387.833 323.682 387.517 323.682  c
386.978 323.682 386.634 323.363 386.485 322.727  c
h
386.315 322.100 m
386.315 320.453 l
385.929 320.441 l
385.296 320.441 384.784 320.562 384.394 320.802  c
384.003 321.042 383.808 321.357 383.808 321.748  c
383.808 322.025 383.905 322.260 384.101 322.451  c
384.296 322.643 384.534 322.738 384.815 322.738  c
385.296 322.738 385.796 322.525 386.315 322.100  c
h
389.831 323.535 m
389.831 317.172 l
390.985 317.172 l
390.985 318.367 l
391.595 317.477 392.341 317.031 393.224 317.031  c
393.774 317.031 394.214 317.206 394.542 317.556  c
394.870 317.905 395.034 318.375 395.034 318.965  c
395.034 323.535 l
393.880 323.535 l
393.880 319.340 l
393.880 318.867 393.811 318.530 393.672 318.329  c
393.533 318.128 393.304 318.027 392.983 318.027  c
392.276 318.027 391.610 318.490 390.985 319.416  c
390.985 323.535 l
h
401.362 323.535 m
401.362 322.340 l
400.894 323.234 400.187 323.682 399.241 323.682  c
398.476 323.682 397.873 323.402 397.434 322.844  c
396.994 322.285 396.774 321.521 396.774 320.553  c
396.774 319.494 397.023 318.643 397.521 317.998  c
398.020 317.354 398.675 317.031 399.487 317.031  c
400.241 317.031 400.866 317.320 401.362 317.898  c
401.362 314.283 l
402.522 314.283 l
402.522 323.535 l
h
401.362 318.689 m
400.765 318.162 400.198 317.898 399.663 317.898  c
398.558 317.898 398.005 318.744 398.005 320.436  c
398.005 321.924 398.497 322.668 399.481 322.668  c
400.122 322.668 400.749 322.318 401.362 321.619  c
h
408.628 323.535 m
408.628 317.172 l
409.782 317.172 l
409.782 323.535 l
h
408.628 316.018 m
408.628 314.863 l
409.782 314.863 l
409.782 316.018 l
h
416.181 323.535 m
416.181 322.340 l
415.712 323.234 415.005 323.682 414.060 323.682  c
413.294 323.682 412.691 323.402 412.252 322.844  c
411.812 322.285 411.593 321.521 411.593 320.553  c
411.593 319.494 411.842 318.643 412.340 317.998  c
412.838 317.354 413.493 317.031 414.306 317.031  c
415.060 317.031 415.685 317.320 416.181 317.898  c
416.181 314.283 l
417.341 314.283 l
417.341 323.535 l
h
416.181 318.689 m
415.583 318.162 415.017 317.898 414.481 317.898  c
413.376 317.898 412.823 318.744 412.823 320.436  c
412.823 321.924 413.315 322.668 414.300 322.668  c
414.940 322.668 415.567 322.318 416.181 321.619  c
h
424.313 323.330 m
423.540 323.564 422.878 323.682 422.327 323.682  c
421.390 323.682 420.625 323.370 420.033 322.747  c
419.441 322.124 419.146 321.316 419.146 320.324  c
419.146 319.359 419.406 318.568 419.928 317.951  c
420.449 317.334 421.116 317.025 421.929 317.025  c
422.698 317.025 423.293 317.299 423.713 317.846  c
424.133 318.393 424.343 319.170 424.343 320.178  c
424.337 320.535 l
420.323 320.535 l
420.491 322.047 421.231 322.803 422.544 322.803  c
423.024 322.803 423.614 322.674 424.313 322.416  c
h
420.376 319.668 m
423.183 319.668 l
423.183 318.484 422.741 317.893 421.858 317.893  c
420.972 317.893 420.478 318.484 420.376 319.668  c
h
426.335 323.535 m
426.335 317.172 l
427.489 317.172 l
427.489 318.367 l
428.099 317.477 428.845 317.031 429.728 317.031  c
430.278 317.031 430.718 317.206 431.046 317.556  c
431.374 317.905 431.538 318.375 431.538 318.965  c
431.538 323.535 l
430.384 323.535 l
430.384 319.340 l
430.384 318.867 430.314 318.530 430.176 318.329  c
430.037 318.128 429.808 318.027 429.487 318.027  c
428.780 318.027 428.114 318.490 427.489 319.416  c
427.489 323.535 l
h
435.692 323.682 m
435.106 323.682 434.649 323.514 434.321 323.178  c
433.993 322.842 433.829 322.375 433.829 321.777  c
433.829 318.039 l
433.032 318.039 l
433.032 317.172 l
433.829 317.172 l
433.829 316.018 l
434.983 315.906 l
434.983 317.172 l
436.647 317.172 l
436.647 318.039 l
434.983 318.039 l
434.983 321.566 l
434.983 322.398 435.343 322.814 436.062 322.814  c
436.214 322.814 436.399 322.789 436.618 322.738  c
436.618 323.535 l
436.263 323.633 435.954 323.682 435.692 323.682  c
h
438.271 323.535 m
438.271 317.172 l
439.425 317.172 l
439.425 323.535 l
h
438.271 316.018 m
438.271 314.863 l
439.425 314.863 l
439.425 316.018 l
h
443.649 323.682 m
443.063 323.682 442.606 323.514 442.278 323.178  c
441.950 322.842 441.786 322.375 441.786 321.777  c
441.786 318.039 l
440.989 318.039 l
440.989 317.172 l
441.786 317.172 l
441.786 316.018 l
442.940 315.906 l
442.940 317.172 l
444.604 317.172 l
444.604 318.039 l
442.940 318.039 l
442.940 321.566 l
442.940 322.398 443.300 322.814 444.019 322.814  c
444.171 322.814 444.356 322.789 444.575 322.738  c
444.575 323.535 l
444.220 323.633 443.911 323.682 443.649 323.682  c
h
446.597 325.850 m
447.628 323.535 l
445.167 317.172 l
446.415 317.172 l
448.237 321.965 l
450.183 317.172 l
451.272 317.172 l
447.798 325.850 l
h
f
2 J
10.0000 M
0 J
1.45000 M
newpath
370.000 259.000 m
370.000 267.284 363.284 274.000 355.000 274.000  c
346.716 274.000 340.000 267.284 340.000 259.000  c
340.000 250.716 346.716 244.000 355.000 244.000  c
363.284 244.000 370.000 250.716 370.000 259.000  c
h
S
2 J
10.0000 M
0 J
1.45000 M
newpath
319.876 235.469 m
319.876 226.797 l
321.581 226.797 l
323.983 233.506 l
326.456 226.797 l
327.979 226.797 l
327.979 235.469 l
326.831 235.469 l
326.831 228.414 l
324.440 234.889 l
323.251 234.889 l
320.931 228.396 l
320.931 235.469 l
h
333.528 234.660 m
332.837 235.297 332.171 235.615 331.530 235.615  c
331.003 235.615 330.565 235.450 330.218 235.120  c
329.870 234.790 329.696 234.373 329.696 233.869  c
329.696 233.174 329.988 232.640 330.572 232.267  c
331.156 231.894 331.993 231.707 333.083 231.707  c
333.358 231.707 l
333.358 230.939 l
333.358 230.201 332.979 229.832 332.222 229.832  c
331.612 229.832 330.954 230.020 330.247 230.395  c
330.247 229.439 l
331.024 229.123 331.753 228.965 332.433 228.965  c
333.144 228.965 333.668 229.125 334.006 229.445  c
334.344 229.766 334.513 230.264 334.513 230.939  c
334.513 233.822 l
334.513 234.482 334.716 234.812 335.122 234.812  c
335.173 234.812 335.247 234.805 335.345 234.789  c
335.427 235.428 l
335.165 235.553 334.876 235.615 334.560 235.615  c
334.021 235.615 333.677 235.297 333.528 234.660  c
h
333.358 234.033 m
333.358 232.387 l
332.972 232.375 l
332.339 232.375 331.827 232.495 331.437 232.735  c
331.046 232.976 330.851 233.291 330.851 233.682  c
330.851 233.959 330.948 234.193 331.144 234.385  c
331.339 234.576 331.577 234.672 331.858 234.672  c
332.339 234.672 332.839 234.459 333.358 234.033  c
h
336.874 235.469 m
336.874 229.105 l
338.028 229.105 l
338.028 235.469 l
h
336.874 227.951 m
336.874 226.797 l
338.028 226.797 l
338.028 227.951 l
h
340.343 235.469 m
340.343 229.105 l
341.497 229.105 l
341.497 230.301 l
342.106 229.410 342.853 228.965 343.735 228.965  c
344.286 228.965 344.726 229.140 345.054 229.489  c
345.382 229.839 345.546 230.309 345.546 230.898  c
345.546 235.469 l
344.392 235.469 l
344.392 231.273 l
344.392 230.801 344.322 230.464 344.184 230.263  c
344.045 230.062 343.815 229.961 343.495 229.961  c
342.788 229.961 342.122 230.424 341.497 231.350  c
341.497 235.469 l
h
353.614 235.469 m
353.614 227.717 l
350.538 227.717 l
350.538 226.797 l
357.921 226.797 l
357.921 227.717 l
354.845 227.717 l
354.845 235.469 l
h
359.175 235.469 m
359.175 226.217 l
360.329 226.217 l
360.329 230.301 l
360.938 229.410 361.685 228.965 362.567 228.965  c
363.118 228.965 363.558 229.140 363.886 229.489  c
364.214 229.839 364.378 230.309 364.378 230.898  c
364.378 235.469 l
363.224 235.469 l
363.224 231.273 l
363.224 230.801 363.154 230.464 363.016 230.263  c
362.877 230.062 362.647 229.961 362.327 229.961  c
361.620 229.961 360.954 230.424 360.329 231.350  c
360.329 235.469 l
h
366.622 235.469 m
366.622 229.105 l
367.776 229.105 l
367.776 230.301 l
368.233 229.410 368.897 228.965 369.769 228.965  c
369.886 228.965 370.009 228.975 370.138 228.994  c
370.138 230.072 l
369.938 230.006 369.763 229.973 369.610 229.973  c
368.880 229.973 368.269 230.406 367.776 231.273  c
367.776 235.469 l
h
376.196 235.264 m
375.423 235.498 374.761 235.615 374.210 235.615  c
373.272 235.615 372.508 235.304 371.916 234.681  c
371.324 234.058 371.028 233.250 371.028 232.258  c
371.028 231.293 371.289 230.502 371.811 229.885  c
372.332 229.268 372.999 228.959 373.812 228.959  c
374.581 228.959 375.176 229.232 375.596 229.779  c
376.016 230.326 376.226 231.104 376.226 232.111  c
376.220 232.469 l
372.206 232.469 l
372.374 233.980 373.114 234.736 374.427 234.736  c
374.907 234.736 375.497 234.607 376.196 234.350  c
h
372.259 231.602 m
375.065 231.602 l
375.065 230.418 374.624 229.826 373.741 229.826  c
372.854 229.826 372.360 230.418 372.259 231.602  c
h
381.499 234.660 m
380.808 235.297 380.142 235.615 379.501 235.615  c
378.974 235.615 378.536 235.450 378.188 235.120  c
377.841 234.790 377.667 234.373 377.667 233.869  c
377.667 233.174 377.959 232.640 378.543 232.267  c
379.127 231.894 379.964 231.707 381.054 231.707  c
381.329 231.707 l
381.329 230.939 l
381.329 230.201 380.950 229.832 380.192 229.832  c
379.583 229.832 378.925 230.020 378.218 230.395  c
378.218 229.439 l
378.995 229.123 379.724 228.965 380.403 228.965  c
381.114 228.965 381.639 229.125 381.977 229.445  c
382.314 229.766 382.483 230.264 382.483 230.939  c
382.483 233.822 l
382.483 234.482 382.687 234.812 383.093 234.812  c
383.144 234.812 383.218 234.805 383.315 234.789  c
383.397 235.428 l
383.136 235.553 382.847 235.615 382.530 235.615  c
381.991 235.615 381.647 235.297 381.499 234.660  c
h
381.329 234.033 m
381.329 232.387 l
380.942 232.375 l
380.310 232.375 379.798 232.495 379.407 232.735  c
379.017 232.976 378.821 233.291 378.821 233.682  c
378.821 233.959 378.919 234.193 379.114 234.385  c
379.310 234.576 379.548 234.672 379.829 234.672  c
380.310 234.672 380.810 234.459 381.329 234.033  c
h
388.929 235.469 m
388.929 234.273 l
388.460 235.168 387.753 235.615 386.808 235.615  c
386.042 235.615 385.439 235.336 385.000 234.777  c
384.561 234.219 384.341 233.455 384.341 232.486  c
384.341 231.428 384.590 230.576 385.088 229.932  c
385.586 229.287 386.241 228.965 387.054 228.965  c
387.808 228.965 388.433 229.254 388.929 229.832  c
388.929 226.217 l
390.089 226.217 l
390.089 235.469 l
h
388.929 230.623 m
388.331 230.096 387.765 229.832 387.229 229.832  c
386.124 229.832 385.571 230.678 385.571 232.369  c
385.571 233.857 386.063 234.602 387.048 234.602  c
387.688 234.602 388.315 234.252 388.929 233.553  c
h
f
2 J
10.0000 M
0 J
1.45000 M
newpath
249.500 368.000 m
249.500 390.000 l
249.500 392.209 251.291 394.000 253.500 394.000  c
456.500 394.000 l
458.709 394.000 460.500 392.209 460.500 390.000  c
460.500 368.000 l
460.500 365.791 458.709 364.000 456.500 364.000  c
253.500 364.000 l
251.291 364.000 249.500 365.791 249.500 368.000  c
h
S
2 J
10.0000 M
0 J
1.45000 M
newpath
328.205 383.535 m
328.205 374.863 l
330.455 374.863 l
331.322 374.863 331.987 375.027 332.450 375.355  c
332.913 375.684 333.145 376.156 333.145 376.773  c
333.145 377.824 332.551 378.572 331.363 379.018  c
332.781 379.451 333.490 380.234 333.490 381.367  c
333.490 382.070 333.256 382.607 332.787 382.979  c
332.318 383.350 331.643 383.535 330.760 383.535  c
h
329.424 382.615 m
329.676 382.615 l
330.578 382.615 331.162 382.559 331.428 382.445  c
331.936 382.230 332.189 381.832 332.189 381.250  c
332.189 380.734 331.959 380.306 331.498 379.964  c
331.037 379.622 330.461 379.451 329.770 379.451  c
329.424 379.451 l
h
329.424 378.672 m
329.816 378.672 l
330.473 378.672 330.981 378.531 331.343 378.250  c
331.704 377.969 331.885 377.572 331.885 377.061  c
331.885 376.209 331.225 375.783 329.904 375.783  c
329.424 375.783 l
h
337.633 383.682 m
336.723 383.682 335.996 383.380 335.453 382.776  c
334.910 382.173 334.639 381.365 334.639 380.354  c
334.639 379.330 334.911 378.521 335.456 377.925  c
336.001 377.329 336.740 377.031 337.674 377.031  c
338.607 377.031 339.347 377.329 339.892 377.925  c
340.437 378.521 340.709 379.326 340.709 380.342  c
340.709 381.381 340.436 382.197 339.889 382.791  c
339.342 383.385 338.590 383.682 337.633 383.682  c
h
337.650 382.814 m
338.873 382.814 339.484 381.990 339.484 380.342  c
339.484 378.713 338.881 377.898 337.674 377.898  c
336.471 377.898 335.869 378.717 335.869 380.354  c
335.869 381.994 336.463 382.814 337.650 382.814  c
h
345.004 383.682 m
344.094 383.682 343.367 383.380 342.824 382.776  c
342.281 382.173 342.010 381.365 342.010 380.354  c
342.010 379.330 342.282 378.521 342.827 377.925  c
343.372 377.329 344.111 377.031 345.045 377.031  c
345.979 377.031 346.718 377.329 347.263 377.925  c
347.808 378.521 348.080 379.326 348.080 380.342  c
348.080 381.381 347.807 382.197 347.260 382.791  c
346.713 383.385 345.961 383.682 345.004 383.682  c
h
345.021 382.814 m
346.244 382.814 346.855 381.990 346.855 380.342  c
346.855 378.713 346.252 377.898 345.045 377.898  c
343.842 377.898 343.240 378.717 343.240 380.354  c
343.240 381.994 343.834 382.814 345.021 382.814  c
h
351.795 383.682 m
351.209 383.682 350.752 383.514 350.424 383.178  c
350.096 382.842 349.932 382.375 349.932 381.777  c
349.932 378.039 l
349.135 378.039 l
349.135 377.172 l
349.932 377.172 l
349.932 376.018 l
351.086 375.906 l
351.086 377.172 l
352.750 377.172 l
352.750 378.039 l
351.086 378.039 l
351.086 381.566 l
351.086 382.398 351.445 382.814 352.164 382.814  c
352.316 382.814 352.502 382.789 352.721 382.738  c
352.721 383.535 l
352.365 383.633 352.057 383.682 351.795 383.682  c
h
356.061 383.682 m
355.533 383.682 354.893 383.559 354.139 383.312  c
354.139 382.252 l
354.893 382.627 355.549 382.814 356.107 382.814  c
356.439 382.814 356.715 382.725 356.934 382.545  c
357.152 382.365 357.262 382.141 357.262 381.871  c
357.262 381.477 356.955 381.150 356.342 380.893  c
355.668 380.605 l
354.672 380.191 354.174 379.596 354.174 378.818  c
354.174 378.264 354.370 377.827 354.763 377.509  c
355.155 377.190 355.693 377.031 356.377 377.031  c
356.732 377.031 357.172 377.080 357.695 377.178  c
357.936 377.225 l
357.936 378.186 l
357.291 377.994 356.779 377.898 356.400 377.898  c
355.658 377.898 355.287 378.168 355.287 378.707  c
355.287 379.055 355.568 379.348 356.131 379.586  c
356.688 379.820 l
357.316 380.086 357.762 380.366 358.023 380.661  c
358.285 380.956 358.416 381.324 358.416 381.766  c
358.416 382.324 358.195 382.783 357.754 383.143  c
357.312 383.502 356.748 383.682 356.061 383.682  c
h
362.400 383.682 m
361.814 383.682 361.357 383.514 361.029 383.178  c
360.701 382.842 360.537 382.375 360.537 381.777  c
360.537 378.039 l
359.740 378.039 l
359.740 377.172 l
360.537 377.172 l
360.537 376.018 l
361.691 375.906 l
361.691 377.172 l
363.355 377.172 l
363.355 378.039 l
361.691 378.039 l
361.691 381.566 l
361.691 382.398 362.051 382.814 362.770 382.814  c
362.922 382.814 363.107 382.789 363.326 382.738  c
363.326 383.535 l
362.971 383.633 362.662 383.682 362.400 383.682  c
h
364.979 383.535 m
364.979 377.172 l
366.133 377.172 l
366.133 378.367 l
366.590 377.477 367.254 377.031 368.125 377.031  c
368.242 377.031 368.365 377.041 368.494 377.061  c
368.494 378.139 l
368.295 378.072 368.119 378.039 367.967 378.039  c
367.236 378.039 366.625 378.473 366.133 379.340  c
366.133 383.535 l
h
373.170 382.727 m
372.479 383.363 371.812 383.682 371.172 383.682  c
370.645 383.682 370.207 383.517 369.859 383.187  c
369.512 382.856 369.338 382.439 369.338 381.936  c
369.338 381.240 369.630 380.706 370.214 380.333  c
370.798 379.960 371.635 379.773 372.725 379.773  c
373.000 379.773 l
373.000 379.006 l
373.000 378.268 372.621 377.898 371.863 377.898  c
371.254 377.898 370.596 378.086 369.889 378.461  c
369.889 377.506 l
370.666 377.189 371.395 377.031 372.074 377.031  c
372.785 377.031 373.310 377.191 373.647 377.512  c
373.985 377.832 374.154 378.330 374.154 379.006  c
374.154 381.889 l
374.154 382.549 374.357 382.879 374.764 382.879  c
374.814 382.879 374.889 382.871 374.986 382.855  c
375.068 383.494 l
374.807 383.619 374.518 383.682 374.201 383.682  c
373.662 383.682 373.318 383.363 373.170 382.727  c
h
373.000 382.100 m
373.000 380.453 l
372.613 380.441 l
371.980 380.441 371.469 380.562 371.078 380.802  c
370.688 381.042 370.492 381.357 370.492 381.748  c
370.492 382.025 370.590 382.260 370.785 382.451  c
370.980 382.643 371.219 382.738 371.500 382.738  c
371.980 382.738 372.480 382.525 373.000 382.100  c
h
376.516 385.850 m
376.516 377.172 l
377.670 377.172 l
377.670 378.367 l
378.143 377.477 378.852 377.031 379.797 377.031  c
380.562 377.031 381.165 377.311 381.604 377.869  c
382.044 378.428 382.264 379.191 382.264 380.160  c
382.264 381.215 382.015 382.065 381.517 382.712  c
381.019 383.358 380.363 383.682 379.551 383.682  c
378.797 383.682 378.170 383.393 377.670 382.814  c
377.670 385.850 l
h
377.670 382.018 m
378.264 382.549 378.830 382.814 379.369 382.814  c
380.479 382.814 381.033 381.969 381.033 380.277  c
381.033 378.785 380.541 378.039 379.557 378.039  c
378.912 378.039 378.283 378.389 377.670 379.088  c
h
f
2 J
10.0000 M
0 J
1.45000 M
newpath
249.500 428.000 m
249.500 450.000 l
249.500 452.209 251.291 454.000 253.500 454.000  c
456.500 454.000 l
458.709 454.000 460.500 452.209 460.500 450.000  c
460.500 428.000 l
460.500 425.791 458.709 424.000 456.500 424.000  c
253.500 424.000 l
251.291 424.000 249.500 425.791 249.500 428.000  c
h
S
2 J
10.0000 M
0 J
1.45000 M
newpath
319.261 443.752 m
318.679 443.752 317.935 443.625 317.028 443.371  c
317.028 442.152 l
318.005 442.605 318.808 442.832 319.437 442.832  c
319.921 442.832 320.311 442.705 320.605 442.451  c
320.900 442.197 321.048 441.863 321.048 441.449  c
321.048 441.109 320.951 440.820 320.758 440.582  c
320.564 440.344 320.208 440.078 319.688 439.785  c
319.091 439.439 l
318.353 439.018 317.832 438.620 317.529 438.247  c
317.227 437.874 317.075 437.439 317.075 436.943  c
317.075 436.275 317.317 435.726 317.802 435.294  c
318.286 434.862 318.903 434.646 319.653 434.646  c
320.321 434.646 321.026 434.758 321.769 434.980  c
321.769 436.105 l
320.854 435.746 320.173 435.566 319.724 435.566  c
319.298 435.566 318.946 435.680 318.669 435.906  c
318.392 436.133 318.253 436.418 318.253 436.762  c
318.253 437.051 318.354 437.307 318.558 437.529  c
318.761 437.752 319.132 438.018 319.671 438.326  c
320.292 438.678 l
321.042 439.104 321.565 439.506 321.862 439.885  c
322.159 440.264 322.308 440.719 322.308 441.250  c
322.308 442.004 322.029 442.609 321.473 443.066  c
320.916 443.523 320.179 443.752 319.261 443.752  c
h
325.970 443.682 m
325.384 443.682 324.927 443.514 324.599 443.178  c
324.271 442.842 324.106 442.375 324.106 441.777  c
324.106 438.039 l
323.310 438.039 l
323.310 437.172 l
324.106 437.172 l
324.106 436.018 l
325.261 435.906 l
325.261 437.172 l
326.925 437.172 l
326.925 438.039 l
325.261 438.039 l
325.261 441.566 l
325.261 442.398 325.620 442.814 326.339 442.814  c
326.491 442.814 326.677 442.789 326.896 442.738  c
326.896 443.535 l
326.540 443.633 326.231 443.682 325.970 443.682  c
h
331.829 442.727 m
331.138 443.363 330.472 443.682 329.831 443.682  c
329.304 443.682 328.866 443.517 328.519 443.187  c
328.171 442.856 327.997 442.439 327.997 441.936  c
327.997 441.240 328.289 440.706 328.873 440.333  c
329.457 439.960 330.294 439.773 331.384 439.773  c
331.659 439.773 l
331.659 439.006 l
331.659 438.268 331.280 437.898 330.522 437.898  c
329.913 437.898 329.255 438.086 328.548 438.461  c
328.548 437.506 l
329.325 437.189 330.054 437.031 330.733 437.031  c
331.444 437.031 331.969 437.191 332.307 437.512  c
332.645 437.832 332.813 438.330 332.813 439.006  c
332.813 441.889 l
332.813 442.549 333.017 442.879 333.423 442.879  c
333.474 442.879 333.548 442.871 333.646 442.855  c
333.728 443.494 l
333.466 443.619 333.177 443.682 332.860 443.682  c
332.321 443.682 331.978 443.363 331.829 442.727  c
h
331.659 442.100 m
331.659 440.453 l
331.272 440.441 l
330.640 440.441 330.128 440.562 329.737 440.802  c
329.347 441.042 329.151 441.357 329.151 441.748  c
329.151 442.025 329.249 442.260 329.444 442.451  c
329.640 442.643 329.878 442.738 330.159 442.738  c
330.640 442.738 331.140 442.525 331.659 442.100  c
h
335.175 443.535 m
335.175 437.172 l
336.329 437.172 l
336.329 438.367 l
336.786 437.477 337.450 437.031 338.321 437.031  c
338.438 437.031 338.562 437.041 338.690 437.061  c
338.690 438.139 l
338.491 438.072 338.315 438.039 338.163 438.039  c
337.433 438.039 336.821 438.473 336.329 439.340  c
336.329 443.535 l
h
341.995 443.682 m
341.409 443.682 340.952 443.514 340.624 443.178  c
340.296 442.842 340.132 442.375 340.132 441.777  c
340.132 438.039 l
339.335 438.039 l
339.335 437.172 l
340.132 437.172 l
340.132 436.018 l
341.286 435.906 l
341.286 437.172 l
342.950 437.172 l
342.950 438.039 l
341.286 438.039 l
341.286 441.566 l
341.286 442.398 341.646 442.814 342.364 442.814  c
342.517 442.814 342.702 442.789 342.921 442.738  c
342.921 443.535 l
342.565 443.633 342.257 443.682 341.995 443.682  c
h
350.058 443.682 m
349.530 443.682 348.890 443.559 348.136 443.312  c
348.136 442.252 l
348.890 442.627 349.546 442.814 350.104 442.814  c
350.437 442.814 350.712 442.725 350.931 442.545  c
351.149 442.365 351.259 442.141 351.259 441.871  c
351.259 441.477 350.952 441.150 350.339 440.893  c
349.665 440.605 l
348.669 440.191 348.171 439.596 348.171 438.818  c
348.171 438.264 348.367 437.827 348.760 437.509  c
349.152 437.190 349.690 437.031 350.374 437.031  c
350.729 437.031 351.169 437.080 351.692 437.178  c
351.933 437.225 l
351.933 438.186 l
351.288 437.994 350.776 437.898 350.397 437.898  c
349.655 437.898 349.284 438.168 349.284 438.707  c
349.284 439.055 349.565 439.348 350.128 439.586  c
350.685 439.820 l
351.313 440.086 351.759 440.366 352.021 440.661  c
352.282 440.956 352.413 441.324 352.413 441.766  c
352.413 442.324 352.192 442.783 351.751 443.143  c
351.310 443.502 350.745 443.682 350.058 443.682  c
h
359.151 443.330 m
358.378 443.564 357.716 443.682 357.165 443.682  c
356.228 443.682 355.463 443.370 354.871 442.747  c
354.279 442.124 353.983 441.316 353.983 440.324  c
353.983 439.359 354.244 438.568 354.766 437.951  c
355.287 437.334 355.954 437.025 356.767 437.025  c
357.536 437.025 358.131 437.299 358.551 437.846  c
358.971 438.393 359.181 439.170 359.181 440.178  c
359.175 440.535 l
355.161 440.535 l
355.329 442.047 356.069 442.803 357.382 442.803  c
357.862 442.803 358.452 442.674 359.151 442.416  c
h
355.214 439.668 m
358.021 439.668 l
358.021 438.484 357.579 437.893 356.696 437.893  c
355.810 437.893 355.315 438.484 355.214 439.668  c
h
361.173 443.535 m
361.173 437.172 l
362.327 437.172 l
362.327 438.367 l
362.784 437.477 363.448 437.031 364.319 437.031  c
364.437 437.031 364.560 437.041 364.688 437.061  c
364.688 438.139 l
364.489 438.072 364.313 438.039 364.161 438.039  c
363.431 438.039 362.819 438.473 362.327 439.340  c
362.327 443.535 l
h
367.401 443.535 m
365.034 437.172 l
366.188 437.172 l
368.040 442.123 l
369.991 437.172 l
371.069 437.172 l
368.556 443.535 l
h
372.294 443.535 m
372.294 437.172 l
373.448 437.172 l
373.448 443.535 l
h
372.294 436.018 m
372.294 434.863 l
373.448 434.863 l
373.448 436.018 l
h
378.247 443.682 m
377.388 443.682 376.675 443.363 376.108 442.727  c
375.542 442.090 375.259 441.287 375.259 440.318  c
375.259 439.283 375.539 438.477 376.100 437.898  c
376.660 437.320 377.442 437.031 378.446 437.031  c
378.942 437.031 379.497 437.100 380.110 437.236  c
380.110 438.203 l
379.458 438.012 378.927 437.916 378.517 437.916  c
377.927 437.916 377.453 438.138 377.096 438.581  c
376.738 439.024 376.560 439.615 376.560 440.354  c
376.560 441.068 376.743 441.646 377.110 442.088  c
377.478 442.529 377.958 442.750 378.552 442.750  c
379.079 442.750 379.622 442.615 380.181 442.346  c
380.181 443.342 l
379.435 443.568 378.790 443.682 378.247 443.682  c
h
386.573 443.330 m
385.800 443.564 385.138 443.682 384.587 443.682  c
383.649 443.682 382.885 443.370 382.293 442.747  c
381.701 442.124 381.405 441.316 381.405 440.324  c
381.405 439.359 381.666 438.568 382.188 437.951  c
382.709 437.334 383.376 437.025 384.188 437.025  c
384.958 437.025 385.553 437.299 385.973 437.846  c
386.393 438.393 386.603 439.170 386.603 440.178  c
386.597 440.535 l
382.583 440.535 l
382.751 442.047 383.491 442.803 384.804 442.803  c
385.284 442.803 385.874 442.674 386.573 442.416  c
h
382.636 439.668 m
385.442 439.668 l
385.442 438.484 385.001 437.893 384.118 437.893  c
383.231 437.893 382.737 438.484 382.636 439.668  c
h
390.282 443.682 m
389.755 443.682 389.114 443.559 388.360 443.312  c
388.360 442.252 l
389.114 442.627 389.771 442.814 390.329 442.814  c
390.661 442.814 390.937 442.725 391.155 442.545  c
391.374 442.365 391.483 442.141 391.483 441.871  c
391.483 441.477 391.177 441.150 390.563 440.893  c
389.890 440.605 l
388.894 440.191 388.396 439.596 388.396 438.818  c
388.396 438.264 388.592 437.827 388.984 437.509  c
389.377 437.190 389.915 437.031 390.599 437.031  c
390.954 437.031 391.394 437.080 391.917 437.178  c
392.157 437.225 l
392.157 438.186 l
391.513 437.994 391.001 437.898 390.622 437.898  c
389.880 437.898 389.509 438.168 389.509 438.707  c
389.509 439.055 389.790 439.348 390.353 439.586  c
390.909 439.820 l
391.538 440.086 391.983 440.366 392.245 440.661  c
392.507 440.956 392.638 441.324 392.638 441.766  c
392.638 442.324 392.417 442.783 391.976 443.143  c
391.534 443.502 390.970 443.682 390.282 443.682  c
h
f
2 J
10.0000 M
0 J
1.45000 M
newpath
249.500 488.000 m
249.500 510.000 l
249.500 512.209 251.291 514.000 253.500 514.000  c
456.500 514.000 l
458.709 514.000 460.500 512.209 460.500 510.000  c
460.500 488.000 l
460.500 485.791 458.709 484.000 456.500 484.000  c
253.500 484.000 l
251.291 484.000 249.500 485.791 249.500 488.000  c
h
S
2 J
10.0000 M
0 J
1.45000 M
newpath
310.322 503.535 m
310.322 494.863 l
311.529 494.863 l
315.895 501.561 l
315.895 494.863 l
316.949 494.863 l
316.949 503.535 l
315.748 503.535 l
311.377 496.838 l
311.377 503.535 l
h
319.188 503.535 m
319.188 494.863 l
322.070 494.863 l
322.930 494.863 323.624 494.959 324.153 495.150  c
324.683 495.342 325.141 495.666 325.527 496.123  c
326.141 496.850 326.447 497.807 326.447 498.994  c
326.447 500.436 326.066 501.553 325.305 502.346  c
324.543 503.139 323.471 503.535 322.088 503.535  c
h
320.418 502.615 m
321.994 502.615 l
323.119 502.615 323.916 502.312 324.385 501.707  c
324.889 501.062 325.141 500.197 325.141 499.111  c
325.141 498.092 324.893 497.291 324.396 496.709  c
324.096 496.354 323.736 496.110 323.318 495.979  c
322.900 495.849 322.271 495.783 321.432 495.783  c
320.418 495.783 l
h
328.176 503.535 m
328.176 494.863 l
329.383 494.863 l
333.748 501.561 l
333.748 494.863 l
334.803 494.863 l
334.803 503.535 l
333.602 503.535 l
329.230 496.838 l
329.230 503.535 l
h
345.537 503.330 m
344.764 503.564 344.102 503.682 343.551 503.682  c
342.613 503.682 341.849 503.370 341.257 502.747  c
340.665 502.124 340.369 501.316 340.369 500.324  c
340.369 499.359 340.630 498.568 341.151 497.951  c
341.673 497.334 342.340 497.025 343.152 497.025  c
343.922 497.025 344.517 497.299 344.937 497.846  c
345.356 498.393 345.566 499.170 345.566 500.178  c
345.561 500.535 l
341.547 500.535 l
341.715 502.047 342.455 502.803 343.768 502.803  c
344.248 502.803 344.838 502.674 345.537 502.416  c
h
341.600 499.668 m
344.406 499.668 l
344.406 498.484 343.965 497.893 343.082 497.893  c
342.195 497.893 341.701 498.484 341.600 499.668  c
h
348.877 503.535 m
346.510 497.172 l
347.664 497.172 l
349.516 502.123 l
351.467 497.172 l
352.545 497.172 l
350.031 503.535 l
h
358.434 503.330 m
357.660 503.564 356.998 503.682 356.447 503.682  c
355.510 503.682 354.745 503.370 354.153 502.747  c
353.562 502.124 353.266 501.316 353.266 500.324  c
353.266 499.359 353.526 498.568 354.048 497.951  c
354.569 497.334 355.236 497.025 356.049 497.025  c
356.818 497.025 357.413 497.299 357.833 497.846  c
358.253 498.393 358.463 499.170 358.463 500.178  c
358.457 500.535 l
354.443 500.535 l
354.611 502.047 355.352 502.803 356.664 502.803  c
357.145 502.803 357.734 502.674 358.434 502.416  c
h
354.496 499.668 m
357.303 499.668 l
357.303 498.484 356.861 497.893 355.979 497.893  c
355.092 497.893 354.598 498.484 354.496 499.668  c
h
360.455 503.535 m
360.455 497.172 l
361.609 497.172 l
361.609 498.367 l
362.219 497.477 362.965 497.031 363.848 497.031  c
364.398 497.031 364.838 497.206 365.166 497.556  c
365.494 497.905 365.658 498.375 365.658 498.965  c
365.658 503.535 l
364.504 503.535 l
364.504 499.340 l
364.504 498.867 364.435 498.530 364.296 498.329  c
364.157 498.128 363.928 498.027 363.607 498.027  c
362.900 498.027 362.234 498.490 361.609 499.416  c
361.609 503.535 l
h
369.812 503.682 m
369.227 503.682 368.770 503.514 368.441 503.178  c
368.113 502.842 367.949 502.375 367.949 501.777  c
367.949 498.039 l
367.152 498.039 l
367.152 497.172 l
367.949 497.172 l
367.949 496.018 l
369.104 495.906 l
369.104 497.172 l
370.768 497.172 l
370.768 498.039 l
369.104 498.039 l
369.104 501.566 l
369.104 502.398 369.463 502.814 370.182 502.814  c
370.334 502.814 370.520 502.789 370.738 502.738  c
370.738 503.535 l
370.383 503.633 370.074 503.682 369.812 503.682  c
h
376.188 503.535 m
376.188 494.283 l
377.342 494.283 l
377.342 503.535 l
h
382.146 503.682 m
381.236 503.682 380.510 503.380 379.967 502.776  c
379.424 502.173 379.152 501.365 379.152 500.354  c
379.152 499.330 379.425 498.521 379.970 497.925  c
380.515 497.329 381.254 497.031 382.188 497.031  c
383.121 497.031 383.860 497.329 384.405 497.925  c
384.950 498.521 385.223 499.326 385.223 500.342  c
385.223 501.381 384.949 502.197 384.402 502.791  c
383.855 503.385 383.104 503.682 382.146 503.682  c
h
382.164 502.814 m
383.387 502.814 383.998 501.990 383.998 500.342  c
383.998 498.713 383.395 497.898 382.188 497.898  c
380.984 497.898 380.383 498.717 380.383 500.354  c
380.383 501.994 380.977 502.814 382.164 502.814  c
h
389.518 503.682 m
388.607 503.682 387.881 503.380 387.338 502.776  c
386.795 502.173 386.523 501.365 386.523 500.354  c
386.523 499.330 386.796 498.521 387.341 497.925  c
387.886 497.329 388.625 497.031 389.559 497.031  c
390.492 497.031 391.231 497.329 391.776 497.925  c
392.321 498.521 392.594 499.326 392.594 500.342  c
392.594 501.381 392.320 502.197 391.773 502.791  c
391.227 503.385 390.475 503.682 389.518 503.682  c
h
389.535 502.814 m
390.758 502.814 391.369 501.990 391.369 500.342  c
391.369 498.713 390.766 497.898 389.559 497.898  c
388.355 497.898 387.754 498.717 387.754 500.354  c
387.754 501.994 388.348 502.814 389.535 502.814  c
h
394.398 505.850 m
394.398 497.172 l
395.553 497.172 l
395.553 498.367 l
396.025 497.477 396.734 497.031 397.680 497.031  c
398.445 497.031 399.048 497.311 399.487 497.869  c
399.927 498.428 400.146 499.191 400.146 500.160  c
400.146 501.215 399.897 502.065 399.399 502.712  c
398.901 503.358 398.246 503.682 397.434 503.682  c
396.680 503.682 396.053 503.393 395.553 502.814  c
395.553 505.850 l
h
395.553 502.018 m
396.146 502.549 396.713 502.814 397.252 502.814  c
398.361 502.814 398.916 501.969 398.916 500.277  c
398.916 498.785 398.424 498.039 397.439 498.039  c
396.795 498.039 396.166 498.389 395.553 499.088  c
h
f
2 J
10.0000 M
0 J
1.45000 M
newpath
249.500 548.000 m
249.500 570.000 l
249.500 572.209 251.291 574.000 253.500 574.000  c
456.500 574.000 l
458.709 574.000 460.500 572.209 460.500 570.000  c
460.500 548.000 l
460.500 545.791 458.709 544.000 456.500 544.000  c
253.500 544.000 l
251.291 544.000 249.500 545.791 249.500 548.000  c
h
S
2 J
10.0000 M
0 J
1.45000 M
newpath
327.777 563.535 m
327.777 554.863 l
329.008 554.863 l
329.008 558.520 l
333.133 558.520 l
333.133 554.863 l
334.363 554.863 l
334.363 563.535 l
333.133 563.535 l
333.133 559.439 l
329.008 559.439 l
329.008 563.535 l
h
336.631 563.535 m
336.631 557.172 l
337.785 557.172 l
337.785 563.535 l
h
336.631 556.018 m
336.631 554.863 l
337.785 554.863 l
337.785 556.018 l
h
340.100 563.605 m
340.100 554.283 l
341.254 554.283 l
341.254 558.367 l
341.727 557.477 342.436 557.031 343.381 557.031  c
344.146 557.031 344.749 557.311 345.188 557.869  c
345.628 558.428 345.848 559.191 345.848 560.160  c
345.848 561.215 345.599 562.065 345.101 562.712  c
344.603 563.358 343.947 563.682 343.135 563.682  c
342.381 563.682 341.754 563.393 341.254 562.814  c
341.113 563.605 l
h
341.254 562.018 m
341.848 562.549 342.414 562.814 342.953 562.814  c
344.062 562.814 344.617 561.969 344.617 560.277  c
344.617 558.785 344.125 558.039 343.141 558.039  c
342.496 558.039 341.867 558.389 341.254 559.088  c
h
352.316 563.330 m
351.543 563.564 350.881 563.682 350.330 563.682  c
349.393 563.682 348.628 563.370 348.036 562.747  c
347.444 562.124 347.148 561.316 347.148 560.324  c
347.148 559.359 347.409 558.568 347.931 557.951  c
348.452 557.334 349.119 557.025 349.932 557.025  c
350.701 557.025 351.296 557.299 351.716 557.846  c
352.136 558.393 352.346 559.170 352.346 560.178  c
352.340 560.535 l
348.326 560.535 l
348.494 562.047 349.234 562.803 350.547 562.803  c
351.027 562.803 351.617 562.674 352.316 562.416  c
h
348.379 559.668 m
351.186 559.668 l
351.186 558.484 350.744 557.893 349.861 557.893  c
348.975 557.893 348.480 558.484 348.379 559.668  c
h
354.338 563.535 m
354.338 557.172 l
355.492 557.172 l
355.492 558.367 l
355.949 557.477 356.613 557.031 357.484 557.031  c
357.602 557.031 357.725 557.041 357.854 557.061  c
357.854 558.139 l
357.654 558.072 357.479 558.039 357.326 558.039  c
356.596 558.039 355.984 558.473 355.492 559.340  c
355.492 563.535 l
h
359.248 563.535 m
359.248 557.172 l
360.402 557.172 l
360.402 558.367 l
361.012 557.477 361.758 557.031 362.641 557.031  c
363.191 557.031 363.631 557.206 363.959 557.556  c
364.287 557.905 364.451 558.375 364.451 558.965  c
364.451 563.535 l
363.297 563.535 l
363.297 559.340 l
363.297 558.867 363.228 558.530 363.089 558.329  c
362.950 558.128 362.721 558.027 362.400 558.027  c
361.693 558.027 361.027 558.490 360.402 559.416  c
360.402 563.535 l
h
369.977 562.727 m
369.285 563.363 368.619 563.682 367.979 563.682  c
367.451 563.682 367.014 563.517 366.666 563.187  c
366.318 562.856 366.145 562.439 366.145 561.936  c
366.145 561.240 366.437 560.706 367.021 560.333  c
367.604 559.960 368.441 559.773 369.531 559.773  c
369.807 559.773 l
369.807 559.006 l
369.807 558.268 369.428 557.898 368.670 557.898  c
368.061 557.898 367.402 558.086 366.695 558.461  c
366.695 557.506 l
367.473 557.189 368.201 557.031 368.881 557.031  c
369.592 557.031 370.116 557.191 370.454 557.512  c
370.792 557.832 370.961 558.330 370.961 559.006  c
370.961 561.889 l
370.961 562.549 371.164 562.879 371.570 562.879  c
371.621 562.879 371.695 562.871 371.793 562.855  c
371.875 563.494 l
371.613 563.619 371.324 563.682 371.008 563.682  c
370.469 563.682 370.125 563.363 369.977 562.727  c
h
369.807 562.100 m
369.807 560.453 l
369.420 560.441 l
368.787 560.441 368.275 560.562 367.885 560.802  c
367.494 561.042 367.299 561.357 367.299 561.748  c
367.299 562.025 367.396 562.260 367.592 562.451  c
367.787 562.643 368.025 562.738 368.307 562.738  c
368.787 562.738 369.287 562.525 369.807 562.100  c
h
375.232 563.682 m
374.646 563.682 374.189 563.514 373.861 563.178  c
373.533 562.842 373.369 562.375 373.369 561.777  c
373.369 558.039 l
372.572 558.039 l
372.572 557.172 l
373.369 557.172 l
373.369 556.018 l
374.523 555.906 l
374.523 557.172 l
376.188 557.172 l
376.188 558.039 l
374.523 558.039 l
374.523 561.566 l
374.523 562.398 374.883 562.814 375.602 562.814  c
375.754 562.814 375.939 562.789 376.158 562.738  c
376.158 563.535 l
375.803 563.633 375.494 563.682 375.232 563.682  c
h
382.475 563.330 m
381.701 563.564 381.039 563.682 380.488 563.682  c
379.551 563.682 378.786 563.370 378.194 562.747  c
377.603 562.124 377.307 561.316 377.307 560.324  c
377.307 559.359 377.567 558.568 378.089 557.951  c
378.610 557.334 379.277 557.025 380.090 557.025  c
380.859 557.025 381.454 557.299 381.874 557.846  c
382.294 558.393 382.504 559.170 382.504 560.178  c
382.498 560.535 l
378.484 560.535 l
378.652 562.047 379.393 562.803 380.705 562.803  c
381.186 562.803 381.775 562.674 382.475 562.416  c
h
378.537 559.668 m
381.344 559.668 l
381.344 558.484 380.902 557.893 380.020 557.893  c
379.133 557.893 378.639 558.484 378.537 559.668  c
h
f
2 J
10.0000 M
0 J
1.45000 M
[ 6.00000 2.00000 ] 0.00000 d
newpath
504.000 488.000 m
504.000 510.000 l
504.000 512.209 505.791 514.000 508.000 514.000  c
711.000 514.000 l
713.209 514.000 715.000 512.209 715.000 510.000  c
715.000 488.000 l
715.000 485.791 713.209 484.000 711.000 484.000  c
508.000 484.000 l
505.791 484.000 504.000 485.791 504.000 488.000  c
h
S
2 J
10.0000 M
[ ] 0.00000 d
0 J
1.45000 M
newpath
586.730 503.535 m
586.730 497.172 l
587.885 497.172 l
587.885 498.367 l
588.342 497.477 589.006 497.031 589.877 497.031  c
589.994 497.031 590.117 497.041 590.246 497.061  c
590.246 498.139 l
590.047 498.072 589.871 498.039 589.719 498.039  c
588.988 498.039 588.377 498.473 587.885 499.340  c
587.885 503.535 l
h
595.619 503.535 m
595.619 502.340 l
595.006 503.234 594.262 503.682 593.387 503.682  c
592.832 503.682 592.391 503.507 592.062 503.157  c
591.734 502.808 591.570 502.336 591.570 501.742  c
591.570 497.172 l
592.725 497.172 l
592.725 501.367 l
592.725 501.844 592.794 502.183 592.933 502.384  c
593.071 502.585 593.303 502.686 593.627 502.686  c
594.330 502.686 594.994 502.223 595.619 501.297  c
595.619 497.172 l
596.773 497.172 l
596.773 503.535 l
h
599.088 503.535 m
599.088 497.172 l
600.242 497.172 l
600.242 498.367 l
600.852 497.477 601.598 497.031 602.480 497.031  c
603.031 497.031 603.471 497.206 603.799 497.556  c
604.127 497.905 604.291 498.375 604.291 498.965  c
604.291 503.535 l
603.137 503.535 l
603.137 499.340 l
603.137 498.867 603.067 498.530 602.929 498.329  c
602.790 498.128 602.561 498.027 602.240 498.027  c
601.533 498.027 600.867 498.490 600.242 499.416  c
600.242 503.535 l
h
612.242 503.682 m
611.656 503.682 611.199 503.514 610.871 503.178  c
610.543 502.842 610.379 502.375 610.379 501.777  c
610.379 498.039 l
609.582 498.039 l
609.582 497.172 l
610.379 497.172 l
610.379 496.018 l
611.533 495.906 l
611.533 497.172 l
613.197 497.172 l
613.197 498.039 l
611.533 498.039 l
611.533 501.566 l
611.533 502.398 611.893 502.814 612.611 502.814  c
612.764 502.814 612.949 502.789 613.168 502.738  c
613.168 503.535 l
612.812 503.633 612.504 503.682 612.242 503.682  c
h
618.102 502.727 m
617.410 503.363 616.744 503.682 616.104 503.682  c
615.576 503.682 615.139 503.517 614.791 503.187  c
614.443 502.856 614.270 502.439 614.270 501.936  c
614.270 501.240 614.562 500.706 615.146 500.333  c
615.729 499.960 616.566 499.773 617.656 499.773  c
617.932 499.773 l
617.932 499.006 l
617.932 498.268 617.553 497.898 616.795 497.898  c
616.186 497.898 615.527 498.086 614.820 498.461  c
614.820 497.506 l
615.598 497.189 616.326 497.031 617.006 497.031  c
617.717 497.031 618.241 497.191 618.579 497.512  c
618.917 497.832 619.086 498.330 619.086 499.006  c
619.086 501.889 l
619.086 502.549 619.289 502.879 619.695 502.879  c
619.746 502.879 619.820 502.871 619.918 502.855  c
620.000 503.494 l
619.738 503.619 619.449 503.682 619.133 503.682  c
618.594 503.682 618.250 503.363 618.102 502.727  c
h
617.932 502.100 m
617.932 500.453 l
617.545 500.441 l
616.912 500.441 616.400 500.562 616.010 500.802  c
615.619 501.042 615.424 501.357 615.424 501.748  c
615.424 502.025 615.521 502.260 615.717 502.451  c
615.912 502.643 616.150 502.738 616.432 502.738  c
616.912 502.738 617.412 502.525 617.932 502.100  c
h
623.135 503.682 m
622.607 503.682 621.967 503.559 621.213 503.312  c
621.213 502.252 l
621.967 502.627 622.623 502.814 623.182 502.814  c
623.514 502.814 623.789 502.725 624.008 502.545  c
624.227 502.365 624.336 502.141 624.336 501.871  c
624.336 501.477 624.029 501.150 623.416 500.893  c
622.742 500.605 l
621.746 500.191 621.248 499.596 621.248 498.818  c
621.248 498.264 621.444 497.827 621.837 497.509  c
622.229 497.190 622.768 497.031 623.451 497.031  c
623.807 497.031 624.246 497.080 624.770 497.178  c
625.010 497.225 l
625.010 498.186 l
624.365 497.994 623.854 497.898 623.475 497.898  c
622.732 497.898 622.361 498.168 622.361 498.707  c
622.361 499.055 622.643 499.348 623.205 499.586  c
623.762 499.820 l
624.391 500.086 624.836 500.366 625.098 500.661  c
625.359 500.956 625.490 501.324 625.490 501.766  c
625.490 502.324 625.270 502.783 624.828 503.143  c
624.387 503.502 623.822 503.682 623.135 503.682  c
h
627.564 503.535 m
627.564 494.283 l
628.719 494.283 l
628.719 500.260 l
631.414 497.172 l
632.656 497.172 l
630.084 500.143 l
633.189 503.535 l
631.713 503.535 l
628.719 500.271 l
628.719 503.535 l
h
f
2 J
10.0000 M
0 J
1.45000 M
[ 6.00000 2.00000 ] 0.00000 d
newpath
624.500 439.000 m
624.500 447.284 617.784 454.000 609.500 454.000  c
601.216 454.000 594.500 447.284 594.500 439.000  c
594.500 430.716 601.216 424.000 609.500 424.000  c
617.784 424.000 624.500 430.716 624.500 439.000  c
h
S
2 J
10.0000 M
[ ] 0.00000 d
0 J
1.45000 M
newpath
591.166 415.469 m
588.934 406.797 l
590.117 406.797 l
591.893 413.646 l
593.527 406.797 l
594.711 406.797 l
596.258 413.553 l
598.168 406.797 l
599.170 406.797 l
596.738 415.469 l
595.514 415.469 l
593.984 408.783 l
592.385 415.469 l
h
602.832 415.615 m
601.922 415.615 601.195 415.313 600.652 414.710  c
600.109 414.106 599.838 413.299 599.838 412.287  c
599.838 411.264 600.110 410.454 600.655 409.858  c
601.200 409.263 601.939 408.965 602.873 408.965  c
603.807 408.965 604.546 409.263 605.091 409.858  c
605.636 410.454 605.908 411.260 605.908 412.275  c
605.908 413.314 605.635 414.131 605.088 414.725  c
604.541 415.318 603.789 415.615 602.832 415.615  c
h
602.850 414.748 m
604.072 414.748 604.684 413.924 604.684 412.275  c
604.684 410.646 604.080 409.832 602.873 409.832  c
601.670 409.832 601.068 410.650 601.068 412.287  c
601.068 413.928 601.662 414.748 602.850 414.748  c
h
607.713 415.469 m
607.713 409.105 l
608.867 409.105 l
608.867 410.301 l
609.324 409.410 609.988 408.965 610.859 408.965  c
610.977 408.965 611.100 408.975 611.229 408.994  c
611.229 410.072 l
611.029 410.006 610.854 409.973 610.701 409.973  c
609.971 409.973 609.359 410.406 608.867 411.273  c
608.867 415.469 l
h
612.623 415.469 m
612.623 406.217 l
613.777 406.217 l
613.777 412.193 l
616.473 409.105 l
617.715 409.105 l
615.143 412.076 l
618.248 415.469 l
616.771 415.469 l
613.777 412.205 l
613.777 415.469 l
h
624.301 415.264 m
623.527 415.498 622.865 415.615 622.314 415.615  c
621.377 415.615 620.612 415.304 620.021 414.681  c
619.429 414.058 619.133 413.250 619.133 412.258  c
619.133 411.293 619.394 410.502 619.915 409.885  c
620.437 409.268 621.104 408.959 621.916 408.959  c
622.686 408.959 623.280 409.232 623.700 409.779  c
624.120 410.326 624.330 411.104 624.330 412.111  c
624.324 412.469 l
620.311 412.469 l
620.479 413.980 621.219 414.736 622.531 414.736  c
623.012 414.736 623.602 414.607 624.301 414.350  c
h
620.363 411.602 m
623.170 411.602 l
623.170 410.418 622.729 409.826 621.846 409.826  c
620.959 409.826 620.465 410.418 620.363 411.602  c
h
626.322 415.469 m
626.322 409.105 l
627.477 409.105 l
627.477 410.301 l
627.934 409.410 628.598 408.965 629.469 408.965  c
629.586 408.965 629.709 408.975 629.838 408.994  c
629.838 410.072 l
629.639 410.006 629.463 409.973 629.311 409.973  c
628.580 409.973 627.969 410.406 627.477 411.273  c
627.477 415.469 l
h
f
2 J
10.0000 M
0 J
1.45000 M
newpath
355.000 274.000 m
355.000 296.015 l
S
newpath
355.000 304.015 m
360.000 292.015 l
355.000 295.015 l
350.000 292.015 l
h
f
2 J
10.0000 M
0 J
1.45000 M
newpath
355.000 333.971 m
355.000 356.005 l
S
newpath
355.000 364.005 m
360.000 352.005 l
355.000 355.005 l
350.000 352.005 l
h
f
2 J
10.0000 M
0 J
1.45000 M
newpath
355.000 393.971 m
355.000 416.005 l
S
newpath
355.000 424.005 m
360.000 412.005 l
355.000 415.005 l
350.000 412.005 l
h
f
2 J
10.0000 M
0 J
1.45000 M
newpath
355.000 453.971 m
355.000 476.005 l
S
newpath
355.000 484.005 m
360.000 472.005 l
355.000 475.005 l
350.000 472.005 l
h
f
2 J
10.0000 M
0 J
1.45000 M
newpath
387.663 514.011 m
387.663 535.994 l
S
newpath
387.663 543.994 m
392.663 531.994 l
387.663 534.994 l
382.663 531.994 l
h
f
2 J
10.0000 M
0 J
1.45000 M
newpath
323.180 543.992 m
323.180 522.014 l
S
newpath
323.180 514.014 m
318.180 526.014 l
323.180 523.014 l
328.180 526.014 l
h
f
2 J
10.0000 M
.501961 .501961 .501961 RG
0 J
1.45000 M
[ 6.00000 2.00000 ] 0.00000 d
newpath
460.472 439.000 m
586.500 439.000 l
S
newpath
594.500 439.000 m
582.500 434.000 l
585.500 439.000 l
582.500 444.000 l
h
f
2 J
10.0000 M
[ ] 0.00000 d
0.00000 0.00000 0.00000 RG
0 J
1.45000 M
newpath
609.500 454.000 m
609.500 476.015 l
S
newpath
609.500 484.015 m
614.500 472.015 l
609.500 475.015 l
604.500 472.015 l
h
f
2 J
10.0000 M
Q
[ 1.00000 0.00000 0.00000 1.00000 0.00000 0.00000 ] defaultmatrix matrix concatmatrix setmatrix
cliprestore

%%Trailer
%%EOF
