%!PS-Adobe-3.0 EPSF-3.0
%%Creator: PlantUML v1.2017.15beta3 
%%Title: noTitle
%%BoundingBox: 0 0 723 664
%%ColorUsage: Color
%%Origin: 0 0
%%EndComments

gsave
0 664 translate
1 -1 scale
/simplerect {
newpath moveto 1 index 0 rlineto
0 exch rlineto
neg 0 rlineto
} def
/roundrect {
newpath
dup 3 index add 2 index 2 index add 2 index 180 270 arc
2 index 5 index add 1 index sub 2 index 2 index add 2 index 270 0 arc
2 index 5 index add 1 index sub 2 index 5 index add 2 index sub 2 index 0 90 arc
dup 3 index add 2 index 5 index add 2 index sub 2 index 90 180 arc
pop pop pop pop pop 
} def
/rquadto {
3 index 3 index 4 2 roll rcurveto
} def
/P$h {
0.7759 0.6016 0.9331 2.0713 rquadto
-1.1963 0 rlineto
-0.1094 -0.6768 -0.499 -1.1245 rquadto
-0.3896 -0.4478 -1.251 -0.4478 rquadto
-1.1758 0 -1.6816 1.1484 rquadto
-0.3281 0.7451 -0.3281 1.8389 rquadto
0 1.1006 0.4648 1.8525 rquadto
0.4648 0.752 1.4629 0.752 rquadto
0.7656 0 1.2134 -0.4683 rquadto
0.4478 -0.4683 0.6187 -1.2817 rquadto
1.1963 0 rlineto
-0.2051 1.4561 -1.0254 2.1294 rquadto
-0.8203 0.6733 -2.0986 0.6733 rquadto
-1.4355 0 -2.29 -1.0493 rquadto
-0.8545 -1.0493 -0.8545 -2.6216 rquadto
0 -1.9277 0.9365 -3.001 rquadto
0.9365 -1.0732 2.3857 -1.0732 rquadto
1.2373 0 2.0132 0.6016 rquadto
} def
/P$1u {
0.6411 0 1.0537 -0.1333 rquadto
0.7363 -0.2476 1.2061 -0.9521 rquadto
0.3745 -0.5649 0.5396 -1.4473 rquadto
0.0952 -0.5269 0.0952 -0.9775 rquadto
0 -1.7329 -0.6887 -2.6914 rquadto
-0.6887 -0.9585 -2.2185 -0.9585 rquadto
-2.2407 0 rlineto
0 7.1602 rlineto
closepath
} def
/P$j {
0.0547 0.6152 0.3076 0.9434 rquadto
0.4648 0.5947 1.6133 0.5947 rquadto
0.6836 0 1.2031 -0.2974 rquadto
0.5195 -0.2974 0.5195 -0.9194 rquadto
0 -0.4717 -0.417 -0.7178 rquadto
-0.2666 -0.1504 -1.0527 -0.3486 rquadto
-0.9775 -0.2461 rlineto
-0.9365 -0.2324 -1.3809 -0.5195 rquadto
-0.793 -0.499 -0.793 -1.3809 rquadto
0 -1.0391 0.7485 -1.6816 rquadto
0.7485 -0.6426 2.0132 -0.6426 rquadto
1.6543 0 2.3857 0.9707 rquadto
0.458 0.6152 0.4443 1.3262 rquadto
-1.1621 0 rlineto
-0.0342 -0.417 -0.2939 -0.7588 rquadto
-0.4238 -0.4854 -1.4697 -0.4854 rquadto
-0.6973 0 -1.0562 0.2666 rquadto
-0.3589 0.2666 -0.3589 0.7041 rquadto
0 0.4785 0.4717 0.7656 rquadto
0.2734 0.1709 0.8066 0.3008 rquadto
0.8135 0.1982 rlineto
1.3262 0.3213 1.7773 0.6221 rquadto
0.7178 0.4717 0.7178 1.4834 rquadto
0 0.9775 -0.7417 1.6885 rquadto
-0.7417 0.7109 -2.2593 0.7109 rquadto
-1.6338 0 -2.314 -0.7417 rquadto
-0.6802 -0.7417 -0.728 -1.8354 rquadto
} def
/P$1h {
6.7983 0 rlineto
0 1.1426 rlineto
-5.5669 0 rlineto
0 2.8311 rlineto
5.1479 0 rlineto
0 1.0791 rlineto
-5.1479 0 rlineto
0 3.1611 rlineto
5.6621 0 rlineto
0 1.1108 rlineto
-6.8936 0 rlineto
} def
/P$1c {
1.3267 0 rlineto
0 1.3838 rlineto
-1.3267 0 rlineto
} def
/P$5 {
-0.5605 -0.6563 -1.4287 -0.6563 rquadto
-1.2988 0 -1.7773 1.2168 rquadto
-0.2529 0.6494 -0.2529 1.7021 rquadto
0 1.2373 0.5024 1.8833 rquadto
0.5024 0.646 1.3501 0.646 rquadto
1.3262 0 1.8662 -1.1963 rquadto
0.3008 -0.6768 0.3008 -1.5791 rquadto
0 -1.3604 -0.5605 -2.0166 rquadto
} def
/P$1w {
2.6787 7.9409 rlineto
2.647 -7.9409 rlineto
1.4155 0 rlineto
-3.4023 9.3247 rlineto
-1.3394 0 rlineto
-3.396 -9.3247 rlineto
} def
/P$17 {
0.0508 0.5713 0.2856 0.876 rquadto
0.4316 0.5522 1.498 0.5522 rquadto
0.6348 0 1.1172 -0.2761 rquadto
0.4824 -0.2761 0.4824 -0.8538 rquadto
0 -0.438 -0.3872 -0.6665 rquadto
-0.2476 -0.1396 -0.9775 -0.3237 rquadto
-0.9077 -0.2285 rlineto
-0.8696 -0.2158 -1.2822 -0.4824 rquadto
-0.7363 -0.4634 -0.7363 -1.2822 rquadto
0 -0.9648 0.6951 -1.5615 rquadto
0.6951 -0.5967 1.8694 -0.5967 rquadto
1.5361 0 2.2153 0.9014 rquadto
0.4253 0.5713 0.4126 1.2314 rquadto
-1.0791 0 rlineto
-0.0317 -0.3872 -0.2729 -0.7046 rquadto
-0.3936 -0.4507 -1.3647 -0.4507 rquadto
-0.6475 0 -0.9807 0.2476 rquadto
-0.3333 0.2476 -0.3333 0.6538 rquadto
0 0.4443 0.438 0.7109 rquadto
0.2539 0.1587 0.749 0.2793 rquadto
0.7554 0.1841 rlineto
1.2314 0.2983 1.6504 0.5776 rquadto
0.6665 0.438 0.6665 1.3774 rquadto
0 0.9077 -0.6887 1.5679 rquadto
-0.6887 0.6602 -2.0979 0.6602 rquadto
-1.5171 0 -2.1487 -0.6887 rquadto
-0.6316 -0.6887 -0.676 -1.7043 rquadto
closepath
} def
/P$3 {
1.1689 0 rlineto
0 1.0391 rlineto
0.5195 -0.6426 1.1006 -0.9229 rquadto
0.5811 -0.2803 1.292 -0.2803 rquadto
1.5586 0 2.1055 1.0869 rquadto
0.3008 0.5947 0.3008 1.7021 rquadto
0 4.6963 rlineto
-1.251 0 rlineto
0 -4.6143 rlineto
0 -0.6699 -0.1982 -1.0801 rquadto
-0.3281 -0.6836 -1.1895 -0.6836 rquadto
-0.4375 0 -0.7178 0.0889 rquadto
-0.5059 0.1504 -0.8887 0.6016 rquadto
-0.3076 0.3623 -0.3999 0.7485 rquadto
-0.0923 0.3862 -0.0923 1.104 rquadto
0 3.835 rlineto
-1.2305 0 rlineto
} def
/P$15 {
1.1616 0 rlineto
0 6.7666 rlineto
-1.1616 0 rlineto
closepath
} def
/P$n {
0.9077 0.876 0.9077 2.5771 rquadto
0 1.644 -0.7998 2.7168 rquadto
-0.7998 1.0728 -2.4819 1.0728 rquadto
-1.4028 0 -2.228 -0.949 rquadto
-0.8252 -0.949 -0.8252 -2.5486 rquadto
0 -1.7139 0.8696 -2.7295 rquadto
0.8696 -1.0156 2.3359 -1.0156 rquadto
1.314 0 2.2217 0.876 rquadto
} def
/P$r {
0.7205 0.5586 0.8665 1.9233 rquadto
-1.1108 0 rlineto
-0.1016 -0.6284 -0.4634 -1.0442 rquadto
-0.3618 -0.4158 -1.1616 -0.4158 rquadto
-1.0918 0 -1.5615 1.0664 rquadto
-0.3047 0.6919 -0.3047 1.7075 rquadto
0 1.022 0.4316 1.7202 rquadto
0.4316 0.6982 1.3584 0.6982 rquadto
0.7109 0 1.1267 -0.4348 rquadto
0.4158 -0.4348 0.5745 -1.1902 rquadto
1.1108 0 rlineto
-0.1904 1.3521 -0.9521 1.9773 rquadto
-0.7617 0.6252 -1.9487 0.6252 rquadto
-1.333 0 -2.1265 -0.9744 rquadto
-0.7935 -0.9744 -0.7935 -2.4343 rquadto
0 -1.79 0.8696 -2.7866 rquadto
0.8696 -0.9966 2.2153 -0.9966 rquadto
1.1489 0 1.8694 0.5586 rquadto
} def
/P$c {
0.4546 -0.9263 0.4546 -2.061 rquadto
0 -1.0254 -0.3281 -1.668 rquadto
-0.5195 -1.0117 -1.791 -1.0117 rquadto
-1.1279 0 -1.6406 0.8613 rquadto
-0.5127 0.8613 -0.5127 2.0781 rquadto
0 1.1689 0.5127 1.9482 rquadto
0.5127 0.7793 1.627 0.7793 rquadto
1.2236 0 1.6782 -0.9263 rquadto
closepath
} def
/P$x {
0.3047 0.1904 0.6919 0.6665 rquadto
0 -3.4341 rlineto
1.0981 0 rlineto
0 9.3564 rlineto
-1.0283 0 rlineto
0 -0.9458 rlineto
-0.3999 0.6284 -0.9458 0.9077 rquadto
-0.5459 0.2793 -1.2505 0.2793 rquadto
-1.1362 0 -1.9678 -0.9553 rquadto
-0.8315 -0.9553 -0.8315 -2.5422 rquadto
0 -1.4854 0.7585 -2.574 rquadto
0.7585 -1.0886 2.1677 -1.0886 rquadto
0.7808 0 1.3076 0.3301 rquadto
} def
/P$18 {
1.1426 0 rlineto
0 3.4785 rlineto
0.4063 -0.5142 0.73 -0.7236 rquadto
0.5522 -0.3618 1.3774 -0.3618 rquadto
1.479 0 2.0059 1.0347 rquadto
0.2856 0.5649 0.2856 1.5679 rquadto
0 4.3608 rlineto
-1.1743 0 rlineto
0 -4.2847 rlineto
0 -0.749 -0.1904 -1.0981 rquadto
-0.311 -0.5586 -1.168 -0.5586 rquadto
-0.7109 0 -1.2886 0.4888 rquadto
-0.5776 0.4888 -0.5776 1.8472 rquadto
0 3.6055 rlineto
-1.1426 0 rlineto
} def
/P$10 {
0.3936 -0.0508 0.5269 -0.3301 rquadto
0.0762 -0.1523 0.0762 -0.438 rquadto
0 -0.584 -0.4158 -0.8474 rquadto
-0.4158 -0.2634 -1.1902 -0.2634 rquadto
-0.895 0 -1.2695 0.4824 rquadto
-0.2095 0.2666 -0.2729 0.7935 rquadto
-1.0664 0 rlineto
0.0317 -1.2568 0.8157 -1.7488 rquadto
0.7839 -0.4919 1.8186 -0.4919 rquadto
1.1997 0 1.9487 0.457 rquadto
0.7427 0.457 0.7427 1.4219 rquadto
0 3.9165 rlineto
0 0.1777 0.073 0.2856 rquadto
0.073 0.1079 0.3079 0.1079 rquadto
0.0762 0 0.1714 -0.0095 rquadto
0.0952 -0.0095 0.2031 -0.0286 rquadto
0 0.8442 rlineto
-0.2666 0.0762 -0.4063 0.0952 rquadto
-0.1396 0.019 -0.3809 0.019 rquadto
-0.5903 0 -0.8569 -0.4189 rquadto
-0.1396 -0.2222 -0.1968 -0.6284 rquadto
-0.3491 0.457 -1.0029 0.7935 rquadto
-0.6538 0.3364 -1.4409 0.3364 rquadto
-0.9458 0 -1.5457 -0.5745 rquadto
-0.5999 -0.5745 -0.5999 -1.4377 rquadto
0 -0.9458 0.5903 -1.4663 rquadto
0.5903 -0.5205 1.5488 -0.6411 rquadto
} def
/P$1 {
0.3896 0.3076 0.9229 0.3076 rquadto
0.6494 0 1.2578 -0.3008 rquadto
1.0254 -0.499 1.0254 -1.6338 rquadto
0 -0.9912 rlineto
-0.2256 0.1436 -0.5811 0.2393 rquadto
-0.3555 0.0957 -0.6973 0.1367 rquadto
-0.7451 0.0957 rlineto
-0.6699 0.0889 -1.0049 0.2803 rquadto
-0.5674 0.3213 -0.5674 1.0254 rquadto
0 0.5332 0.3896 0.8408 rquadto
closepath
} def
/P$z {
0.3618 0.2856 0.8569 0.2856 rquadto
0.603 0 1.168 -0.2793 rquadto
0.9521 -0.4634 0.9521 -1.5171 rquadto
0 -0.9204 rlineto
-0.2095 0.1333 -0.5396 0.2222 rquadto
-0.3301 0.0889 -0.6475 0.127 rquadto
-0.6919 0.0889 rlineto
-0.6221 0.0825 -0.9331 0.2603 rquadto
-0.5269 0.2983 -0.5269 0.9521 rquadto
0 0.4951 0.3618 0.7808 rquadto
closepath
} def
/P$s {
1.1553 0 rlineto
0 1.8979 rlineto
1.0854 0 rlineto
0 0.9331 rlineto
-1.0854 0 rlineto
0 4.437 rlineto
0 0.3555 0.2412 0.4761 rquadto
0.1333 0.0698 0.4443 0.0698 rquadto
0.0825 0 0.1777 -0.0032 rquadto
0.0952 -0.0032 0.2222 -0.0159 rquadto
0 0.9014 rlineto
-0.1968 0.0571 -0.4094 0.0825 rquadto
-0.2126 0.0254 -0.4602 0.0254 rquadto
-0.7998 0 -1.0854 -0.4094 rquadto
-0.2856 -0.4094 -0.2856 -1.0632 rquadto
0 -4.5005 rlineto
-0.9204 0 rlineto
0 -0.9331 rlineto
0.9204 0 rlineto
} def
/P$1i {
-0.9966 1.936 -1.2949 2.8501 rquadto
-0.4507 1.3901 -0.4507 3.2119 rquadto
0 1.8408 0.5142 3.3643 rquadto
0.3174 0.9395 1.2505 2.7041 rquadto
-0.7681 0 rlineto
-0.9268 -1.4473 -1.1489 -1.8472 rquadto
-0.2222 -0.3999 -0.4824 -1.0854 rquadto
-0.3555 -0.9395 -0.4951 -2.0059 rquadto
-0.0698 -0.5522 -0.0698 -1.0537 rquadto
0 -1.8789 0.5903 -3.3452 rquadto
0.3745 -0.9331 1.5615 -2.793 rquadto
} def
/P$1f {
1.2632 0 rlineto
-0.2412 0.6538 -1.0728 2.9834 rquadto
-0.6221 1.752 -1.041 2.8564 rquadto
-0.9902 2.6025 -1.3965 3.1738 rquadto
-0.4063 0.5713 -1.3965 0.5713 rquadto
-0.2412 0 -0.3713 -0.019 rquadto
-0.1301 -0.019 -0.3206 -0.0698 rquadto
0 -1.041 rlineto
0.2983 0.0825 0.4316 0.1016 rquadto
0.1333 0.019 0.2349 0.019 rquadto
0.3174 0 0.4666 -0.1047 rquadto
0.1492 -0.1047 0.2507 -0.2571 rquadto
0.0317 -0.0508 0.2285 -0.5205 rquadto
0.1968 -0.4697 0.2856 -0.6982 rquadto
-2.5137 -6.9951 rlineto
1.2949 0 rlineto
1.8218 5.5352 rlineto
closepath
} def
/P$0 {
1.9482 0 rlineto
2.8848 8.4902 rlineto
2.8643 -8.4902 rlineto
1.9277 0 rlineto
0 10.042 rlineto
-1.292 0 rlineto
0 -5.9268 rlineto
0 -0.3076 0.0137 -1.0186 rquadto
0.0137 -0.7109 0.0137 -1.5244 rquadto
-2.8643 8.4697 rlineto
-1.3467 0 rlineto
-2.8848 -8.4697 rlineto
0 0.3076 rlineto
0 0.3691 0.0171 1.1245 rquadto
0.0171 0.7554 0.0171 1.1108 rquadto
0 5.9268 rlineto
-1.2988 0 rlineto
} def
/P$y {
0 4.5132 rlineto
0 0.5205 0.165 0.8506 rquadto
0.3047 0.6094 1.1362 0.6094 rquadto
1.1934 0 1.625 -1.0664 rquadto
0.2349 -0.5713 0.2349 -1.5679 rquadto
0 -3.3389 rlineto
1.1426 0 rlineto
0 6.7983 rlineto
-1.0791 0 rlineto
0.0127 -1.0029 rlineto
-0.2222 0.3872 -0.5522 0.6538 rquadto
-0.6538 0.5332 -1.5869 0.5332 rquadto
-1.4536 0 -1.9805 -0.9712 rquadto
-0.2856 -0.5205 -0.2856 -1.3901 rquadto
0 -4.6211 rlineto
} def
/P$6 {
0.7314 0.3657 1.1143 0.9468 rquadto
0.3691 0.5537 0.4922 1.292 rquadto
0.1094 0.5059 0.1094 1.6133 rquadto
-5.3662 0 rlineto
0.0342 1.1143 0.5264 1.7876 rquadto
0.4922 0.6733 1.5244 0.6733 rquadto
0.9639 0 1.5381 -0.6357 rquadto
0.3281 -0.3691 0.4648 -0.8545 rquadto
1.21 0 rlineto
-0.0479 0.4033 -0.3179 0.8989 rquadto
-0.27 0.4956 -0.605 0.8101 rquadto
-0.5605 0.5469 -1.3877 0.7383 rquadto
-0.4443 0.1094 -1.0049 0.1094 rquadto
-1.3672 0 -2.3174 -0.9946 rquadto
-0.9502 -0.9946 -0.9502 -2.7856 rquadto
0 -1.7637 0.957 -2.8643 rquadto
0.957 -1.1006 2.502 -1.1006 rquadto
0.7793 0 1.5107 0.3657 rquadto
closepath
} def
/P$k {
1.2168 0 rlineto
0 1.0391 rlineto
0.4375 -0.54 0.793 -0.7861 rquadto
0.6084 -0.417 1.3809 -0.417 rquadto
0.875 0 1.4082 0.4307 rquadto
0.3008 0.2461 0.5469 0.7246 rquadto
0.4102 -0.5879 0.9639 -0.8716 rquadto
0.5537 -0.2837 1.2441 -0.2837 rquadto
1.4766 0 2.0098 1.0664 rquadto
0.2871 0.5742 0.2871 1.5449 rquadto
0 4.874 rlineto
-1.2783 0 rlineto
0 -5.0859 rlineto
0 -0.7314 -0.3657 -1.0049 rquadto
-0.3657 -0.2734 -0.8921 -0.2734 rquadto
-0.7246 0 -1.2476 0.4854 rquadto
-0.5229 0.4854 -0.5229 1.6201 rquadto
0 4.2588 rlineto
-1.251 0 rlineto
0 -4.7783 rlineto
0 -0.7451 -0.1777 -1.0869 rquadto
-0.2803 -0.5127 -1.0459 -0.5127 rquadto
-0.6973 0 -1.2681 0.54 rquadto
-0.5708 0.54 -0.5708 1.9551 rquadto
0 3.8828 rlineto
-1.2305 0 rlineto
} def
/P$1r {
0.3237 0.2222 0.6602 0.6475 rquadto
0 -0.8569 rlineto
1.0537 0 rlineto
0 6.1826 rlineto
0 1.2949 -0.3809 2.0439 rquadto
-0.7109 1.3838 -2.6851 1.3838 rquadto
-1.0981 0 -1.8472 -0.4919 rquadto
-0.749 -0.4919 -0.8379 -1.5393 rquadto
1.1616 0 rlineto
0.0825 0.457 0.3301 0.7046 rquadto
0.3872 0.3809 1.2188 0.3809 rquadto
1.314 0 1.7202 -0.9268 rquadto
0.2412 -0.5459 0.2222 -1.9487 rquadto
-0.3428 0.5205 -0.8252 0.7744 rquadto
-0.4824 0.2539 -1.2759 0.2539 rquadto
-1.1045 0 -1.9329 -0.7839 rquadto
-0.8284 -0.7839 -0.8284 -2.593 rquadto
0 -1.7075 0.8347 -2.666 rquadto
0.8347 -0.9585 2.0154 -0.9585 rquadto
0.7998 0 1.3965 0.3936 rquadto
closepath
} def
/P$1n {
1.1108 0 rlineto
0 3.3833 rlineto
0.3745 -0.4888 0.895 -0.7458 rquadto
0.5205 -0.2571 1.1299 -0.2571 rquadto
1.2695 0 2.0598 0.8728 rquadto
0.7903 0.8728 0.7903 2.574 rquadto
0 1.6123 -0.7808 2.6787 rquadto
-0.7808 1.0664 -2.1646 1.0664 rquadto
-0.7744 0 -1.3076 -0.3745 rquadto
-0.3174 -0.2222 -0.6792 -0.7109 rquadto
0 0.8696 rlineto
-1.0537 0 rlineto
closepath
} def
/P$v {
1.0854 0 rlineto
0 1.1743 rlineto
0.1333 -0.3428 0.6538 -0.8347 rquadto
0.5205 -0.4919 1.1997 -0.4919 rquadto
0.0317 0 0.1079 0.0063 rquadto
0.0762 0.0063 0.2603 0.0254 rquadto
0 1.2061 rlineto
-0.1016 -0.019 -0.1873 -0.0254 rquadto
-0.0857 -0.0063 -0.1873 -0.0063 rquadto
-0.8633 0 -1.3267 0.5554 rquadto
-0.4634 0.5554 -0.4634 1.2791 rquadto
0 3.9102 rlineto
-1.1426 0 rlineto
} def
/P$1g {
6.4683 0 rlineto
0 1.1426 rlineto
-5.2051 0 rlineto
0 2.8311 rlineto
4.5767 0 rlineto
0 1.1108 rlineto
-4.5767 0 rlineto
0 4.2402 rlineto
-1.2632 0 rlineto
} def
/P$1o {
0.4602 -0.7363 0.4602 -1.9424 rquadto
0 -1.0728 -0.4602 -1.7773 rquadto
-0.4602 -0.7046 -1.3552 -0.7046 rquadto
-0.7808 0 -1.3679 0.5776 rquadto
-0.5872 0.5776 -0.5872 1.9043 rquadto
0 0.9585 0.2412 1.5552 rquadto
0.4507 1.1235 1.6821 1.1235 rquadto
0.9268 0 1.387 -0.7363 rquadto
} def
/P$1l {
4.1958 0 rlineto
1.2441 0 2.0059 0.7014 rquadto
0.7617 0.7014 0.7617 1.9709 rquadto
0 1.0918 -0.6792 1.9011 rquadto
-0.6792 0.8093 -2.0884 0.8093 rquadto
-2.9326 0 rlineto
0 3.9419 rlineto
-1.2632 0 rlineto
closepath
} def
/P$o {
1.1426 0 rlineto
0 9.3247 rlineto
-1.1426 0 rlineto
} def
/P$1d {
3.1865 0 rlineto
0 1.1743 rlineto
-3.1865 0 rlineto
} def
/P$1y {
-0.0698 -0.7427 -0.3237 -1.187 rquadto
-0.4697 -0.8252 -1.5679 -0.8252 rquadto
-0.7871 0 -1.3203 0.5681 rquadto
-0.5332 0.5681 -0.5649 1.4441 rquadto
closepath
} def
/P$q {
-0.0698 -0.7427 -0.3237 -1.187 rquadto
-0.4697 -0.8252 -1.5679 -0.8252 rquadto
-0.7871 0 -1.3203 0.5681 rquadto
-0.5332 0.5681 -0.5649 1.4441 rquadto
} def
/P$8 {
1.1689 0 rlineto
0 1.2646 rlineto
0.1436 -0.3691 0.7041 -0.8989 rquadto
0.5605 -0.5298 1.292 -0.5298 rquadto
0.0342 0 0.1162 0.0068 rquadto
0.082 0.0068 0.2803 0.0273 rquadto
0 1.2988 rlineto
-0.1094 -0.0205 -0.2017 -0.0273 rquadto
-0.0923 -0.0068 -0.2017 -0.0068 rquadto
-0.9297 0 -1.4287 0.5981 rquadto
-0.499 0.5981 -0.499 1.3774 rquadto
0 4.2109 rlineto
-1.2305 0 rlineto
closepath
} def
/P$i {
1.0527 1.0049 1.1689 2.2832 rquadto
-1.3262 0 rlineto
-0.2256 -0.9707 -0.8989 -1.5381 rquadto
-0.6733 -0.5674 -1.8901 -0.5674 rquadto
-1.4834 0 -2.396 1.0425 rquadto
-0.9126 1.0425 -0.9126 3.1958 rquadto
0 1.7637 0.8237 2.8608 rquadto
0.8237 1.0972 2.4575 1.0972 rquadto
1.5039 0 2.29 -1.1553 rquadto
0.417 -0.6084 0.6221 -1.5996 rquadto
1.3262 0 rlineto
-0.1777 1.5859 -1.1758 2.6592 rquadto
-1.1963 1.292 -3.2266 1.292 rquadto
-1.75 0 -2.9395 -1.0596 rquadto
-1.5654 -1.4014 -1.5654 -4.3271 rquadto
0 -2.2217 1.1758 -3.6436 rquadto
1.2715 -1.5449 3.5068 -1.5449 rquadto
1.9072 0 2.96 1.0049 rquadto
} def
/P$m {
0.4221 -0.8601 0.4221 -1.9138 rquadto
0 -0.9521 -0.3047 -1.5488 rquadto
-0.4824 -0.9395 -1.6631 -0.9395 rquadto
-1.0474 0 -1.5234 0.7998 rquadto
-0.4761 0.7998 -0.4761 1.9297 rquadto
0 1.0854 0.4761 1.8091 rquadto
0.4761 0.7236 1.5107 0.7236 rquadto
1.1362 0 1.5583 -0.8601 rquadto
closepath
} def
/P$1t {
0.3936 -0.0508 0.5269 -0.3301 rquadto
0.0762 -0.1523 0.0762 -0.438 rquadto
0 -0.584 -0.4158 -0.8474 rquadto
-0.4158 -0.2634 -1.1902 -0.2634 rquadto
-0.895 0 -1.2695 0.4824 rquadto
-0.2095 0.2666 -0.2729 0.7935 rquadto
-1.0664 0 rlineto
0.0317 -1.2568 0.8157 -1.7488 rquadto
0.7839 -0.4919 1.8186 -0.4919 rquadto
1.1997 0 1.9487 0.457 rquadto
0.7427 0.457 0.7427 1.4219 rquadto
0 3.9165 rlineto
0 0.1777 0.073 0.2856 rquadto
0.073 0.1079 0.3079 0.1079 rquadto
0.0762 0 0.1714 -0.0095 rquadto
0.0952 -0.0095 0.2031 -0.0286 rquadto
0 0.8442 rlineto
-0.2666 0.0762 -0.4063 0.0952 rquadto
-0.1396 0.019 -0.3809 0.019 rquadto
-0.5903 0 -0.8569 -0.4189 rquadto
-0.1396 -0.2222 -0.1968 -0.6284 rquadto
-0.3491 0.457 -1.0029 0.7935 rquadto
-0.6538 0.3364 -1.4409 0.3364 rquadto
-0.9458 0 -1.5457 -0.5745 rquadto
-0.5999 -0.5745 -0.5999 -1.4377 rquadto
0 -0.9458 0.5903 -1.4663 rquadto
0.5903 -0.5205 1.5488 -0.6411 rquadto
closepath
} def
/P$16 {
1.1616 0 rlineto
0 1.2949 rlineto
-1.1616 0 rlineto
} def
/P$1v {
3.7769 0 rlineto
1.9233 0 2.9834 1.3647 rquadto
0.9458 1.2314 0.9458 3.1548 rquadto
0 1.4854 -0.5586 2.6851 rquadto
-0.9839 2.1201 -3.3833 2.1201 rquadto
-3.7642 0 rlineto
} def
/P$a {
-0.4512 -0.2119 -1.2373 -0.2119 rquadto
-2.707 0 rlineto
0 3.4795 rlineto
2.707 0 rlineto
0.916 0 1.4868 -0.3896 rquadto
0.5708 -0.3896 0.5708 -1.374 rquadto
0 -1.1074 -0.8203 -1.5039 rquadto
} def
/P$2 {
0.4238 -0.0547 0.5674 -0.3555 rquadto
0.082 -0.1641 0.082 -0.4717 rquadto
0 -0.6289 -0.4478 -0.9126 rquadto
-0.4478 -0.2837 -1.2817 -0.2837 rquadto
-0.9639 0 -1.3672 0.5195 rquadto
-0.2256 0.2871 -0.2939 0.8545 rquadto
-1.1484 0 rlineto
0.0342 -1.3535 0.8784 -1.8833 rquadto
0.8442 -0.5298 1.9585 -0.5298 rquadto
1.292 0 2.0986 0.4922 rquadto
0.7998 0.4922 0.7998 1.5313 rquadto
0 4.2178 rlineto
0 0.1914 0.0786 0.3076 rquadto
0.0786 0.1162 0.3315 0.1162 rquadto
0.082 0 0.1846 -0.0103 rquadto
0.1025 -0.0103 0.2188 -0.0308 rquadto
0 0.9092 rlineto
-0.2871 0.082 -0.4375 0.1025 rquadto
-0.1504 0.0205 -0.4102 0.0205 rquadto
-0.6357 0 -0.9229 -0.4512 rquadto
-0.1504 -0.2393 -0.2119 -0.6768 rquadto
-0.376 0.4922 -1.0801 0.8545 rquadto
-0.7041 0.3623 -1.5518 0.3623 rquadto
-1.0186 0 -1.6646 -0.6187 rquadto
-0.646 -0.6187 -0.646 -1.5483 rquadto
0 -1.0186 0.6357 -1.5791 rquadto
0.6357 -0.5605 1.668 -0.6904 rquadto
} def
/P$1b {
1.3267 0 rlineto
0 1.3838 rlineto
-1.3267 0 rlineto
closepath
} def
/P$19 {
1.0981 0 rlineto
0 5.4146 rlineto
2.9326 -2.8882 rlineto
1.46 0 rlineto
-2.6025 2.5454 rlineto
2.7485 4.2529 rlineto
-1.46 0 rlineto
-2.1201 -3.4277 rlineto
-0.9585 0.876 rlineto
0 2.5518 rlineto
-1.0981 0 rlineto
} def
/P$1j {
1.0854 0 rlineto
0 1.1743 rlineto
0.1333 -0.3428 0.6538 -0.8347 rquadto
0.5205 -0.4919 1.1997 -0.4919 rquadto
0.0317 0 0.1079 0.0063 rquadto
0.0762 0.0063 0.2603 0.0254 rquadto
0 1.2061 rlineto
-0.1016 -0.019 -0.1873 -0.0254 rquadto
-0.0857 -0.0063 -0.1873 -0.0063 rquadto
-0.8633 0 -1.3267 0.5554 rquadto
-0.4634 0.5554 -0.4634 1.2791 rquadto
0 3.9102 rlineto
-1.1426 0 rlineto
closepath
} def
/P$t {
0.53 -0.6697 0.53 -2.0027 rquadto
0 -0.8125 -0.2349 -1.3965 rquadto
-0.4443 -1.1235 -1.625 -1.1235 rquadto
-1.187 0 -1.625 1.187 rquadto
-0.2349 0.6348 -0.2349 1.6123 rquadto
0 0.7871 0.2349 1.3394 rquadto
0.4443 1.0537 1.625 1.0537 rquadto
0.7998 0 1.3298 -0.6697 rquadto
closepath
} def
/P$9 {
4.5186 0 rlineto
1.3398 0 2.1602 0.7554 rquadto
0.8203 0.7554 0.8203 2.1226 rquadto
0 1.1758 -0.7314 2.0474 rquadto
-0.7314 0.8716 -2.249 0.8716 rquadto
-3.1582 0 rlineto
0 4.2451 rlineto
-1.3604 0 rlineto
closepath
} def
/P$1a {
1.2632 0 rlineto
-0.2412 0.6538 -1.0728 2.9834 rquadto
-0.6221 1.752 -1.041 2.8564 rquadto
-0.9902 2.6025 -1.3965 3.1738 rquadto
-0.4063 0.5713 -1.3965 0.5713 rquadto
-0.2412 0 -0.3713 -0.019 rquadto
-0.1301 -0.019 -0.3206 -0.0698 rquadto
0 -1.041 rlineto
0.2983 0.0825 0.4316 0.1016 rquadto
0.1333 0.019 0.2349 0.019 rquadto
0.3174 0 0.4666 -0.1047 rquadto
0.1492 -0.1047 0.2507 -0.2571 rquadto
0.0317 -0.0508 0.2285 -0.5205 rquadto
0.1968 -0.4697 0.2856 -0.6982 rquadto
-2.5137 -6.9951 rlineto
1.2949 0 rlineto
1.8218 5.5352 rlineto
} def
/P$e {
0.499 0.793 1.5996 0.793 rquadto
0.8545 0 1.4048 -0.7349 rquadto
0.5503 -0.7349 0.5503 -2.1089 rquadto
0 -1.3877 -0.5674 -2.0542 rquadto
-0.5674 -0.6665 -1.4014 -0.6665 rquadto
-0.9297 0 -1.5073 0.7109 rquadto
-0.5776 0.7109 -0.5776 2.0918 rquadto
0 1.1758 0.499 1.9688 rquadto
closepath
} def
/P$14 {
-0.2095 3.7324 rlineto
-0.7363 0 rlineto
-0.2095 -3.7324 rlineto
} def
/P$12 {
0.0508 0.5713 0.2856 0.876 rquadto
0.4316 0.5522 1.498 0.5522 rquadto
0.6348 0 1.1172 -0.2761 rquadto
0.4824 -0.2761 0.4824 -0.8538 rquadto
0 -0.438 -0.3872 -0.6665 rquadto
-0.2476 -0.1396 -0.9775 -0.3237 rquadto
-0.9077 -0.2285 rlineto
-0.8696 -0.2158 -1.2822 -0.4824 rquadto
-0.7363 -0.4634 -0.7363 -1.2822 rquadto
0 -0.9648 0.6951 -1.5615 rquadto
0.6951 -0.5967 1.8694 -0.5967 rquadto
1.5361 0 2.2153 0.9014 rquadto
0.4253 0.5713 0.4126 1.2314 rquadto
-1.0791 0 rlineto
-0.0317 -0.3872 -0.2729 -0.7046 rquadto
-0.3936 -0.4507 -1.3647 -0.4507 rquadto
-0.6475 0 -0.9807 0.2476 rquadto
-0.3333 0.2476 -0.3333 0.6538 rquadto
0 0.4443 0.438 0.7109 rquadto
0.2539 0.1587 0.749 0.2793 rquadto
0.7554 0.1841 rlineto
1.2314 0.2983 1.6504 0.5776 rquadto
0.6665 0.438 0.6665 1.3774 rquadto
0 0.9077 -0.6887 1.5679 rquadto
-0.6887 0.6602 -2.0979 0.6602 rquadto
-1.5171 0 -2.1487 -0.6887 rquadto
-0.6316 -0.6887 -0.676 -1.7043 rquadto
} def
/P$f {
0.3281 0.2051 0.7451 0.7178 rquadto
0 -3.6982 rlineto
1.1826 0 rlineto
0 10.0762 rlineto
-1.1074 0 rlineto
0 -1.0186 rlineto
-0.4307 0.6768 -1.0186 0.9775 rquadto
-0.5879 0.3008 -1.3467 0.3008 rquadto
-1.2236 0 -2.1191 -1.0288 rquadto
-0.8955 -1.0288 -0.8955 -2.7378 rquadto
0 -1.5996 0.8169 -2.772 rquadto
0.8169 -1.1724 2.3345 -1.1724 rquadto
0.8408 0 1.4082 0.3555 rquadto
} def
/P$7 {
-0.0752 -0.7998 -0.3486 -1.2783 rquadto
-0.5059 -0.8887 -1.6885 -0.8887 rquadto
-0.8477 0 -1.4219 0.6118 rquadto
-0.5742 0.6118 -0.6084 1.5552 rquadto
} def
/P$1m {
-0.4189 -0.1968 -1.1489 -0.1968 rquadto
-2.5137 0 rlineto
0 3.231 rlineto
2.5137 0 rlineto
0.8506 0 1.3806 -0.3618 rquadto
0.53 -0.3618 0.53 -1.2759 rquadto
0 -1.0283 -0.7617 -1.3965 rquadto
} def
/P$l {
0.9775 0.9331 1.0854 2.1201 rquadto
-1.2314 0 rlineto
-0.2095 -0.9014 -0.8347 -1.4282 rquadto
-0.6252 -0.5269 -1.7551 -0.5269 rquadto
-1.3774 0 -2.2249 0.968 rquadto
-0.8474 0.968 -0.8474 2.9675 rquadto
0 1.6377 0.7649 2.6565 rquadto
0.7649 1.0188 2.282 1.0188 rquadto
1.3965 0 2.1265 -1.0728 rquadto
0.3872 -0.5649 0.5776 -1.4854 rquadto
1.2314 0 rlineto
-0.165 1.4727 -1.0918 2.4692 rquadto
-1.1108 1.1997 -2.9961 1.1997 rquadto
-1.625 0 -2.7295 -0.9839 rquadto
-1.4536 -1.3013 -1.4536 -4.0181 rquadto
0 -2.063 1.0918 -3.3833 rquadto
1.1807 -1.4346 3.2563 -1.4346 rquadto
1.771 0 2.7485 0.9331 rquadto
} def
/P$p {
0.6792 0.3396 1.0347 0.8792 rquadto
0.3428 0.5142 0.457 1.1997 rquadto
0.1016 0.4697 0.1016 1.498 rquadto
-4.9829 0 rlineto
0.0317 1.0347 0.4888 1.6599 rquadto
0.457 0.6252 1.4155 0.6252 rquadto
0.895 0 1.4282 -0.5903 rquadto
0.3047 -0.3428 0.4316 -0.7935 rquadto
1.1235 0 rlineto
-0.0444 0.3745 -0.2952 0.8347 rquadto
-0.2507 0.4602 -0.5618 0.7522 rquadto
-0.5205 0.5078 -1.2886 0.6855 rquadto
-0.4126 0.1016 -0.9331 0.1016 rquadto
-1.2695 0 -2.1519 -0.9236 rquadto
-0.8823 -0.9236 -0.8823 -2.5867 rquadto
0 -1.6377 0.8887 -2.6597 rquadto
0.8887 -1.022 2.3232 -1.022 rquadto
0.7236 0 1.4028 0.3396 rquadto
closepath
} def
/P$1s {
-0.5205 -0.6094 -1.3267 -0.6094 rquadto
-1.2061 0 -1.6504 1.1299 rquadto
-0.2349 0.603 -0.2349 1.5806 rquadto
0 1.1489 0.4666 1.7488 rquadto
0.4666 0.5999 1.2537 0.5999 rquadto
1.2314 0 1.7329 -1.1108 rquadto
0.2793 -0.6284 0.2793 -1.4663 rquadto
0 -1.2632 -0.5205 -1.8726 rquadto
} def
/P$1k {
1.3076 5.3574 rlineto
1.3267 -5.3574 rlineto
1.2822 0 rlineto
1.333 5.3257 rlineto
1.3901 -5.3257 rlineto
1.1426 0 rlineto
-1.9741 6.7983 rlineto
-1.187 0 rlineto
-1.3838 -5.2622 rlineto
-1.3394 5.2622 rlineto
-1.187 0 rlineto
-1.9614 -6.7983 rlineto
} def
/P$11 {
1.0854 0 rlineto
0 0.9648 rlineto
0.4824 -0.5967 1.022 -0.8569 rquadto
0.5396 -0.2603 1.1997 -0.2603 rquadto
1.4473 0 1.9551 1.0093 rquadto
0.2793 0.5522 0.2793 1.5806 rquadto
0 4.3608 rlineto
-1.1616 0 rlineto
0 -4.2847 rlineto
0 -0.6221 -0.1841 -1.0029 rquadto
-0.3047 -0.6348 -1.1045 -0.6348 rquadto
-0.4063 0 -0.6665 0.0825 rquadto
-0.4697 0.1396 -0.8252 0.5586 rquadto
-0.2856 0.3364 -0.3713 0.6951 rquadto
-0.0857 0.3586 -0.0857 1.0251 rquadto
0 3.561 rlineto
-1.1426 0 rlineto
} def
/P$13 {
1.1299 0 rlineto
0 0.9648 rlineto
0.4063 -0.5015 0.7363 -0.73 rquadto
0.5649 -0.3872 1.2822 -0.3872 rquadto
0.8125 0 1.3076 0.3999 rquadto
0.2793 0.2285 0.5078 0.6729 rquadto
0.3809 -0.5459 0.895 -0.8093 rquadto
0.5142 -0.2634 1.1553 -0.2634 rquadto
1.3711 0 1.8662 0.9902 rquadto
0.2666 0.5332 0.2666 1.4346 rquadto
0 4.5259 rlineto
-1.187 0 rlineto
0 -4.7227 rlineto
0 -0.6792 -0.3396 -0.9331 rquadto
-0.3396 -0.2539 -0.8284 -0.2539 rquadto
-0.6729 0 -1.1584 0.4507 rquadto
-0.4856 0.4507 -0.4856 1.5044 rquadto
0 3.9546 rlineto
-1.1616 0 rlineto
0 -4.437 rlineto
0 -0.6919 -0.165 -1.0093 rquadto
-0.2603 -0.4761 -0.9712 -0.4761 rquadto
-0.6475 0 -1.1775 0.5015 rquadto
-0.53 0.5015 -0.53 1.8154 rquadto
0 3.6055 rlineto
-1.1426 0 rlineto
} def
/P$1p {
1.0093 -1.9678 1.3013 -2.8691 rquadto
0.4443 -1.3647 0.4443 -3.1992 rquadto
0 -1.8345 -0.5142 -3.3579 rquadto
-0.3174 -0.9395 -1.2505 -2.7041 rquadto
0.7681 0 rlineto
0.9775 1.5615 1.1838 1.9265 rquadto
0.2063 0.365 0.4475 1.0061 rquadto
0.3047 0.7935 0.4348 1.5679 rquadto
0.1301 0.7744 0.1301 1.4917 rquadto
0 1.8789 -0.5967 3.3516 rquadto
-0.3745 0.9458 -1.5552 2.7866 rquadto
closepath
} def
/P$1x {
0.3999 -0.584 1.5425 -0.584 rquadto
0.1079 0 0.2222 0.0063 rquadto
0.1143 0.0063 0.2603 0.019 rquadto
0 1.041 rlineto
-0.1777 -0.0127 -0.2571 -0.0159 rquadto
-0.0793 -0.0032 -0.1492 -0.0032 rquadto
-0.5205 0 -0.6221 0.2698 rquadto
-0.1016 0.2698 -0.1016 1.3743 rquadto
1.1299 0 rlineto
0 0.9014 rlineto
-1.1426 0 rlineto
0 5.8652 rlineto
-1.1299 0 rlineto
0 -5.8652 rlineto
-0.9458 0 rlineto
0 -0.9014 rlineto
0.9458 0 rlineto
0 -1.0664 rlineto
0.0254 -0.7109 0.2476 -1.041 rquadto
} def
/P$1z {
1.8154 5.5352 rlineto
1.8979 -5.5352 rlineto
1.2505 0 rlineto
-2.5645 6.7983 rlineto
-1.2188 0 rlineto
-2.5073 -6.7983 rlineto
} def
/P$1e {
1.2314 0 rlineto
0 4.5449 rlineto
4.5449 -4.5449 rlineto
1.7456 0 rlineto
-3.8784 3.7578 rlineto
3.9863 5.5669 rlineto
-1.644 0 rlineto
-3.2627 -4.6782 rlineto
-1.4917 1.4282 rlineto
0 3.25 rlineto
-1.2314 0 rlineto
} def
/P$w {
0.4634 0.7363 1.4854 0.7363 rquadto
0.7935 0 1.3044 -0.6824 rquadto
0.511 -0.6824 0.511 -1.9583 rquadto
0 -1.2886 -0.5269 -1.9075 rquadto
-0.5269 -0.6189 -1.3013 -0.6189 rquadto
-0.8633 0 -1.3997 0.6602 rquadto
-0.5364 0.6602 -0.5364 1.9424 rquadto
0 1.0918 0.4634 1.8281 rquadto
closepath
} def
/P$b {
1.1689 0 rlineto
0 1.2646 rlineto
0.1436 -0.3691 0.7041 -0.8989 rquadto
0.5605 -0.5298 1.292 -0.5298 rquadto
0.0342 0 0.1162 0.0068 rquadto
0.082 0.0068 0.2803 0.0273 rquadto
0 1.2988 rlineto
-0.1094 -0.0205 -0.2017 -0.0273 rquadto
-0.0923 -0.0068 -0.2017 -0.0068 rquadto
-0.9297 0 -1.4287 0.5981 rquadto
-0.499 0.5981 -0.499 1.3774 rquadto
0 4.2109 rlineto
-1.2305 0 rlineto
} def
/P$4 {
0.3486 0.2393 0.7109 0.6973 rquadto
0 -0.9229 rlineto
1.1348 0 rlineto
0 6.6582 rlineto
0 1.3945 -0.4102 2.2012 rquadto
-0.7656 1.4902 -2.8916 1.4902 rquadto
-1.1826 0 -1.9893 -0.5298 rquadto
-0.8066 -0.5298 -0.9023 -1.6577 rquadto
1.251 0 rlineto
0.0889 0.4922 0.3555 0.7588 rquadto
0.417 0.4102 1.3125 0.4102 rquadto
1.415 0 1.8525 -0.998 rquadto
0.2598 -0.5879 0.2393 -2.0986 rquadto
-0.3691 0.5605 -0.8887 0.834 rquadto
-0.5195 0.2734 -1.374 0.2734 rquadto
-1.1895 0 -2.0815 -0.8442 rquadto
-0.8921 -0.8442 -0.8921 -2.7925 rquadto
0 -1.8389 0.8989 -2.8711 rquadto
0.8989 -1.0322 2.1704 -1.0322 rquadto
0.8613 0 1.5039 0.4238 rquadto
closepath
} def
/P$g {
0 4.8604 rlineto
0 0.5605 0.1777 0.916 rquadto
0.3281 0.6563 1.2236 0.6563 rquadto
1.2852 0 1.75 -1.1484 rquadto
0.2529 -0.6152 0.2529 -1.6885 rquadto
0 -3.5957 rlineto
1.2305 0 rlineto
0 7.3213 rlineto
-1.1621 0 rlineto
0.0137 -1.0801 rlineto
-0.2393 0.417 -0.5947 0.7041 rquadto
-0.7041 0.5742 -1.709 0.5742 rquadto
-1.5654 0 -2.1328 -1.0459 rquadto
-0.3076 -0.5605 -0.3076 -1.4971 rquadto
0 -4.9766 rlineto
} def
/P$d {
0.9775 0.9434 0.9775 2.7754 rquadto
0 1.7705 -0.8613 2.9258 rquadto
-0.8613 1.1553 -2.6729 1.1553 rquadto
-1.5107 0 -2.3994 -1.022 rquadto
-0.8887 -1.022 -0.8887 -2.7446 rquadto
0 -1.8457 0.9365 -2.9395 rquadto
0.9365 -1.0938 2.5156 -1.0938 rquadto
1.415 0 2.3926 0.9434 rquadto
} def
/P$u {
1.1108 0 rlineto
0 0.9014 rlineto
0.3428 -0.4634 0.749 -0.7173 rquadto
0.5776 -0.3809 1.3584 -0.3809 rquadto
1.1553 0 1.9614 0.8855 rquadto
0.8062 0.8855 0.8062 2.5295 rquadto
0 2.2217 -1.1616 3.1738 rquadto
-0.7363 0.603 -1.7139 0.603 rquadto
-0.7681 0 -1.2886 -0.3364 rquadto
-0.3047 -0.1904 -0.6792 -0.6538 rquadto
0 3.4722 rlineto
-1.1426 0 rlineto
} def
/P$1q {
0.438 -0.0762 0.6157 -0.6157 rquadto
0.0952 -0.2856 0.0952 -0.5522 rquadto
0 -0.0444 -0.0032 -0.0793 rquadto
-0.0032 -0.0349 -0.0159 -0.0793 rquadto
-0.6919 0 rlineto
0 -1.3838 rlineto
1.3584 0 rlineto
0 1.2822 rlineto
0 0.7554 -0.3047 1.3267 rquadto
-0.3047 0.5713 -1.0537 0.7046 rquadto
} def
1.0 setlinewidth
0 0 0 setrgbcolor
newpath
45 36 moveto
60{
0 5 rlineto
0 5 rmoveto
} repeat
stroke
1.0 setlinewidth
0 0 0 setrgbcolor
newpath
329.5 36 moveto
60{
0 5 rlineto
0 5 rmoveto
} repeat
stroke
1.0 setlinewidth
0 0 0 setrgbcolor
newpath
528.5 36 moveto
60{
0 5 rlineto
0 5 rmoveto
} repeat
stroke
0.7843 0.7843 0.7843 setrgbcolor
71 28 12 7 1 roundrect
closepath eofill
0.7098 0.7098 0.7098 setrgbcolor
70 27 12.5 7.5 1 roundrect
closepath eofill
0.6353 0.6353 0.6353 setrgbcolor
69 26 13 8 1 roundrect
closepath eofill
0.5608 0.5608 0.5608 setrgbcolor
68 25 13.5 8.5 1 roundrect
closepath eofill
0.4902 0.4902 0.4902 setrgbcolor
67 24 14 9 1 roundrect
closepath eofill
0.4157 0.4157 0.4157 setrgbcolor
66 23 14.5 9.5 1 roundrect
closepath eofill
0.3412 0.3412 0.3412 setrgbcolor
65 22 15 10 1 roundrect
closepath eofill
0.2667 0.2667 0.2667 setrgbcolor
64 21 15.5 10.5 1 roundrect
closepath eofill
0.1961 0.1961 0.1961 setrgbcolor
63 20 16 11 1 roundrect
closepath eofill
1 1 1 setrgbcolor
71 28 8 3 simplerect
closepath eofill
1.5 setlinewidth
0 0 0 setrgbcolor
71 28 8 3 simplerect
closepath stroke
0 setlinewidth
[] 0 setdash
0 0 0 setrgbcolor
newpath
16.0322 10.7383 moveto
P$0
fill
0 setlinewidth
[] 0 setdash
0 0 0 setrgbcolor
newpath
29.2354 19.6729 moveto
P$1
31.8262 16.3438 moveto
P$2
fill
0 setlinewidth
[] 0 setdash
0 0 0 setrgbcolor
newpath
35.9023 13.459 moveto
P$3
fill
0 setlinewidth
[] 0 setdash
0 0 0 setrgbcolor
newpath
45.2354 19.6729 moveto
P$1
47.8262 16.3438 moveto
P$2
fill
0 setlinewidth
[] 0 setdash
0 0 0 setrgbcolor
newpath
55.9902 13.7529 moveto
P$4
56.1406 15.0723 moveto
P$5
fill
0 setlinewidth
[] 0 setdash
0 0 0 setrgbcolor
newpath
64.4619 13.6606 moveto
P$6
64.9131 16.5352 moveto
P$7
fill
0 setlinewidth
[] 0 setdash
0 0 0 setrgbcolor
newpath
67.9365 13.459 moveto
P$8
fill
0.7843 0.7843 0.7843 setrgbcolor
71 28 12 635 1 roundrect
closepath eofill
0.7098 0.7098 0.7098 setrgbcolor
70 27 12.5 635.5 1 roundrect
closepath eofill
0.6353 0.6353 0.6353 setrgbcolor
69 26 13 636 1 roundrect
closepath eofill
0.5608 0.5608 0.5608 setrgbcolor
68 25 13.5 636.5 1 roundrect
closepath eofill
0.4902 0.4902 0.4902 setrgbcolor
67 24 14 637 1 roundrect
closepath eofill
0.4157 0.4157 0.4157 setrgbcolor
66 23 14.5 637.5 1 roundrect
closepath eofill
0.3412 0.3412 0.3412 setrgbcolor
65 22 15 638 1 roundrect
closepath eofill
0.2667 0.2667 0.2667 setrgbcolor
64 21 15.5 638.5 1 roundrect
closepath eofill
0.1961 0.1961 0.1961 setrgbcolor
63 20 16 639 1 roundrect
closepath eofill
1 1 1 setrgbcolor
71 28 8 631 simplerect
closepath eofill
1.5 setlinewidth
0 0 0 setrgbcolor
71 28 8 631 simplerect
closepath stroke
0 setlinewidth
[] 0 setdash
0 0 0 setrgbcolor
newpath
16.0322 638.7383 moveto
P$0
fill
0 setlinewidth
[] 0 setdash
0 0 0 setrgbcolor
newpath
29.2354 647.6729 moveto
P$1
31.8262 644.3438 moveto
P$2
fill
0 setlinewidth
[] 0 setdash
0 0 0 setrgbcolor
newpath
35.9023 641.459 moveto
P$3
fill
0 setlinewidth
[] 0 setdash
0 0 0 setrgbcolor
newpath
45.2354 647.6729 moveto
P$1
47.8262 644.3438 moveto
P$2
fill
0 setlinewidth
[] 0 setdash
0 0 0 setrgbcolor
newpath
55.9902 641.7529 moveto
P$4
56.1406 643.0723 moveto
P$5
fill
0 setlinewidth
[] 0 setdash
0 0 0 setrgbcolor
newpath
64.4619 641.6606 moveto
P$6
64.9131 644.5352 moveto
P$7
fill
0 setlinewidth
[] 0 setdash
0 0 0 setrgbcolor
newpath
67.9365 641.459 moveto
P$8
fill
0.7843 0.7843 0.7843 setrgbcolor
72 28 295.5 7 1 roundrect
closepath eofill
0.7098 0.7098 0.7098 setrgbcolor
71 27 296 7.5 1 roundrect
closepath eofill
0.6353 0.6353 0.6353 setrgbcolor
70 26 296.5 8 1 roundrect
closepath eofill
0.5608 0.5608 0.5608 setrgbcolor
69 25 297 8.5 1 roundrect
closepath eofill
0.4902 0.4902 0.4902 setrgbcolor
68 24 297.5 9 1 roundrect
closepath eofill
0.4157 0.4157 0.4157 setrgbcolor
67 23 298 9.5 1 roundrect
closepath eofill
0.3412 0.3412 0.3412 setrgbcolor
66 22 298.5 10 1 roundrect
closepath eofill
0.2667 0.2667 0.2667 setrgbcolor
65 21 299 10.5 1 roundrect
closepath eofill
0.1961 0.1961 0.1961 setrgbcolor
64 20 299.5 11 1 roundrect
closepath eofill
1 1 1 setrgbcolor
72 28 291.5 3 simplerect
closepath eofill
1.5 setlinewidth
0 0 0 setrgbcolor
72 28 291.5 3 simplerect
closepath stroke
0 setlinewidth
[] 0 setdash
0 0 0 setrgbcolor
newpath
299.6963 10.7383 moveto
P$9
305.001 12.1191 moveto
P$a
fill
0 setlinewidth
[] 0 setdash
0 0 0 setrgbcolor
newpath
308.4365 13.459 moveto
P$b
fill
0 setlinewidth
[] 0 setdash
0 0 0 setrgbcolor
newpath
317.9858 19.061 moveto
P$c
318.748 14.1904 moveto
P$d
fill
0 setlinewidth
[] 0 setdash
0 0 0 setrgbcolor
newpath
322.6807 19.1738 moveto
P$e
325.4424 13.6846 moveto
P$f
fill
0 setlinewidth
[] 0 setdash
0 0 0 setrgbcolor
newpath
330.6328 13.459 moveto
P$g
fill
0 setlinewidth
[] 0 setdash
0 0 0 setrgbcolor
newpath
342.2388 13.8486 moveto
P$h
fill
0 setlinewidth
[] 0 setdash
0 0 0 setrgbcolor
newpath
348.9619 13.6606 moveto
P$6
349.4131 16.5352 moveto
P$7
fill
0 setlinewidth
[] 0 setdash
0 0 0 setrgbcolor
newpath
352.4365 13.459 moveto
P$8
fill
0.7843 0.7843 0.7843 setrgbcolor
72 28 295.5 635 1 roundrect
closepath eofill
0.7098 0.7098 0.7098 setrgbcolor
71 27 296 635.5 1 roundrect
closepath eofill
0.6353 0.6353 0.6353 setrgbcolor
70 26 296.5 636 1 roundrect
closepath eofill
0.5608 0.5608 0.5608 setrgbcolor
69 25 297 636.5 1 roundrect
closepath eofill
0.4902 0.4902 0.4902 setrgbcolor
68 24 297.5 637 1 roundrect
closepath eofill
0.4157 0.4157 0.4157 setrgbcolor
67 23 298 637.5 1 roundrect
closepath eofill
0.3412 0.3412 0.3412 setrgbcolor
66 22 298.5 638 1 roundrect
closepath eofill
0.2667 0.2667 0.2667 setrgbcolor
65 21 299 638.5 1 roundrect
closepath eofill
0.1961 0.1961 0.1961 setrgbcolor
64 20 299.5 639 1 roundrect
closepath eofill
1 1 1 setrgbcolor
72 28 291.5 631 simplerect
closepath eofill
1.5 setlinewidth
0 0 0 setrgbcolor
72 28 291.5 631 simplerect
closepath stroke
0 setlinewidth
[] 0 setdash
0 0 0 setrgbcolor
newpath
299.6963 638.7383 moveto
P$9
305.001 640.1191 moveto
P$a
fill
0 setlinewidth
[] 0 setdash
0 0 0 setrgbcolor
newpath
308.4365 641.459 moveto
P$b
fill
0 setlinewidth
[] 0 setdash
0 0 0 setrgbcolor
newpath
317.9858 647.061 moveto
P$c
318.748 642.1904 moveto
P$d
fill
0 setlinewidth
[] 0 setdash
0 0 0 setrgbcolor
newpath
322.6807 647.1738 moveto
P$e
325.4424 641.6846 moveto
P$f
fill
0 setlinewidth
[] 0 setdash
0 0 0 setrgbcolor
newpath
330.6328 641.459 moveto
P$g
fill
0 setlinewidth
[] 0 setdash
0 0 0 setrgbcolor
newpath
342.2388 641.8486 moveto
P$h
fill
0 setlinewidth
[] 0 setdash
0 0 0 setrgbcolor
newpath
348.9619 641.6606 moveto
P$6
349.4131 644.5352 moveto
P$7
fill
0 setlinewidth
[] 0 setdash
0 0 0 setrgbcolor
newpath
352.4365 641.459 moveto
P$8
fill
0.7843 0.7843 0.7843 setrgbcolor
80 28 490.5 7 1 roundrect
closepath eofill
0.7098 0.7098 0.7098 setrgbcolor
79 27 491 7.5 1 roundrect
closepath eofill
0.6353 0.6353 0.6353 setrgbcolor
78 26 491.5 8 1 roundrect
closepath eofill
0.5608 0.5608 0.5608 setrgbcolor
77 25 492 8.5 1 roundrect
closepath eofill
0.4902 0.4902 0.4902 setrgbcolor
76 24 492.5 9 1 roundrect
closepath eofill
0.4157 0.4157 0.4157 setrgbcolor
75 23 493 9.5 1 roundrect
closepath eofill
0.3412 0.3412 0.3412 setrgbcolor
74 22 493.5 10 1 roundrect
closepath eofill
0.2667 0.2667 0.2667 setrgbcolor
73 21 494 10.5 1 roundrect
closepath eofill
0.1961 0.1961 0.1961 setrgbcolor
72 20 494.5 11 1 roundrect
closepath eofill
1 1 1 setrgbcolor
80 28 486.5 3 simplerect
closepath eofill
1.5 setlinewidth
0 0 0 setrgbcolor
80 28 486.5 3 simplerect
closepath stroke
0 setlinewidth
[] 0 setdash
0 0 0 setrgbcolor
newpath
501.7578 11.4697 moveto
P$i
fill
0 setlinewidth
[] 0 setdash
0 0 0 setrgbcolor
newpath
508.9858 19.061 moveto
P$c
509.748 14.1904 moveto
P$d
fill
0 setlinewidth
[] 0 setdash
0 0 0 setrgbcolor
newpath
512.4023 13.459 moveto
P$3
fill
0 setlinewidth
[] 0 setdash
0 0 0 setrgbcolor
newpath
521.1338 18.4834 moveto
P$j
fill
0 setlinewidth
[] 0 setdash
0 0 0 setrgbcolor
newpath
528.6328 13.459 moveto
P$g
fill
0 setlinewidth
[] 0 setdash
0 0 0 setrgbcolor
newpath
535.4023 13.459 moveto
P$k
fill
0 setlinewidth
[] 0 setdash
0 0 0 setrgbcolor
newpath
551.9619 13.6606 moveto
P$6
552.4131 16.5352 moveto
P$7
fill
0 setlinewidth
[] 0 setdash
0 0 0 setrgbcolor
newpath
555.4365 13.459 moveto
P$8
fill
0.7843 0.7843 0.7843 setrgbcolor
80 28 490.5 635 1 roundrect
closepath eofill
0.7098 0.7098 0.7098 setrgbcolor
79 27 491 635.5 1 roundrect
closepath eofill
0.6353 0.6353 0.6353 setrgbcolor
78 26 491.5 636 1 roundrect
closepath eofill
0.5608 0.5608 0.5608 setrgbcolor
77 25 492 636.5 1 roundrect
closepath eofill
0.4902 0.4902 0.4902 setrgbcolor
76 24 492.5 637 1 roundrect
closepath eofill
0.4157 0.4157 0.4157 setrgbcolor
75 23 493 637.5 1 roundrect
closepath eofill
0.3412 0.3412 0.3412 setrgbcolor
74 22 493.5 638 1 roundrect
closepath eofill
0.2667 0.2667 0.2667 setrgbcolor
73 21 494 638.5 1 roundrect
closepath eofill
0.1961 0.1961 0.1961 setrgbcolor
72 20 494.5 639 1 roundrect
closepath eofill
1 1 1 setrgbcolor
80 28 486.5 631 simplerect
closepath eofill
1.5 setlinewidth
0 0 0 setrgbcolor
80 28 486.5 631 simplerect
closepath stroke
0 setlinewidth
[] 0 setdash
0 0 0 setrgbcolor
newpath
501.7578 639.4697 moveto
P$i
fill
0 setlinewidth
[] 0 setdash
0 0 0 setrgbcolor
newpath
508.9858 647.061 moveto
P$c
509.748 642.1904 moveto
P$d
fill
0 setlinewidth
[] 0 setdash
0 0 0 setrgbcolor
newpath
512.4023 641.459 moveto
P$3
fill
0 setlinewidth
[] 0 setdash
0 0 0 setrgbcolor
newpath
521.1338 646.4834 moveto
P$j
fill
0 setlinewidth
[] 0 setdash
0 0 0 setrgbcolor
newpath
528.6328 641.459 moveto
P$g
fill
0 setlinewidth
[] 0 setdash
0 0 0 setrgbcolor
newpath
535.4023 641.459 moveto
P$k
fill
0 setlinewidth
[] 0 setdash
0 0 0 setrgbcolor
newpath
551.9619 641.6606 moveto
P$6
552.4131 644.5352 moveto
P$7
fill
0 setlinewidth
[] 0 setdash
0 0 0 setrgbcolor
newpath
555.4365 641.459 moveto
P$8
fill
1.0 setlinewidth
0 0 0 setrgbcolor
newpath
45.5 65 moveto
10{
2 0 rlineto
2 0 rmoveto
} repeat
2 0 rlineto
stroke
1.0 setlinewidth
0 0 0 setrgbcolor
newpath
87.5 65 moveto
3{
0 2 rlineto
0 2 rmoveto
} repeat
0 1 rlineto
stroke
1.0 setlinewidth
0 0 0 setrgbcolor
newpath
46.5 78 moveto
10{
2 0 rlineto
2 0 rmoveto
} repeat
1 0 rlineto
stroke
0 0 0 setrgbcolor
newpath
56.5 74 moveto
-10 4 rlineto
10 4 rlineto
-4 -4 rlineto
56.5 74 lineto
closepath eofill
1.0 setlinewidth
0 0 0 setrgbcolor
newpath
56.5 74 moveto
-10 4 rlineto
10 4 rlineto
-4 -4 rlineto
56.5 74 lineto
closepath stroke
0 setlinewidth
[] 0 setdash
0 0 0 setrgbcolor
newpath
60.168 51.3647 moveto
P$l
fill
0 setlinewidth
[] 0 setdash
0 0 0 setrgbcolor
newpath
66.594 58.4138 moveto
P$m
67.3018 53.8911 moveto
P$n
fill
0 setlinewidth
[] 0 setdash
0 0 0 setrgbcolor
newpath
69.3696 50.6855 moveto
P$o
fill
0 setlinewidth
[] 0 setdash
0 0 0 setrgbcolor
newpath
72.3696 50.6855 moveto
P$o
fill
0 setlinewidth
[] 0 setdash
0 0 0 setrgbcolor
newpath
79.5718 53.3992 moveto
P$p
79.9907 56.0684 moveto
P$q
fill
0 setlinewidth
[] 0 setdash
0 0 0 setrgbcolor
newpath
86.8289 53.5737 moveto
P$r
fill
0 setlinewidth
[] 0 setdash
0 0 0 setrgbcolor
newpath
89.5664 51.314 moveto
P$s
fill
0 setlinewidth
[] 0 setdash
0 0 0 setrgbcolor
newpath
101.5369 58.5725 moveto
P$t
97.249 53.2437 moveto
P$u
fill
0 setlinewidth
[] 0 setdash
0 0 0 setrgbcolor
newpath
104.3696 53.2119 moveto
P$v
fill
0 setlinewidth
[] 0 setdash
0 0 0 setrgbcolor
newpath
112.594 58.4138 moveto
P$m
113.3018 53.8911 moveto
P$n
fill
0 setlinewidth
[] 0 setdash
0 0 0 setrgbcolor
newpath
116.5249 58.5186 moveto
P$w
119.0894 53.4214 moveto
P$x
fill
0 setlinewidth
[] 0 setdash
0 0 0 setrgbcolor
newpath
123.4805 53.2119 moveto
P$y
fill
0 setlinewidth
[] 0 setdash
0 0 0 setrgbcolor
newpath
133.8289 53.5737 moveto
P$r
fill
0 setlinewidth
[] 0 setdash
0 0 0 setrgbcolor
newpath
140.5718 53.3992 moveto
P$p
140.9907 56.0684 moveto
P$q
fill
0 setlinewidth
[] 0 setdash
0 0 0 setrgbcolor
newpath
143.3696 53.2119 moveto
P$v
fill
0 setlinewidth
[] 0 setdash
0 0 0 setrgbcolor
newpath
152.5757 58.9819 moveto
P$z
154.9814 55.8906 moveto
P$10
fill
0 setlinewidth
[] 0 setdash
0 0 0 setrgbcolor
newpath
158.3379 53.2119 moveto
P$11
fill
0 setlinewidth
[] 0 setdash
0 0 0 setrgbcolor
newpath
166.5249 58.5186 moveto
P$w
169.0894 53.4214 moveto
P$x
fill
0 setlinewidth
[] 0 setdash
0 0 0 setrgbcolor
newpath
180.8289 53.5737 moveto
P$r
fill
0 setlinewidth
[] 0 setdash
0 0 0 setrgbcolor
newpath
187.594 58.4138 moveto
P$m
188.3018 53.8911 moveto
P$n
fill
0 setlinewidth
[] 0 setdash
0 0 0 setrgbcolor
newpath
190.3379 53.2119 moveto
P$11
fill
0 setlinewidth
[] 0 setdash
0 0 0 setrgbcolor
newpath
198.0171 57.8774 moveto
P$12
fill
0 setlinewidth
[] 0 setdash
0 0 0 setrgbcolor
newpath
205.4805 53.2119 moveto
P$y
fill
0 setlinewidth
[] 0 setdash
0 0 0 setrgbcolor
newpath
211.3379 53.2119 moveto
P$13
fill
0 setlinewidth
[] 0 setdash
0 0 0 setrgbcolor
newpath
226.5718 53.3992 moveto
P$p
226.9907 56.0684 moveto
P$q
fill
0 setlinewidth
[] 0 setdash
0 0 0 setrgbcolor
newpath
229.3696 53.2119 moveto
P$v
fill
0 setlinewidth
[] 0 setdash
0 0 0 setrgbcolor
newpath
234.6455 50.6855 moveto
P$14
fill
0 setlinewidth
[] 0 setdash
0 0 0 setrgbcolor
newpath
236.0171 57.8774 moveto
P$12
fill
0 setlinewidth
[] 0 setdash
0 0 0 setrgbcolor
newpath
246.3379 53.2437 moveto
P$15
246.3379 50.6855 moveto
P$16
fill
0 setlinewidth
[] 0 setdash
0 0 0 setrgbcolor
newpath
250.5249 58.5186 moveto
P$w
253.0894 53.4214 moveto
P$x
fill
0 setlinewidth
[] 0 setdash
0 0 0 setrgbcolor
newpath
260.5718 53.3992 moveto
P$p
260.9907 56.0684 moveto
P$q
fill
0 setlinewidth
[] 0 setdash
0 0 0 setrgbcolor
newpath
263.3379 53.2119 moveto
P$11
fill
0 setlinewidth
[] 0 setdash
0 0 0 setrgbcolor
newpath
270.5664 51.314 moveto
P$s
fill
0 setlinewidth
[] 0 setdash
0 0 0 setrgbcolor
newpath
274.3379 53.2437 moveto
P$15
274.3379 50.6855 moveto
P$16
fill
0 setlinewidth
[] 0 setdash
0 0 0 setrgbcolor
newpath
277.5664 51.314 moveto
P$s
fill
0 setlinewidth
[] 0 setdash
0 0 0 setrgbcolor
newpath
281.3379 53.2437 moveto
P$15
281.3379 50.6855 moveto
P$16
fill
0 setlinewidth
[] 0 setdash
0 0 0 setrgbcolor
newpath
288.5718 53.3992 moveto
P$p
288.9907 56.0684 moveto
P$q
fill
0 setlinewidth
[] 0 setdash
0 0 0 setrgbcolor
newpath
292.0171 57.8774 moveto
P$17
fill
1.0 setlinewidth
0 0 0 setrgbcolor
newpath
45.5 105 moveto
10{
2 0 rlineto
2 0 rmoveto
} repeat
2 0 rlineto
stroke
1.0 setlinewidth
0 0 0 setrgbcolor
newpath
87.5 105 moveto
3{
0 2 rlineto
0 2 rmoveto
} repeat
0 1 rlineto
stroke
1.0 setlinewidth
0 0 0 setrgbcolor
newpath
46.5 118 moveto
10{
2 0 rlineto
2 0 rmoveto
} repeat
1 0 rlineto
stroke
0 0 0 setrgbcolor
newpath
56.5 114 moveto
-10 4 rlineto
10 4 rlineto
-4 -4 rlineto
56.5 114 lineto
closepath eofill
1.0 setlinewidth
0 0 0 setrgbcolor
newpath
56.5 114 moveto
-10 4 rlineto
10 4 rlineto
-4 -4 rlineto
56.5 114 lineto
closepath stroke
0 setlinewidth
[] 0 setdash
0 0 0 setrgbcolor
newpath
60.168 91.3647 moveto
P$l
fill
0 setlinewidth
[] 0 setdash
0 0 0 setrgbcolor
newpath
62.3696 93.2119 moveto
P$v
fill
0 setlinewidth
[] 0 setdash
0 0 0 setrgbcolor
newpath
70.5718 93.3992 moveto
P$p
70.9907 96.0684 moveto
P$q
fill
0 setlinewidth
[] 0 setdash
0 0 0 setrgbcolor
newpath
74.5757 98.9819 moveto
P$z
76.9814 95.8906 moveto
P$10
fill
0 setlinewidth
[] 0 setdash
0 0 0 setrgbcolor
newpath
80.5664 91.314 moveto
P$s
fill
0 setlinewidth
[] 0 setdash
0 0 0 setrgbcolor
newpath
88.5718 93.3992 moveto
P$p
88.9907 96.0684 moveto
P$q
fill
0 setlinewidth
[] 0 setdash
0 0 0 setrgbcolor
newpath
96.5757 98.9819 moveto
P$z
98.9814 95.8906 moveto
P$10
fill
0 setlinewidth
[] 0 setdash
0 0 0 setrgbcolor
newpath
106.8289 93.5737 moveto
P$r
fill
0 setlinewidth
[] 0 setdash
0 0 0 setrgbcolor
newpath
113.8289 93.5737 moveto
P$r
fill
0 setlinewidth
[] 0 setdash
0 0 0 setrgbcolor
newpath
120.5718 93.3992 moveto
P$p
120.9907 96.0684 moveto
P$q
fill
0 setlinewidth
[] 0 setdash
0 0 0 setrgbcolor
newpath
124.0171 97.8774 moveto
P$12
fill
0 setlinewidth
[] 0 setdash
0 0 0 setrgbcolor
newpath
131.0171 97.8774 moveto
P$12
fill
0 setlinewidth
[] 0 setdash
0 0 0 setrgbcolor
newpath
145.8289 93.5737 moveto
P$r
fill
0 setlinewidth
[] 0 setdash
0 0 0 setrgbcolor
newpath
152.594 98.4138 moveto
P$m
153.3018 93.8911 moveto
P$n
fill
0 setlinewidth
[] 0 setdash
0 0 0 setrgbcolor
newpath
155.3379 93.2119 moveto
P$11
fill
0 setlinewidth
[] 0 setdash
0 0 0 setrgbcolor
newpath
162.5664 91.314 moveto
P$s
fill
0 setlinewidth
[] 0 setdash
0 0 0 setrgbcolor
newpath
166.3696 93.2119 moveto
P$v
fill
0 setlinewidth
[] 0 setdash
0 0 0 setrgbcolor
newpath
174.594 98.4138 moveto
P$m
175.3018 93.8911 moveto
P$n
fill
0 setlinewidth
[] 0 setdash
0 0 0 setrgbcolor
newpath
177.3696 90.6855 moveto
P$o
fill
0 setlinewidth
[] 0 setdash
0 0 0 setrgbcolor
newpath
185.0171 97.8774 moveto
P$12
fill
0 setlinewidth
[] 0 setdash
0 0 0 setrgbcolor
newpath
195.8289 93.5737 moveto
P$r
fill
0 setlinewidth
[] 0 setdash
0 0 0 setrgbcolor
newpath
198.3379 90.6538 moveto
P$18
fill
0 setlinewidth
[] 0 setdash
0 0 0 setrgbcolor
newpath
209.5718 93.3992 moveto
P$p
209.9907 96.0684 moveto
P$q
fill
0 setlinewidth
[] 0 setdash
0 0 0 setrgbcolor
newpath
213.5249 98.5186 moveto
P$w
216.0894 93.4214 moveto
P$x
fill
0 setlinewidth
[] 0 setdash
0 0 0 setrgbcolor
newpath
220.4805 93.2119 moveto
P$y
fill
0 setlinewidth
[] 0 setdash
0 0 0 setrgbcolor
newpath
226.3696 90.6855 moveto
P$o
fill
0 setlinewidth
[] 0 setdash
0 0 0 setrgbcolor
newpath
233.5718 93.3992 moveto
P$p
233.9907 96.0684 moveto
P$q
fill
0 setlinewidth
[] 0 setdash
0 0 0 setrgbcolor
newpath
237.0171 97.8774 moveto
P$17
fill
1.0 setlinewidth
0 0 0 setrgbcolor
newpath
329.5 145 moveto
10{
2 0 rlineto
2 0 rmoveto
} repeat
2 0 rlineto
stroke
1.0 setlinewidth
0 0 0 setrgbcolor
newpath
371.5 145 moveto
3{
0 2 rlineto
0 2 rmoveto
} repeat
0 1 rlineto
stroke
1.0 setlinewidth
0 0 0 setrgbcolor
newpath
330.5 158 moveto
10{
2 0 rlineto
2 0 rmoveto
} repeat
1 0 rlineto
stroke
0 0 0 setrgbcolor
newpath
340.5 154 moveto
-10 4 rlineto
10 4 rlineto
-4 -4 rlineto
340.5 154 lineto
closepath eofill
1.0 setlinewidth
0 0 0 setrgbcolor
newpath
340.5 154 moveto
-10 4 rlineto
10 4 rlineto
-4 -4 rlineto
340.5 154 lineto
closepath stroke
0 setlinewidth
[] 0 setdash
0 0 0 setrgbcolor
newpath
344.168 131.3647 moveto
P$l
fill
0 setlinewidth
[] 0 setdash
0 0 0 setrgbcolor
newpath
346.3696 133.2119 moveto
P$v
fill
0 setlinewidth
[] 0 setdash
0 0 0 setrgbcolor
newpath
354.5718 133.3992 moveto
P$p
354.9907 136.0684 moveto
P$q
fill
0 setlinewidth
[] 0 setdash
0 0 0 setrgbcolor
newpath
358.5757 138.9819 moveto
P$z
360.9814 135.8906 moveto
P$10
fill
0 setlinewidth
[] 0 setdash
0 0 0 setrgbcolor
newpath
364.5664 131.314 moveto
P$s
fill
0 setlinewidth
[] 0 setdash
0 0 0 setrgbcolor
newpath
372.5718 133.3992 moveto
P$p
372.9907 136.0684 moveto
P$q
fill
0 setlinewidth
[] 0 setdash
0 0 0 setrgbcolor
newpath
383.8289 133.5737 moveto
P$r
fill
0 setlinewidth
[] 0 setdash
0 0 0 setrgbcolor
newpath
390.594 138.4138 moveto
P$m
391.3018 133.8911 moveto
P$n
fill
0 setlinewidth
[] 0 setdash
0 0 0 setrgbcolor
newpath
393.3379 133.2119 moveto
P$11
fill
0 setlinewidth
[] 0 setdash
0 0 0 setrgbcolor
newpath
400.5664 131.314 moveto
P$s
fill
0 setlinewidth
[] 0 setdash
0 0 0 setrgbcolor
newpath
408.5718 133.3992 moveto
P$p
408.9907 136.0684 moveto
P$q
fill
0 setlinewidth
[] 0 setdash
0 0 0 setrgbcolor
newpath
411.3379 133.2119 moveto
P$11
fill
0 setlinewidth
[] 0 setdash
0 0 0 setrgbcolor
newpath
418.5664 131.314 moveto
P$s
fill
0 setlinewidth
[] 0 setdash
0 0 0 setrgbcolor
newpath
426.3125 130.6855 moveto
P$19
fill
0 setlinewidth
[] 0 setdash
0 0 0 setrgbcolor
newpath
437.5718 133.3992 moveto
P$p
437.9907 136.0684 moveto
P$q
fill
0 setlinewidth
[] 0 setdash
0 0 0 setrgbcolor
newpath
444.5845 133.2119 moveto
P$1a
fill
0 setlinewidth
[] 0 setdash
0 0 0 setrgbcolor
newpath
447.9409 133.3008 moveto
P$1b
447.9409 138.6265 moveto
P$1c
fill
0 setlinewidth
[] 0 setdash
0 0 0 setrgbcolor
newpath
462.168 131.3647 moveto
P$l
fill
0 setlinewidth
[] 0 setdash
0 0 0 setrgbcolor
newpath
464.0396 135.8018 moveto
P$1d
fill
0 setlinewidth
[] 0 setdash
0 0 0 setrgbcolor
newpath
468.4902 130.6855 moveto
P$1e
fill
0 setlinewidth
[] 0 setdash
0 0 0 setrgbcolor
newpath
481.5718 133.3992 moveto
P$p
481.9907 136.0684 moveto
P$q
fill
0 setlinewidth
[] 0 setdash
0 0 0 setrgbcolor
newpath
488.5845 133.2119 moveto
P$1f
fill
0 0 0 setrgbcolor
newpath
56.5 181 moveto
-10 4 rlineto
10 4 rlineto
-4 -4 rlineto
56.5 181 lineto
closepath eofill
1.0 setlinewidth
0 0 0 setrgbcolor
newpath
56.5 181 moveto
-10 4 rlineto
10 4 rlineto
-4 -4 rlineto
56.5 181 lineto
closepath stroke
1.0 setlinewidth
0 0 0 setrgbcolor
newpath
50.5 185 moveto
278 0 rlineto
stroke
0 setlinewidth
[] 0 setdash
0 0 0 setrgbcolor
newpath
77.1108 170.6855 moveto
P$1g
fill
0 setlinewidth
[] 0 setdash
0 0 0 setrgbcolor
newpath
89.0718 173.3992 moveto
P$p
89.4907 176.0684 moveto
P$q
fill
0 setlinewidth
[] 0 setdash
0 0 0 setrgbcolor
newpath
92.0664 171.314 moveto
P$s
fill
0 setlinewidth
[] 0 setdash
0 0 0 setrgbcolor
newpath
100.3289 173.5737 moveto
P$r
fill
0 setlinewidth
[] 0 setdash
0 0 0 setrgbcolor
newpath
102.8379 170.6538 moveto
P$18
fill
0 setlinewidth
[] 0 setdash
0 0 0 setrgbcolor
newpath
114.0664 171.314 moveto
P$s
fill
0 setlinewidth
[] 0 setdash
0 0 0 setrgbcolor
newpath
117.8379 170.6538 moveto
P$18
fill
0 setlinewidth
[] 0 setdash
0 0 0 setrgbcolor
newpath
129.0718 173.3992 moveto
P$p
129.4907 176.0684 moveto
P$q
fill
0 setlinewidth
[] 0 setdash
0 0 0 setrgbcolor
newpath
140.0369 178.5725 moveto
P$t
135.749 173.2437 moveto
P$u
fill
0 setlinewidth
[] 0 setdash
0 0 0 setrgbcolor
newpath
142.8696 173.2119 moveto
P$v
fill
0 setlinewidth
[] 0 setdash
0 0 0 setrgbcolor
newpath
151.094 178.4138 moveto
P$m
151.8018 173.8911 moveto
P$n
fill
0 setlinewidth
[] 0 setdash
0 0 0 setrgbcolor
newpath
155.0249 178.5186 moveto
P$w
157.5894 173.4214 moveto
P$x
fill
0 setlinewidth
[] 0 setdash
0 0 0 setrgbcolor
newpath
161.9805 173.2119 moveto
P$y
fill
0 setlinewidth
[] 0 setdash
0 0 0 setrgbcolor
newpath
172.3289 173.5737 moveto
P$r
fill
0 setlinewidth
[] 0 setdash
0 0 0 setrgbcolor
newpath
175.0664 171.314 moveto
P$s
fill
0 setlinewidth
[] 0 setdash
0 0 0 setrgbcolor
newpath
178.8379 173.2437 moveto
P$15
178.8379 170.6855 moveto
P$16
fill
0 setlinewidth
[] 0 setdash
0 0 0 setrgbcolor
newpath
186.094 178.4138 moveto
P$m
186.8018 173.8911 moveto
P$n
fill
0 setlinewidth
[] 0 setdash
0 0 0 setrgbcolor
newpath
188.8379 173.2119 moveto
P$11
fill
0 setlinewidth
[] 0 setdash
0 0 0 setrgbcolor
newpath
204.3289 173.5737 moveto
P$r
fill
0 setlinewidth
[] 0 setdash
0 0 0 setrgbcolor
newpath
206.8696 173.2119 moveto
P$v
fill
0 setlinewidth
[] 0 setdash
0 0 0 setrgbcolor
newpath
215.0718 173.3992 moveto
P$p
215.4907 176.0684 moveto
P$q
fill
0 setlinewidth
[] 0 setdash
0 0 0 setrgbcolor
newpath
219.0249 178.5186 moveto
P$w
221.5894 173.4214 moveto
P$x
fill
0 setlinewidth
[] 0 setdash
0 0 0 setrgbcolor
newpath
229.0718 173.3992 moveto
P$p
229.4907 176.0684 moveto
P$q
fill
0 setlinewidth
[] 0 setdash
0 0 0 setrgbcolor
newpath
231.8379 173.2119 moveto
P$11
fill
0 setlinewidth
[] 0 setdash
0 0 0 setrgbcolor
newpath
239.0664 171.314 moveto
P$s
fill
0 setlinewidth
[] 0 setdash
0 0 0 setrgbcolor
newpath
242.8379 173.2437 moveto
P$15
242.8379 170.6855 moveto
P$16
fill
0 setlinewidth
[] 0 setdash
0 0 0 setrgbcolor
newpath
247.0757 178.9819 moveto
P$z
249.4814 175.8906 moveto
P$10
fill
0 setlinewidth
[] 0 setdash
0 0 0 setrgbcolor
newpath
252.8696 170.6855 moveto
P$o
fill
0 setlinewidth
[] 0 setdash
0 0 0 setrgbcolor
newpath
256.4409 173.3008 moveto
P$1b
256.4409 178.6265 moveto
P$1c
fill
0 setlinewidth
[] 0 setdash
0 0 0 setrgbcolor
newpath
264.1108 170.6855 moveto
P$1h
fill
0 setlinewidth
[] 0 setdash
0 0 0 setrgbcolor
newpath
272.5396 175.8018 moveto
P$1d
fill
0 setlinewidth
[] 0 setdash
0 0 0 setrgbcolor
newpath
276.9902 170.6855 moveto
P$1e
fill
0 setlinewidth
[] 0 setdash
0 0 0 setrgbcolor
newpath
290.0718 173.3992 moveto
P$p
290.4907 176.0684 moveto
P$q
fill
0 setlinewidth
[] 0 setdash
0 0 0 setrgbcolor
newpath
297.0845 173.2119 moveto
P$1f
fill
0 0 0 setrgbcolor
newpath
317.5 208 moveto
10 4 rlineto
-10 4 rlineto
4 -4 rlineto
317.5 208 lineto
closepath eofill
1.0 setlinewidth
0 0 0 setrgbcolor
newpath
317.5 208 moveto
10 4 rlineto
-10 4 rlineto
4 -4 rlineto
317.5 208 lineto
closepath stroke
1.0 setlinewidth
0 0 0 setrgbcolor
newpath
45.5 212 moveto
69{
2 0 rlineto
2 0 rmoveto
} repeat
2 0 rlineto
stroke
0 setlinewidth
[] 0 setdash
0 0 0 setrgbcolor
newpath
58.6108 197.6855 moveto
P$1h
fill
0 setlinewidth
[] 0 setdash
0 0 0 setrgbcolor
newpath
67.0396 202.8018 moveto
P$1d
fill
0 setlinewidth
[] 0 setdash
0 0 0 setrgbcolor
newpath
71.4902 197.6855 moveto
P$1e
fill
0 setlinewidth
[] 0 setdash
0 0 0 setrgbcolor
newpath
84.5718 200.3992 moveto
P$p
84.9907 203.0684 moveto
P$q
fill
0 setlinewidth
[] 0 setdash
0 0 0 setrgbcolor
newpath
91.5845 200.2119 moveto
P$1a
fill
0 setlinewidth
[] 0 setdash
0 0 0 setrgbcolor
newpath
101.3467 197.5332 moveto
P$1i
fill
0 setlinewidth
[] 0 setdash
0 0 0 setrgbcolor
newpath
106.5718 200.3992 moveto
P$p
106.9907 203.0684 moveto
P$q
fill
0 setlinewidth
[] 0 setdash
0 0 0 setrgbcolor
newpath
109.3379 200.2119 moveto
P$11
fill
0 setlinewidth
[] 0 setdash
0 0 0 setrgbcolor
newpath
120.8289 200.5737 moveto
P$r
fill
0 setlinewidth
[] 0 setdash
0 0 0 setrgbcolor
newpath
123.3696 200.2119 moveto
P$1j
131.5845 200.2119 moveto
P$1a
fill
0 setlinewidth
[] 0 setdash
0 0 0 setrgbcolor
newpath
138.5369 205.5725 moveto
P$t
134.249 200.2437 moveto
P$u
fill
0 setlinewidth
[] 0 setdash
0 0 0 setrgbcolor
newpath
141.5664 198.314 moveto
P$s
fill
0 setlinewidth
[] 0 setdash
0 0 0 setrgbcolor
newpath
149.5718 200.3992 moveto
P$p
149.9907 203.0684 moveto
P$q
fill
0 setlinewidth
[] 0 setdash
0 0 0 setrgbcolor
newpath
153.5249 205.5186 moveto
P$w
156.0894 200.4214 moveto
P$x
fill
0 setlinewidth
[] 0 setdash
0 0 0 setrgbcolor
newpath
163.8647 200.2119 moveto
P$1k
fill
0 setlinewidth
[] 0 setdash
0 0 0 setrgbcolor
newpath
172.3379 200.2437 moveto
P$15
172.3379 197.6855 moveto
P$16
fill
0 setlinewidth
[] 0 setdash
0 0 0 setrgbcolor
newpath
175.5664 198.314 moveto
P$s
fill
0 setlinewidth
[] 0 setdash
0 0 0 setrgbcolor
newpath
179.3379 197.6538 moveto
P$18
fill
0 setlinewidth
[] 0 setdash
0 0 0 setrgbcolor
newpath
190.6108 197.6855 moveto
P$1l
195.5366 198.9678 moveto
P$1m
fill
0 setlinewidth
[] 0 setdash
0 0 0 setrgbcolor
newpath
199.3696 200.2119 moveto
P$v
fill
0 setlinewidth
[] 0 setdash
0 0 0 setrgbcolor
newpath
207.594 205.4138 moveto
P$m
208.3018 200.8911 moveto
P$n
fill
0 setlinewidth
[] 0 setdash
0 0 0 setrgbcolor
newpath
211.5249 205.5186 moveto
P$w
214.0894 200.4214 moveto
P$x
fill
0 setlinewidth
[] 0 setdash
0 0 0 setrgbcolor
newpath
218.4805 200.2119 moveto
P$y
fill
0 setlinewidth
[] 0 setdash
0 0 0 setrgbcolor
newpath
228.8289 200.5737 moveto
P$r
fill
0 setlinewidth
[] 0 setdash
0 0 0 setrgbcolor
newpath
235.5718 200.3992 moveto
P$p
235.9907 203.0684 moveto
P$q
fill
0 setlinewidth
[] 0 setdash
0 0 0 setrgbcolor
newpath
238.3696 200.2119 moveto
P$v
fill
0 setlinewidth
[] 0 setdash
0 0 0 setrgbcolor
newpath
243.6455 197.6855 moveto
P$14
fill
0 setlinewidth
[] 0 setdash
0 0 0 setrgbcolor
newpath
245.0171 204.8774 moveto
P$12
fill
0 setlinewidth
[] 0 setdash
0 0 0 setrgbcolor
newpath
259.5369 205.5725 moveto
P$t
255.249 200.2437 moveto
P$u
fill
0 setlinewidth
[] 0 setdash
0 0 0 setrgbcolor
newpath
263.4805 200.2119 moveto
P$y
fill
0 setlinewidth
[] 0 setdash
0 0 0 setrgbcolor
newpath
269.249 197.6538 moveto
P$1n
273.6067 205.4805 moveto
P$1o
fill
0 setlinewidth
[] 0 setdash
0 0 0 setrgbcolor
newpath
276.3696 197.6855 moveto
P$o
fill
0 setlinewidth
[] 0 setdash
0 0 0 setrgbcolor
newpath
279.3379 200.2437 moveto
P$15
279.3379 197.6855 moveto
P$16
fill
0 setlinewidth
[] 0 setdash
0 0 0 setrgbcolor
newpath
286.8289 200.5737 moveto
P$r
fill
0 setlinewidth
[] 0 setdash
0 0 0 setrgbcolor
newpath
293.3125 197.6855 moveto
P$19
fill
0 setlinewidth
[] 0 setdash
0 0 0 setrgbcolor
newpath
304.5718 200.3992 moveto
P$p
304.9907 203.0684 moveto
P$q
fill
0 setlinewidth
[] 0 setdash
0 0 0 setrgbcolor
newpath
311.5845 200.2119 moveto
P$1a
fill
0 setlinewidth
[] 0 setdash
0 0 0 setrgbcolor
newpath
313.9507 209.6636 moveto
P$1p
fill
1.0 setlinewidth
0 0 0 setrgbcolor
newpath
329.5 239 moveto
10{
2 0 rlineto
2 0 rmoveto
} repeat
2 0 rlineto
stroke
1.0 setlinewidth
0 0 0 setrgbcolor
newpath
371.5 239 moveto
3{
0 2 rlineto
0 2 rmoveto
} repeat
0 1 rlineto
stroke
1.0 setlinewidth
0 0 0 setrgbcolor
newpath
330.5 252 moveto
10{
2 0 rlineto
2 0 rmoveto
} repeat
1 0 rlineto
stroke
0 0 0 setrgbcolor
newpath
340.5 248 moveto
-10 4 rlineto
10 4 rlineto
-4 -4 rlineto
340.5 248 lineto
closepath eofill
1.0 setlinewidth
0 0 0 setrgbcolor
newpath
340.5 248 moveto
-10 4 rlineto
10 4 rlineto
-4 -4 rlineto
340.5 248 lineto
closepath stroke
0 setlinewidth
[] 0 setdash
0 0 0 setrgbcolor
newpath
337.6108 224.6855 moveto
P$1l
342.5366 225.9678 moveto
P$1m
fill
0 setlinewidth
[] 0 setdash
0 0 0 setrgbcolor
newpath
346.3696 227.2119 moveto
P$v
fill
0 setlinewidth
[] 0 setdash
0 0 0 setrgbcolor
newpath
354.594 232.4138 moveto
P$m
355.3018 227.8911 moveto
P$n
fill
0 setlinewidth
[] 0 setdash
0 0 0 setrgbcolor
newpath
358.5249 232.5186 moveto
P$w
361.0894 227.4214 moveto
P$x
fill
0 setlinewidth
[] 0 setdash
0 0 0 setrgbcolor
newpath
365.4805 227.2119 moveto
P$y
fill
0 setlinewidth
[] 0 setdash
0 0 0 setrgbcolor
newpath
375.8289 227.5737 moveto
P$r
fill
0 setlinewidth
[] 0 setdash
0 0 0 setrgbcolor
newpath
382.5718 227.3992 moveto
P$p
382.9907 230.0684 moveto
P$q
fill
0 setlinewidth
[] 0 setdash
0 0 0 setrgbcolor
newpath
385.5791 235.3369 moveto
P$1q
fill
0 setlinewidth
[] 0 setdash
0 0 0 setrgbcolor
newpath
397.5718 227.3992 moveto
P$p
397.9907 230.0684 moveto
P$q
fill
0 setlinewidth
[] 0 setdash
0 0 0 setrgbcolor
newpath
400.3379 227.2119 moveto
P$11
fill
0 setlinewidth
[] 0 setdash
0 0 0 setrgbcolor
newpath
411.8289 227.5737 moveto
P$r
fill
0 setlinewidth
[] 0 setdash
0 0 0 setrgbcolor
newpath
414.3696 227.2119 moveto
P$1j
422.5845 227.2119 moveto
P$1a
fill
0 setlinewidth
[] 0 setdash
0 0 0 setrgbcolor
newpath
429.5369 232.5725 moveto
P$t
425.249 227.2437 moveto
P$u
fill
0 setlinewidth
[] 0 setdash
0 0 0 setrgbcolor
newpath
432.5664 225.314 moveto
P$s
fill
0 setlinewidth
[] 0 setdash
0 0 0 setrgbcolor
newpath
436.5791 235.3369 moveto
P$1q
fill
0 setlinewidth
[] 0 setdash
0 0 0 setrgbcolor
newpath
445.5757 232.9819 moveto
P$z
447.9814 229.8906 moveto
P$10
fill
0 setlinewidth
[] 0 setdash
0 0 0 setrgbcolor
newpath
451.3379 227.2119 moveto
P$11
fill
0 setlinewidth
[] 0 setdash
0 0 0 setrgbcolor
newpath
459.5249 232.5186 moveto
P$w
462.0894 227.4214 moveto
P$x
fill
0 setlinewidth
[] 0 setdash
0 0 0 setrgbcolor
newpath
470.0171 231.8774 moveto
P$12
fill
0 setlinewidth
[] 0 setdash
0 0 0 setrgbcolor
newpath
476.3379 227.2437 moveto
P$15
476.3379 224.6855 moveto
P$16
fill
0 setlinewidth
[] 0 setdash
0 0 0 setrgbcolor
newpath
483.1338 227.4849 moveto
P$1r
483.2734 228.71 moveto
P$1s
fill
0 setlinewidth
[] 0 setdash
0 0 0 setrgbcolor
newpath
486.3379 227.2119 moveto
P$11
fill
0 setlinewidth
[] 0 setdash
0 0 0 setrgbcolor
newpath
498.5249 232.5186 moveto
P$w
501.0894 227.4214 moveto
P$x
fill
0 setlinewidth
[] 0 setdash
0 0 0 setrgbcolor
newpath
505.5757 232.9819 moveto
P$z
507.9814 229.8906 moveto
P$10
fill
0 setlinewidth
[] 0 setdash
0 0 0 setrgbcolor
newpath
511.5664 225.314 moveto
P$s
fill
0 setlinewidth
[] 0 setdash
0 0 0 setrgbcolor
newpath
516.5757 232.9819 moveto
P$z
518.9814 229.8906 moveto
P$1t
fill
1.0 setlinewidth
0 0 0 setrgbcolor
newpath
329.5 279 moveto
10{
2 0 rlineto
2 0 rmoveto
} repeat
2 0 rlineto
stroke
1.0 setlinewidth
0 0 0 setrgbcolor
newpath
371.5 279 moveto
3{
0 2 rlineto
0 2 rmoveto
} repeat
0 1 rlineto
stroke
1.0 setlinewidth
0 0 0 setrgbcolor
newpath
330.5 292 moveto
10{
2 0 rlineto
2 0 rmoveto
} repeat
1 0 rlineto
stroke
0 0 0 setrgbcolor
newpath
340.5 288 moveto
-10 4 rlineto
10 4 rlineto
-4 -4 rlineto
340.5 288 lineto
closepath eofill
1.0 setlinewidth
0 0 0 setrgbcolor
newpath
340.5 288 moveto
-10 4 rlineto
10 4 rlineto
-4 -4 rlineto
340.5 288 lineto
closepath stroke
0 setlinewidth
[] 0 setdash
0 0 0 setrgbcolor
newpath
337.6108 264.6855 moveto
P$1h
fill
0 setlinewidth
[] 0 setdash
0 0 0 setrgbcolor
newpath
346.3379 267.2119 moveto
P$11
fill
0 setlinewidth
[] 0 setdash
0 0 0 setrgbcolor
newpath
357.8289 267.5737 moveto
P$r
fill
0 setlinewidth
[] 0 setdash
0 0 0 setrgbcolor
newpath
360.3696 267.2119 moveto
P$1j
368.5845 267.2119 moveto
P$1a
fill
0 setlinewidth
[] 0 setdash
0 0 0 setrgbcolor
newpath
375.5369 272.5725 moveto
P$t
371.249 267.2437 moveto
P$u
fill
0 setlinewidth
[] 0 setdash
0 0 0 setrgbcolor
newpath
378.5664 265.314 moveto
P$s
fill
0 setlinewidth
[] 0 setdash
0 0 0 setrgbcolor
newpath
393.168 265.3647 moveto
P$l
fill
0 setlinewidth
[] 0 setdash
0 0 0 setrgbcolor
newpath
395.0396 269.8018 moveto
P$1d
fill
0 setlinewidth
[] 0 setdash
0 0 0 setrgbcolor
newpath
399.4902 264.6855 moveto
P$1e
fill
0 setlinewidth
[] 0 setdash
0 0 0 setrgbcolor
newpath
412.5718 267.3992 moveto
P$p
412.9907 270.0684 moveto
P$q
fill
0 setlinewidth
[] 0 setdash
0 0 0 setrgbcolor
newpath
419.5845 267.2119 moveto
P$1a
fill
0 setlinewidth
[] 0 setdash
0 0 0 setrgbcolor
newpath
427.4805 267.2119 moveto
P$y
fill
0 setlinewidth
[] 0 setdash
0 0 0 setrgbcolor
newpath
434.0171 271.8774 moveto
P$12
fill
0 setlinewidth
[] 0 setdash
0 0 0 setrgbcolor
newpath
440.3379 267.2437 moveto
P$15
440.3379 264.6855 moveto
P$16
fill
0 setlinewidth
[] 0 setdash
0 0 0 setrgbcolor
newpath
443.3379 267.2119 moveto
P$11
fill
0 setlinewidth
[] 0 setdash
0 0 0 setrgbcolor
newpath
454.1338 267.4849 moveto
P$1r
454.2734 268.71 moveto
P$1s
fill
0 setlinewidth
[] 0 setdash
0 0 0 setrgbcolor
newpath
461.6108 264.6855 moveto
P$1h
fill
0 setlinewidth
[] 0 setdash
0 0 0 setrgbcolor
newpath
470.0396 269.8018 moveto
P$1d
fill
0 setlinewidth
[] 0 setdash
0 0 0 setrgbcolor
newpath
474.4902 264.6855 moveto
P$1e
fill
0 setlinewidth
[] 0 setdash
0 0 0 setrgbcolor
newpath
487.5718 267.3992 moveto
P$p
487.9907 270.0684 moveto
P$q
fill
0 setlinewidth
[] 0 setdash
0 0 0 setrgbcolor
newpath
494.5845 267.2119 moveto
P$1f
fill
0 0 0 setrgbcolor
newpath
340.5 315 moveto
-10 4 rlineto
10 4 rlineto
-4 -4 rlineto
340.5 315 lineto
closepath eofill
1.0 setlinewidth
0 0 0 setrgbcolor
newpath
340.5 315 moveto
-10 4 rlineto
10 4 rlineto
-4 -4 rlineto
340.5 315 lineto
closepath stroke
1.0 setlinewidth
0 0 0 setrgbcolor
newpath
334.5 319 moveto
193 0 rlineto
stroke
0 setlinewidth
[] 0 setdash
0 0 0 setrgbcolor
newpath
399.1108 304.6855 moveto
P$1g
fill
0 setlinewidth
[] 0 setdash
0 0 0 setrgbcolor
newpath
411.0718 307.3992 moveto
P$p
411.4907 310.0684 moveto
P$q
fill
0 setlinewidth
[] 0 setdash
0 0 0 setrgbcolor
newpath
414.0664 305.314 moveto
P$s
fill
0 setlinewidth
[] 0 setdash
0 0 0 setrgbcolor
newpath
422.3289 307.5737 moveto
P$r
fill
0 setlinewidth
[] 0 setdash
0 0 0 setrgbcolor
newpath
424.8379 304.6538 moveto
P$18
fill
0 setlinewidth
[] 0 setdash
0 0 0 setrgbcolor
newpath
437.0249 312.5186 moveto
P$w
439.5894 307.4214 moveto
P$x
fill
0 setlinewidth
[] 0 setdash
0 0 0 setrgbcolor
newpath
444.0757 312.9819 moveto
P$z
446.4814 309.8906 moveto
P$10
fill
0 setlinewidth
[] 0 setdash
0 0 0 setrgbcolor
newpath
450.0664 305.314 moveto
P$s
fill
0 setlinewidth
[] 0 setdash
0 0 0 setrgbcolor
newpath
455.0757 312.9819 moveto
P$z
457.4814 309.8906 moveto
P$1t
fill
0 0 0 setrgbcolor
newpath
516.5 342 moveto
10 4 rlineto
-10 4 rlineto
4 -4 rlineto
516.5 342 lineto
closepath eofill
1.0 setlinewidth
0 0 0 setrgbcolor
newpath
516.5 342 moveto
10 4 rlineto
-10 4 rlineto
4 -4 rlineto
516.5 342 lineto
closepath stroke
1.0 setlinewidth
0 0 0 setrgbcolor
newpath
329.5 346 moveto
48{
2 0 rlineto
2 0 rmoveto
} repeat
1 0 rlineto
stroke
0 setlinewidth
[] 0 setdash
0 0 0 setrgbcolor
newpath
420.0703 339.9312 moveto
P$1u
416.5474 331.6855 moveto
P$1v
fill
0 setlinewidth
[] 0 setdash
0 0 0 setrgbcolor
newpath
426.5757 339.9819 moveto
P$z
428.9814 336.8906 moveto
P$10
fill
0 setlinewidth
[] 0 setdash
0 0 0 setrgbcolor
newpath
432.5664 332.314 moveto
P$s
fill
0 setlinewidth
[] 0 setdash
0 0 0 setrgbcolor
newpath
437.5757 339.9819 moveto
P$z
439.9814 336.8906 moveto
P$1t
fill
1.0 setlinewidth
0 0 0 setrgbcolor
newpath
528.5 373 moveto
10{
2 0 rlineto
2 0 rmoveto
} repeat
2 0 rlineto
stroke
1.0 setlinewidth
0 0 0 setrgbcolor
newpath
570.5 373 moveto
3{
0 2 rlineto
0 2 rmoveto
} repeat
0 1 rlineto
stroke
1.0 setlinewidth
0 0 0 setrgbcolor
newpath
529.5 386 moveto
10{
2 0 rlineto
2 0 rmoveto
} repeat
1 0 rlineto
stroke
0 0 0 setrgbcolor
newpath
539.5 382 moveto
-10 4 rlineto
10 4 rlineto
-4 -4 rlineto
539.5 382 lineto
closepath eofill
1.0 setlinewidth
0 0 0 setrgbcolor
newpath
539.5 382 moveto
-10 4 rlineto
10 4 rlineto
-4 -4 rlineto
539.5 382 lineto
closepath stroke
0 setlinewidth
[] 0 setdash
0 0 0 setrgbcolor
newpath
537.2266 358.6855 moveto
P$1w
fill
0 setlinewidth
[] 0 setdash
0 0 0 setrgbcolor
newpath
549.5718 361.3992 moveto
P$p
549.9907 364.0684 moveto
P$q
fill
0 setlinewidth
[] 0 setdash
0 0 0 setrgbcolor
newpath
552.3696 361.2119 moveto
P$v
fill
0 setlinewidth
[] 0 setdash
0 0 0 setrgbcolor
newpath
556.3379 361.2437 moveto
P$15
556.3379 358.6855 moveto
P$16
fill
0 setlinewidth
[] 0 setdash
0 0 0 setrgbcolor
newpath
559.8711 359.1362 moveto
P$1x
fill
0 setlinewidth
[] 0 setdash
0 0 0 setrgbcolor
newpath
567.5845 361.2119 moveto
P$1a
fill
0 setlinewidth
[] 0 setdash
0 0 0 setrgbcolor
newpath
575.5249 366.5186 moveto
P$w
578.0894 361.4214 moveto
P$x
fill
0 setlinewidth
[] 0 setdash
0 0 0 setrgbcolor
newpath
582.5757 366.9819 moveto
P$z
584.9814 363.8906 moveto
P$10
fill
0 setlinewidth
[] 0 setdash
0 0 0 setrgbcolor
newpath
588.5664 359.314 moveto
P$s
fill
0 setlinewidth
[] 0 setdash
0 0 0 setrgbcolor
newpath
593.5757 366.9819 moveto
P$z
595.9814 363.8906 moveto
P$10
fill
0 setlinewidth
[] 0 setdash
0 0 0 setrgbcolor
newpath
604.0171 365.8774 moveto
P$12
fill
0 setlinewidth
[] 0 setdash
0 0 0 setrgbcolor
newpath
610.3379 361.2437 moveto
P$15
610.3379 358.6855 moveto
P$16
fill
0 setlinewidth
[] 0 setdash
0 0 0 setrgbcolor
newpath
617.1338 361.4849 moveto
P$1r
617.2734 362.71 moveto
P$1s
fill
0 setlinewidth
[] 0 setdash
0 0 0 setrgbcolor
newpath
620.3379 361.2119 moveto
P$11
fill
0 setlinewidth
[] 0 setdash
0 0 0 setrgbcolor
newpath
628.5757 366.9819 moveto
P$z
630.9814 363.8906 moveto
P$10
fill
0 setlinewidth
[] 0 setdash
0 0 0 setrgbcolor
newpath
634.5664 359.314 moveto
P$s
fill
0 setlinewidth
[] 0 setdash
0 0 0 setrgbcolor
newpath
639.4805 361.2119 moveto
P$y
fill
0 setlinewidth
[] 0 setdash
0 0 0 setrgbcolor
newpath
645.3696 361.2119 moveto
P$v
fill
0 setlinewidth
[] 0 setdash
0 0 0 setrgbcolor
newpath
653.5718 361.3992 moveto
P$p
653.9907 364.0684 moveto
P$1y
fill
0 0 0 setrgbcolor
newpath
340.5 409 moveto
-10 4 rlineto
10 4 rlineto
-4 -4 rlineto
340.5 409 lineto
closepath eofill
1.0 setlinewidth
0 0 0 setrgbcolor
newpath
340.5 409 moveto
-10 4 rlineto
10 4 rlineto
-4 -4 rlineto
340.5 409 lineto
closepath stroke
1.0 setlinewidth
0 0 0 setrgbcolor
newpath
334.5 413 moveto
193 0 rlineto
stroke
0 setlinewidth
[] 0 setdash
0 0 0 setrgbcolor
newpath
393.6108 398.6855 moveto
P$1g
fill
0 setlinewidth
[] 0 setdash
0 0 0 setrgbcolor
newpath
405.5718 401.3992 moveto
P$p
405.9907 404.0684 moveto
P$q
fill
0 setlinewidth
[] 0 setdash
0 0 0 setrgbcolor
newpath
408.5664 399.314 moveto
P$s
fill
0 setlinewidth
[] 0 setdash
0 0 0 setrgbcolor
newpath
416.8289 401.5737 moveto
P$r
fill
0 setlinewidth
[] 0 setdash
0 0 0 setrgbcolor
newpath
419.3379 398.6538 moveto
P$18
fill
0 setlinewidth
[] 0 setdash
0 0 0 setrgbcolor
newpath
437.168 399.3647 moveto
P$l
fill
0 setlinewidth
[] 0 setdash
0 0 0 setrgbcolor
newpath
439.0396 403.8018 moveto
P$1d
fill
0 setlinewidth
[] 0 setdash
0 0 0 setrgbcolor
newpath
443.4902 398.6855 moveto
P$1e
fill
0 setlinewidth
[] 0 setdash
0 0 0 setrgbcolor
newpath
456.5718 401.3992 moveto
P$p
456.9907 404.0684 moveto
P$q
fill
0 setlinewidth
[] 0 setdash
0 0 0 setrgbcolor
newpath
463.5845 401.2119 moveto
P$1f
fill
0 0 0 setrgbcolor
newpath
516.5 436 moveto
10 4 rlineto
-10 4 rlineto
4 -4 rlineto
516.5 436 lineto
closepath eofill
1.0 setlinewidth
0 0 0 setrgbcolor
newpath
516.5 436 moveto
10 4 rlineto
-10 4 rlineto
4 -4 rlineto
516.5 436 lineto
closepath stroke
1.0 setlinewidth
0 0 0 setrgbcolor
newpath
329.5 440 moveto
48{
2 0 rlineto
2 0 rmoveto
} repeat
1 0 rlineto
stroke
0 setlinewidth
[] 0 setdash
0 0 0 setrgbcolor
newpath
380.6108 425.6855 moveto
P$1h
fill
0 setlinewidth
[] 0 setdash
0 0 0 setrgbcolor
newpath
389.3379 428.2119 moveto
P$11
fill
0 setlinewidth
[] 0 setdash
0 0 0 setrgbcolor
newpath
400.8289 428.5737 moveto
P$r
fill
0 setlinewidth
[] 0 setdash
0 0 0 setrgbcolor
newpath
403.3696 428.2119 moveto
P$1j
411.5845 428.2119 moveto
P$1a
fill
0 setlinewidth
[] 0 setdash
0 0 0 setrgbcolor
newpath
418.5369 433.5725 moveto
P$t
414.249 428.2437 moveto
P$u
fill
0 setlinewidth
[] 0 setdash
0 0 0 setrgbcolor
newpath
421.5664 426.314 moveto
P$s
fill
0 setlinewidth
[] 0 setdash
0 0 0 setrgbcolor
newpath
429.5718 428.3992 moveto
P$p
429.9907 431.0684 moveto
P$q
fill
0 setlinewidth
[] 0 setdash
0 0 0 setrgbcolor
newpath
433.5249 433.5186 moveto
P$w
436.0894 428.4214 moveto
P$x
fill
0 setlinewidth
[] 0 setdash
0 0 0 setrgbcolor
newpath
450.168 426.3647 moveto
P$l
fill
0 setlinewidth
[] 0 setdash
0 0 0 setrgbcolor
newpath
452.0396 430.8018 moveto
P$1d
fill
0 setlinewidth
[] 0 setdash
0 0 0 setrgbcolor
newpath
456.4902 425.6855 moveto
P$1e
fill
0 setlinewidth
[] 0 setdash
0 0 0 setrgbcolor
newpath
469.5718 428.3992 moveto
P$p
469.9907 431.0684 moveto
P$q
fill
0 setlinewidth
[] 0 setdash
0 0 0 setrgbcolor
newpath
476.5845 428.2119 moveto
P$1f
fill
0 0 0 setrgbcolor
newpath
56.5 463 moveto
-10 4 rlineto
10 4 rlineto
-4 -4 rlineto
56.5 463 lineto
closepath eofill
1.0 setlinewidth
0 0 0 setrgbcolor
newpath
56.5 463 moveto
-10 4 rlineto
10 4 rlineto
-4 -4 rlineto
56.5 463 lineto
closepath stroke
1.0 setlinewidth
0 0 0 setrgbcolor
newpath
50.5 467 moveto
477 0 rlineto
stroke
0 setlinewidth
[] 0 setdash
0 0 0 setrgbcolor
newpath
169.6108 452.6855 moveto
P$1g
fill
0 setlinewidth
[] 0 setdash
0 0 0 setrgbcolor
newpath
181.5718 455.3992 moveto
P$p
181.9907 458.0684 moveto
P$q
fill
0 setlinewidth
[] 0 setdash
0 0 0 setrgbcolor
newpath
184.5664 453.314 moveto
P$s
fill
0 setlinewidth
[] 0 setdash
0 0 0 setrgbcolor
newpath
192.8289 455.5737 moveto
P$r
fill
0 setlinewidth
[] 0 setdash
0 0 0 setrgbcolor
newpath
195.3379 452.6538 moveto
P$18
fill
0 setlinewidth
[] 0 setdash
0 0 0 setrgbcolor
newpath
206.5664 453.314 moveto
P$s
fill
0 setlinewidth
[] 0 setdash
0 0 0 setrgbcolor
newpath
210.3379 452.6538 moveto
P$18
fill
0 setlinewidth
[] 0 setdash
0 0 0 setrgbcolor
newpath
221.5718 455.3992 moveto
P$p
221.9907 458.0684 moveto
P$q
fill
0 setlinewidth
[] 0 setdash
0 0 0 setrgbcolor
newpath
232.8289 455.5737 moveto
P$r
fill
0 setlinewidth
[] 0 setdash
0 0 0 setrgbcolor
newpath
239.594 460.4138 moveto
P$m
240.3018 455.8911 moveto
P$n
fill
0 setlinewidth
[] 0 setdash
0 0 0 setrgbcolor
newpath
242.3379 455.2119 moveto
P$11
fill
0 setlinewidth
[] 0 setdash
0 0 0 setrgbcolor
newpath
250.0171 459.8774 moveto
P$12
fill
0 setlinewidth
[] 0 setdash
0 0 0 setrgbcolor
newpath
257.4805 455.2119 moveto
P$y
fill
0 setlinewidth
[] 0 setdash
0 0 0 setrgbcolor
newpath
263.3379 455.2119 moveto
P$13
fill
0 setlinewidth
[] 0 setdash
0 0 0 setrgbcolor
newpath
278.5369 460.5725 moveto
P$t
274.249 455.2437 moveto
P$u
fill
0 setlinewidth
[] 0 setdash
0 0 0 setrgbcolor
newpath
281.5664 453.314 moveto
P$s
fill
0 setlinewidth
[] 0 setdash
0 0 0 setrgbcolor
newpath
285.3379 455.2437 moveto
P$15
285.3379 452.6855 moveto
P$16
fill
0 setlinewidth
[] 0 setdash
0 0 0 setrgbcolor
newpath
292.594 460.4138 moveto
P$m
293.3018 455.8911 moveto
P$n
fill
0 setlinewidth
[] 0 setdash
0 0 0 setrgbcolor
newpath
295.3379 455.2119 moveto
P$11
fill
0 setlinewidth
[] 0 setdash
0 0 0 setrgbcolor
newpath
310.8289 455.5737 moveto
P$r
fill
0 setlinewidth
[] 0 setdash
0 0 0 setrgbcolor
newpath
313.3696 455.2119 moveto
P$v
fill
0 setlinewidth
[] 0 setdash
0 0 0 setrgbcolor
newpath
321.5718 455.3992 moveto
P$p
321.9907 458.0684 moveto
P$q
fill
0 setlinewidth
[] 0 setdash
0 0 0 setrgbcolor
newpath
325.5249 460.5186 moveto
P$w
328.0894 455.4214 moveto
P$x
fill
0 setlinewidth
[] 0 setdash
0 0 0 setrgbcolor
newpath
335.5718 455.3992 moveto
P$p
335.9907 458.0684 moveto
P$q
fill
0 setlinewidth
[] 0 setdash
0 0 0 setrgbcolor
newpath
338.3379 455.2119 moveto
P$11
fill
0 setlinewidth
[] 0 setdash
0 0 0 setrgbcolor
newpath
345.5664 453.314 moveto
P$s
fill
0 setlinewidth
[] 0 setdash
0 0 0 setrgbcolor
newpath
349.3379 455.2437 moveto
P$15
349.3379 452.6855 moveto
P$16
fill
0 setlinewidth
[] 0 setdash
0 0 0 setrgbcolor
newpath
353.5757 460.9819 moveto
P$z
355.9814 457.8906 moveto
P$10
fill
0 setlinewidth
[] 0 setdash
0 0 0 setrgbcolor
newpath
359.3696 452.6855 moveto
P$o
fill
0 setlinewidth
[] 0 setdash
0 0 0 setrgbcolor
newpath
362.9409 455.3008 moveto
P$1b
362.9409 460.6265 moveto
P$1c
fill
0 setlinewidth
[] 0 setdash
0 0 0 setrgbcolor
newpath
374.0703 460.9312 moveto
P$1u
370.5474 452.6855 moveto
P$1v
fill
0 setlinewidth
[] 0 setdash
0 0 0 setrgbcolor
newpath
379.0396 457.8018 moveto
P$1d
fill
0 setlinewidth
[] 0 setdash
0 0 0 setrgbcolor
newpath
383.4902 452.6855 moveto
P$1e
fill
0 setlinewidth
[] 0 setdash
0 0 0 setrgbcolor
newpath
396.5718 455.3992 moveto
P$p
396.9907 458.0684 moveto
P$q
fill
0 setlinewidth
[] 0 setdash
0 0 0 setrgbcolor
newpath
403.5845 455.2119 moveto
P$1f
fill
0 0 0 setrgbcolor
newpath
516.5 490 moveto
10 4 rlineto
-10 4 rlineto
4 -4 rlineto
516.5 490 lineto
closepath eofill
1.0 setlinewidth
0 0 0 setrgbcolor
newpath
516.5 490 moveto
10 4 rlineto
-10 4 rlineto
4 -4 rlineto
516.5 490 lineto
closepath stroke
1.0 setlinewidth
0 0 0 setrgbcolor
newpath
45.5 494 moveto
119{
2 0 rlineto
2 0 rmoveto
} repeat
1 0 rlineto
stroke
0 setlinewidth
[] 0 setdash
0 0 0 setrgbcolor
newpath
273.5703 487.9312 moveto
P$1u
270.0474 479.6855 moveto
P$1v
fill
0 setlinewidth
[] 0 setdash
0 0 0 setrgbcolor
newpath
278.5396 484.8018 moveto
P$1d
fill
0 setlinewidth
[] 0 setdash
0 0 0 setrgbcolor
newpath
282.9902 479.6855 moveto
P$1e
fill
0 setlinewidth
[] 0 setdash
0 0 0 setrgbcolor
newpath
296.0718 482.3992 moveto
P$p
296.4907 485.0684 moveto
P$q
fill
0 setlinewidth
[] 0 setdash
0 0 0 setrgbcolor
newpath
303.0845 482.2119 moveto
P$1f
fill
1.0 setlinewidth
0 0 0 setrgbcolor
newpath
528.5 521 moveto
10{
2 0 rlineto
2 0 rmoveto
} repeat
2 0 rlineto
stroke
1.0 setlinewidth
0 0 0 setrgbcolor
newpath
570.5 521 moveto
3{
0 2 rlineto
0 2 rmoveto
} repeat
0 1 rlineto
stroke
1.0 setlinewidth
0 0 0 setrgbcolor
newpath
529.5 534 moveto
10{
2 0 rlineto
2 0 rmoveto
} repeat
1 0 rlineto
stroke
0 0 0 setrgbcolor
newpath
539.5 530 moveto
-10 4 rlineto
10 4 rlineto
-4 -4 rlineto
539.5 530 lineto
closepath eofill
1.0 setlinewidth
0 0 0 setrgbcolor
newpath
539.5 530 moveto
-10 4 rlineto
10 4 rlineto
-4 -4 rlineto
539.5 530 lineto
closepath stroke
0 setlinewidth
[] 0 setdash
0 0 0 setrgbcolor
newpath
540.0703 514.9312 moveto
P$1u
536.5474 506.6855 moveto
P$1v
fill
0 setlinewidth
[] 0 setdash
0 0 0 setrgbcolor
newpath
549.5718 509.3992 moveto
P$p
549.9907 512.0684 moveto
P$q
fill
0 setlinewidth
[] 0 setdash
0 0 0 setrgbcolor
newpath
556.8289 509.5737 moveto
P$r
fill
0 setlinewidth
[] 0 setdash
0 0 0 setrgbcolor
newpath
559.3696 509.2119 moveto
P$1j
567.5845 509.2119 moveto
P$1a
fill
0 setlinewidth
[] 0 setdash
0 0 0 setrgbcolor
newpath
574.5369 514.5725 moveto
P$t
570.249 509.2437 moveto
P$u
fill
0 setlinewidth
[] 0 setdash
0 0 0 setrgbcolor
newpath
577.5664 507.314 moveto
P$s
fill
0 setlinewidth
[] 0 setdash
0 0 0 setrgbcolor
newpath
589.0703 514.9312 moveto
P$1u
585.5474 506.6855 moveto
P$1v
fill
0 setlinewidth
[] 0 setdash
0 0 0 setrgbcolor
newpath
594.0396 511.8018 moveto
P$1d
fill
0 setlinewidth
[] 0 setdash
0 0 0 setrgbcolor
newpath
598.4902 506.6855 moveto
P$1e
fill
0 setlinewidth
[] 0 setdash
0 0 0 setrgbcolor
newpath
611.5718 509.3992 moveto
P$p
611.9907 512.0684 moveto
P$q
fill
0 setlinewidth
[] 0 setdash
0 0 0 setrgbcolor
newpath
618.5845 509.2119 moveto
P$1a
fill
0 setlinewidth
[] 0 setdash
0 0 0 setrgbcolor
newpath
626.4805 509.2119 moveto
P$y
fill
0 setlinewidth
[] 0 setdash
0 0 0 setrgbcolor
newpath
633.0171 513.8774 moveto
P$12
fill
0 setlinewidth
[] 0 setdash
0 0 0 setrgbcolor
newpath
639.3379 509.2437 moveto
P$15
639.3379 506.6855 moveto
P$16
fill
0 setlinewidth
[] 0 setdash
0 0 0 setrgbcolor
newpath
642.3379 509.2119 moveto
P$11
fill
0 setlinewidth
[] 0 setdash
0 0 0 setrgbcolor
newpath
653.1338 509.4849 moveto
P$1r
653.2734 510.71 moveto
P$1s
fill
0 setlinewidth
[] 0 setdash
0 0 0 setrgbcolor
newpath
664.5369 514.5725 moveto
P$t
660.249 509.2437 moveto
P$u
fill
0 setlinewidth
[] 0 setdash
0 0 0 setrgbcolor
newpath
667.3696 509.2119 moveto
P$v
fill
0 setlinewidth
[] 0 setdash
0 0 0 setrgbcolor
newpath
671.3379 509.2437 moveto
P$15
671.3379 506.6855 moveto
P$16
fill
0 setlinewidth
[] 0 setdash
0 0 0 setrgbcolor
newpath
674.8965 509.2119 moveto
P$1z
fill
0 setlinewidth
[] 0 setdash
0 0 0 setrgbcolor
newpath
682.5757 514.9819 moveto
P$z
684.9814 511.8906 moveto
P$10
fill
0 setlinewidth
[] 0 setdash
0 0 0 setrgbcolor
newpath
688.5664 507.314 moveto
P$s
fill
0 setlinewidth
[] 0 setdash
0 0 0 setrgbcolor
newpath
696.5718 509.3992 moveto
P$p
696.9907 512.0684 moveto
P$q
fill
0 setlinewidth
[] 0 setdash
0 0 0 setrgbcolor
newpath
703.3125 506.6855 moveto
P$19
fill
0 setlinewidth
[] 0 setdash
0 0 0 setrgbcolor
newpath
714.5718 509.3992 moveto
P$p
714.9907 512.0684 moveto
P$q
fill
0 setlinewidth
[] 0 setdash
0 0 0 setrgbcolor
newpath
721.5845 509.2119 moveto
P$1f
fill
1.0 setlinewidth
0 0 0 setrgbcolor
newpath
528.5 561 moveto
10{
2 0 rlineto
2 0 rmoveto
} repeat
2 0 rlineto
stroke
1.0 setlinewidth
0 0 0 setrgbcolor
newpath
570.5 561 moveto
3{
0 2 rlineto
0 2 rmoveto
} repeat
0 1 rlineto
stroke
1.0 setlinewidth
0 0 0 setrgbcolor
newpath
529.5 574 moveto
10{
2 0 rlineto
2 0 rmoveto
} repeat
1 0 rlineto
stroke
0 0 0 setrgbcolor
newpath
539.5 570 moveto
-10 4 rlineto
10 4 rlineto
-4 -4 rlineto
539.5 570 lineto
closepath eofill
1.0 setlinewidth
0 0 0 setrgbcolor
newpath
539.5 570 moveto
-10 4 rlineto
10 4 rlineto
-4 -4 rlineto
539.5 570 lineto
closepath stroke
0 setlinewidth
[] 0 setdash
0 0 0 setrgbcolor
newpath
540.0703 554.9312 moveto
P$1u
536.5474 546.6855 moveto
P$1v
fill
0 setlinewidth
[] 0 setdash
0 0 0 setrgbcolor
newpath
549.5718 549.3992 moveto
P$p
549.9907 552.0684 moveto
P$q
fill
0 setlinewidth
[] 0 setdash
0 0 0 setrgbcolor
newpath
556.8289 549.5737 moveto
P$r
fill
0 setlinewidth
[] 0 setdash
0 0 0 setrgbcolor
newpath
559.3696 549.2119 moveto
P$1j
567.5845 549.2119 moveto
P$1a
fill
0 setlinewidth
[] 0 setdash
0 0 0 setrgbcolor
newpath
574.5369 554.5725 moveto
P$t
570.249 549.2437 moveto
P$u
fill
0 setlinewidth
[] 0 setdash
0 0 0 setrgbcolor
newpath
577.5664 547.314 moveto
P$s
fill
0 setlinewidth
[] 0 setdash
0 0 0 setrgbcolor
newpath
592.168 547.3647 moveto
P$l
fill
0 setlinewidth
[] 0 setdash
0 0 0 setrgbcolor
newpath
594.0396 551.8018 moveto
P$1d
fill
0 setlinewidth
[] 0 setdash
0 0 0 setrgbcolor
newpath
598.4902 546.6855 moveto
P$1e
fill
0 setlinewidth
[] 0 setdash
0 0 0 setrgbcolor
newpath
611.5718 549.3992 moveto
P$p
611.9907 552.0684 moveto
P$q
fill
0 setlinewidth
[] 0 setdash
0 0 0 setrgbcolor
newpath
618.5845 549.2119 moveto
P$1a
fill
0 setlinewidth
[] 0 setdash
0 0 0 setrgbcolor
newpath
626.4805 549.2119 moveto
P$y
fill
0 setlinewidth
[] 0 setdash
0 0 0 setrgbcolor
newpath
633.0171 553.8774 moveto
P$12
fill
0 setlinewidth
[] 0 setdash
0 0 0 setrgbcolor
newpath
639.3379 549.2437 moveto
P$15
639.3379 546.6855 moveto
P$16
fill
0 setlinewidth
[] 0 setdash
0 0 0 setrgbcolor
newpath
642.3379 549.2119 moveto
P$11
fill
0 setlinewidth
[] 0 setdash
0 0 0 setrgbcolor
newpath
653.1338 549.4849 moveto
P$1r
653.2734 550.71 moveto
P$1s
fill
0 setlinewidth
[] 0 setdash
0 0 0 setrgbcolor
newpath
664.0703 554.9312 moveto
P$1u
660.5474 546.6855 moveto
P$1v
fill
0 setlinewidth
[] 0 setdash
0 0 0 setrgbcolor
newpath
669.0396 551.8018 moveto
P$1d
fill
0 setlinewidth
[] 0 setdash
0 0 0 setrgbcolor
newpath
673.4902 546.6855 moveto
P$1e
fill
0 setlinewidth
[] 0 setdash
0 0 0 setrgbcolor
newpath
686.5718 549.3992 moveto
P$p
686.9907 552.0684 moveto
P$q
fill
0 setlinewidth
[] 0 setdash
0 0 0 setrgbcolor
newpath
693.5845 549.2119 moveto
P$1f
fill
1.0 setlinewidth
0 0 0 setrgbcolor
newpath
528.5 601 moveto
10{
2 0 rlineto
2 0 rmoveto
} repeat
2 0 rlineto
stroke
1.0 setlinewidth
0 0 0 setrgbcolor
newpath
570.5 601 moveto
3{
0 2 rlineto
0 2 rmoveto
} repeat
0 1 rlineto
stroke
1.0 setlinewidth
0 0 0 setrgbcolor
newpath
529.5 614 moveto
10{
2 0 rlineto
2 0 rmoveto
} repeat
1 0 rlineto
stroke
0 0 0 setrgbcolor
newpath
539.5 610 moveto
-10 4 rlineto
10 4 rlineto
-4 -4 rlineto
539.5 610 lineto
closepath eofill
1.0 setlinewidth
0 0 0 setrgbcolor
newpath
539.5 610 moveto
-10 4 rlineto
10 4 rlineto
-4 -4 rlineto
539.5 610 lineto
closepath stroke
0 setlinewidth
[] 0 setdash
0 0 0 setrgbcolor
newpath
540.0703 594.9312 moveto
P$1u
536.5474 586.6855 moveto
P$1v
fill
0 setlinewidth
[] 0 setdash
0 0 0 setrgbcolor
newpath
549.5718 589.3992 moveto
P$p
549.9907 592.0684 moveto
P$q
fill
0 setlinewidth
[] 0 setdash
0 0 0 setrgbcolor
newpath
556.8289 589.5737 moveto
P$r
fill
0 setlinewidth
[] 0 setdash
0 0 0 setrgbcolor
newpath
559.3696 589.2119 moveto
P$1j
567.5845 589.2119 moveto
P$1a
fill
0 setlinewidth
[] 0 setdash
0 0 0 setrgbcolor
newpath
574.5369 594.5725 moveto
P$t
570.249 589.2437 moveto
P$u
fill
0 setlinewidth
[] 0 setdash
0 0 0 setrgbcolor
newpath
577.5664 587.314 moveto
P$s
fill
0 setlinewidth
[] 0 setdash
0 0 0 setrgbcolor
newpath
586.5249 594.5186 moveto
P$w
589.0894 589.4214 moveto
P$x
fill
0 setlinewidth
[] 0 setdash
0 0 0 setrgbcolor
newpath
593.5757 594.9819 moveto
P$z
595.9814 591.8906 moveto
P$10
fill
0 setlinewidth
[] 0 setdash
0 0 0 setrgbcolor
newpath
599.5664 587.314 moveto
P$s
fill
0 setlinewidth
[] 0 setdash
0 0 0 setrgbcolor
newpath
604.5757 594.9819 moveto
P$z
606.9814 591.8906 moveto
P$10
fill
0 setlinewidth
[] 0 setdash
0 0 0 setrgbcolor
newpath
615.4805 589.2119 moveto
P$y
fill
0 setlinewidth
[] 0 setdash
0 0 0 setrgbcolor
newpath
622.0171 593.8774 moveto
P$12
fill
0 setlinewidth
[] 0 setdash
0 0 0 setrgbcolor
newpath
628.3379 589.2437 moveto
P$15
628.3379 586.6855 moveto
P$16
fill
0 setlinewidth
[] 0 setdash
0 0 0 setrgbcolor
newpath
631.3379 589.2119 moveto
P$11
fill
0 setlinewidth
[] 0 setdash
0 0 0 setrgbcolor
newpath
642.1338 589.4849 moveto
P$1r
642.2734 590.71 moveto
P$1s
fill
0 setlinewidth
[] 0 setdash
0 0 0 setrgbcolor
newpath
656.168 587.3647 moveto
P$l
fill
0 setlinewidth
[] 0 setdash
0 0 0 setrgbcolor
newpath
658.0396 591.8018 moveto
P$1d
fill
0 setlinewidth
[] 0 setdash
0 0 0 setrgbcolor
newpath
662.4902 586.6855 moveto
P$1e
fill
0 setlinewidth
[] 0 setdash
0 0 0 setrgbcolor
newpath
675.5718 589.3992 moveto
P$p
675.9907 592.0684 moveto
P$q
fill
0 setlinewidth
[] 0 setdash
0 0 0 setrgbcolor
newpath
682.5845 589.2119 moveto
P$1f
fill
grestore
showpage
%plantuml done
%%EOF
