%!PS-Adobe-3.0 EPSF-3.0
%%BoundingBox: 0 0 335 174
%%Creator: yExport 1.5
%%Producer: org.freehep.graphicsio.ps.EPSGraphics2D Revision: 12753 
%%For: 
%%Title: 
%%CreationDate: Friday, June 23, 2017 1:23:01 PM CDT
%%LanguageLevel: 3
%%EndComments
%%BeginProlog
100 dict dup begin

%
% File: org/freehep/graphicsio.ps/PSProlog.txt
% Author: Charles Loomis
%

% Redefinitions which save some space in the output file.  These are also
% the same as the PDF operators.
/q {gsave} def
/Q {grestore} def

/n {newpath} def
/m {moveto} def
/l {lineto} def
/c {curveto} def
/h {closepath} def

/re {4 -2 roll moveto
     dup 0 exch rlineto exch 0 rlineto
     neg 0 exch rlineto closepath} def

/f {fill} def
/f* {eofill} def
/F {gsave vg&FC fill grestore} def
/F* {gsave vg&FC eofill grestore} def

/s {closepath stroke} def
/S {stroke} def

/b {closepath gsave vg&FC fill grestore
    gsave stroke grestore newpath} def
/B {gsave vg&FC fill grestore gsave stroke grestore newpath} def
/b* {closepath gsave vg&FC eofill grestore
    gsave stroke grestore newpath} def
/B* {gsave vg&FC eofill grestore gsave stroke grestore newpath} def

/g {1 array astore /vg&fcolor exch def} def
/G {setgray} def
/k {4 array astore /vg&fcolor exch def} def
/K {setcmykcolor} def
/rg {3 array astore /vg&fcolor exch def} def
/RG {setrgbcolor} def

% Initialize the fill color.
0 0 0 rg

/vg&FC {mark vg&fcolor aload pop
        counttomark 1 eq {G} if
        counttomark 3 eq {RG} if
        counttomark 4 eq {K} if
        cleartomark } def

/vg&DFC {/vg&fcolor exch def} def

/vg&C {mark exch aload pop
       counttomark 1 eq {G} if
       counttomark 3 eq {RG} if
       counttomark 4 eq {K} if
       cleartomark } def

/w {setlinewidth} def
/j {setlinejoin} def
/J {setlinecap} def
/M {setmiterlimit} def
/d {setdash} def
/i {setflat} def

/W {clip} def
/W* {eoclip} def

% Setup the default graphics state.
% (black; 1 pt. linewidth; miter join; butt-ends; solid)
/defaultGraphicsState {0 g 1 w 0 j 0 J [] 0 d} def

% Emulation of the rectangle operators for PostScript implementations
% which do not implement all Level 2 features.  This is an INCOMPLETE
% emulation; only the "x y width height rect..." form is emulated.
/*rf {gsave newpath re fill grestore} def
/*rs {gsave newpath re stroke grestore} def
/*rc {newpath re clip} def
/rf  /rectfill where {pop /rectfill}{/*rf} ifelse load def
/rs  /rectstroke where {pop /rectstroke}{/*rs} ifelse load def
/rc  /rectclip where {pop /rectclip}{/*rc} ifelse load def

% Emulation of the selectfont operator.  This includes a 20% increase in
% the fontsize which is necessary to get sizes similar to the Java fonts.
/*sf {exch findfont exch
      dup type /arraytype eq {makefont}{scalefont} ifelse setfont} bind def
/sf /selectfont where {pop {1.2 mul selectfont}}{{1.2 mul *sf}} ifelse def

% Special version of stroke which allows the dash pattern to continue
% across path segments.  (This may be needed for PostScript although
% modern printers seem to do this correctly.)
/vg&stroke {
  currentdash pop length 0 eq
  {stroke}
  {
    currentdash /vg&doffset exch def pop
    flattenpath
    {m vg&resetdash}
    {2 copy
     currentpoint
     3 -1 roll sub dup mul
     3 1 roll sub dup mul
     add sqrt
     3 1 roll l
     currentdash 3 -1 roll add setdash}
     {}
     {h vg&resetdash}
     pathforall
     stroke
     vg&resetdash
  } ifelse
} def
/vg&resetdash {currentdash pop vg&doffset setdash} def

% Initialize variables for safety.
/delta 0 def
/xv 0 def  /yv 0 def  /width 0 def  /height 0 def

% Initialize to portrait INTERNATIONAL (Letter-height, A4-width) page.
/pw 595 def  /ph 791  def  /po true def /ftp false def

% Initialize margins to 20 points.
/ml 20 def  /mr 20 def  /mt 20 def  /mb 20 def

% Temporary matrices.
/smatrix 0 def  /nmatrix 0 def

% set page size (usage: <page width><page height> setpagesize)
/setpagesize {/ph exch def /pw exch def} def

% set page orientation (usage: portrait or landscape)
/portrait {/po true def} def
/landscape {/po false def} def

% force natural size for image (usage: naturalsize)
/naturalsize {/ftp false def} def

% resize image to fill page (usage: fittopage)
/fittopage {/ftp true def} def

% set margins of the page (usage: <left><bottom><top><right> setmargins)
/setmargins {/mr exch def /mt exch def /mb exch def /ml exch def} def

% set the graphic's size (usage: <width><height> setsize)
/setsize {/gh exch def /gw exch def} def

% set the graphic's origin (usage: <x0><y0> setorigin)
/setorigin {/gy exch def /gx exch def} def

% calculate image center
/imagecenter {pw ml sub mr sub 2 div ml add
              ph mt sub mb sub 2 div mb add} def

% calculate the necessary scaling
/imagescale {po {gw}{gh} ifelse pw ml sub mr sub div
             po {gh}{gw} ifelse ph mt sub mb sub div
             2 copy lt {exch} if pop
             ftp not {1 2 copy lt {exch} if pop} if
             1 exch div /sfactor exch def
             /gw gw sfactor mul def /gh gh sfactor mul def} def

% calculate image origin
/imageorigin {pw ml sub mr sub 2 div ml add
              po {gw}{gh} ifelse 2 div sub
              ph mt sub mb sub 2 div mb add
              po {gh}{gw} ifelse 2 div po {add}{sub} ifelse} def

% calculate the clipping origin
/cliporigin  {pw ml sub mr sub 2 div ml add
              po {gw}{gh} ifelse 2 div sub floor
              ph mt sub mb sub 2 div mb add
              po {gh}{gw} ifelse 2 div sub floor} def

% Set the clipping region to the bounding box.
/cliptobounds {cliporigin po {gw}{gh} ifelse 1 add
                          po {gh}{gw} ifelse 1 add rc} def

% set the base transformation matrix (usage: setbasematrix)
/setbasematrix {imageorigin translate
                po {0}{90} ifelse rotate
                sfactor sfactor neg scale
                /defaultmatrix matrix currentmatrix def} def

% The lower-right bias in drawing 1 pt. wide lines.
/bias  {q 0.5 0.5 translate} def
/unbias {Q} def

% Define the composite fonts used to print Unicode strings.
% Undefine particular values in an encoding array.
/vg&undef { {exch dup 3 -1 roll /.notdef put} forall } def
/vg&redef { {3 -1 roll dup 4 2 roll put} forall } def

% usage: key encoding basefontname vg&newbasefont font
/vg&newbasefont {
findfont dup length dict copy
  begin
    currentdict /FID undef
    /Encoding exch def
    dup /FontName exch def
    currentdict
  end
definefont
} def

% usage: key encoding basefontname vg&newskewedbasefont font
/vg&newskewedbasefont {
findfont dup length dict copy
  begin
    currentdict /FID undef
    /Encoding exch def
    dup /FontName exch def
    exch FontMatrix exch matrix concatmatrix /FontMatrix exch def
    currentdict
  end
definefont
} def

% usage: basekey suffix vg&nconcat name
/vg&nconcat {
  2 {dup length string cvs exch} repeat
  dup length 3 -1 roll dup length 3 -1 roll add string
  dup 0 4 -1 roll dup length 5 1 roll putinterval
  dup 4 -2 roll exch putinterval cvn
} def

%usage: fontname vg&skewmatrix matrix
/vg&skewmatrix {
findfont dup /FontInfo known
  {
    /FontInfo get dup /ItalicAngle known
    {
      [ 1 0 4 -1 roll /ItalicAngle get neg dup sin exch cos div 1 0 0 ]
    }
    {pop matrix} ifelse
  }
  {pop matrix} ifelse
} def

% usage: newfontname basefontname vg&newcompositefont --
/vg&newcompositefont {
/vg&fstyle exch def
/vg&bfont exch def
/vg&fname exch def
<<
/FontStyleBits vg&fstyle
/FontType 0
/FontMatrix matrix
/FontName vg&fname
/FMapType 2
/Encoding [ 0 1 255 {pop 6} for ]
          dup 16#00 0 put % Latin
          dup 16#03 1 put % Greek
          dup 16#20 2 put % Punctuation
          dup 16#21 3 put % Arrows
          dup 16#22 4 put % MathOps
          dup 16#27 5 put % Dingbats

/FDepVector [
vg&bfont /-UC-Latin vg&nconcat UCLatinEncoding
vg&bfont vg&newbasefont

vg&bfont vg&skewmatrix
vg&bfont /-UC-Greek vg&nconcat UCGreekEncoding
/Symbol vg&newskewedbasefont

vg&bfont /-UC-Punctuation vg&nconcat UCPunctuationEncoding
vg&bfont vg&newbasefont

/Arrows-UC findfont
/MathOps-UC findfont
/Dingbats-UC findfont
/Undefined-UC findfont ]
>>
vg&fname exch definefont pop
} def

% Null encoding vector (all elements set to .notdef)
/NullEncoding [ 256 {/.notdef} repeat ] def

% Unicode Latin encoding (unicode codes \u0000-\u00ff)
/UCLatinEncoding
  ISOLatin1Encoding dup length array copy
  dup 16#60 /grave put
  [ 16#90 16#91 16#92 16#93 16#94 16#95 16#96
    16#97 16#98 16#9a 16#9b 16#9d 16#9e 16#9f
  ] vg&undef
  def

% Unicode Greek encoding (unicode codes \u0370-\u03ff)
/UCGreekEncoding
  NullEncoding dup length array copy
  << 16#91 /Alpha    16#92 /Beta      16#93 /Gamma    16#94 /Delta
     16#95 /Epsilon  16#96 /Zeta      16#97 /Eta      16#98 /Theta
     16#99 /Iota     16#9a /Kappa     16#9b /Lambda   16#9c /Mu
     16#9d /Nu       16#9e /Xi        16#9f /Omicron  16#a0 /Pi
     16#a1 /Rho      16#a3 /Sigma     16#a4 /Tau      16#a5 /Upsilon
     16#a6 /Phi      16#a7 /Chi       16#a8 /Psi      16#a9 /Omega
     16#b1 /alpha    16#b2 /beta      16#b3 /gamma    16#b4 /delta
     16#b5 /epsilon  16#b6 /zeta      16#b7 /eta      16#b8 /theta
     16#b9 /iota     16#ba /kappa     16#bb /lambda   16#bc /mu
     16#bd /nu       16#be /xi        16#bf /omicron  16#c0 /pi
     16#c1 /rho      16#c2 /sigma1    16#c3 /sigma    16#c4 /tau
     16#c5 /upsilon  16#c6 /phi1      16#c7 /chi      16#c8 /psi
     16#c9 /omega    16#7e /semicolon 16#87 /dotmath  16#d1 /theta1
     16#d2 /Upsilon1 16#d5 /phi       16#d6 /omega1
  >> vg&redef
  def

% Unicode punctuation encoding (unicode codes \u2000-\u206f)
/UCPunctuationEncoding
  NullEncoding dup length array copy
  << 16#10 /hyphen          16#11 /hyphen              16#12 /endash
     16#13 /emdash          16#18 /quoteleft           16#19 /quoteright
     16#1a /quotesinglbase  16#1b /quotesingle         16#1c /quotedblleft
     16#1d /quotedblright   16#1e /quotedblbase        16#1f /quotedbl
     16#20 /dagger          16#21 /daggerdbl           16#22 /bullet
     16#24 /period          16#26 /ellipsis            16#27 /periodcentered
     16#30 /perthousand     16#44 /fraction
     16#70 /zerosuperior    16#74 /foursuperior        16#75 /fivesuperior
     16#76 /sixsuperior     16#77 /sevensuperior       16#78 /eightsuperior
     16#79 /ninesuperior    16#7b /hyphensuperior      16#7d /parenleftsuperior
     16#7e /parenrightsuperior
     16#80 /zeroinferior    16#84 /fourinferior        16#85 /fiveinferior
     16#81 /oneinferior     16#82 /twoinferior         16#83 /threeinferior
     16#86 /sixinferior     16#87 /seveninferior       16#88 /eightinferior
     16#89 /nineinferior    16#8b /hypheninferior      16#8d /parenleftinferior
     16#8e /parenrightinferior
  >> vg&redef
  def

% Unicode mathematical operators encoding (unicode codes \u2200-\u22ff)
/UCMathOpsEncoding
  NullEncoding dup length array copy
  << 16#00 /universal       16#02 /partialdiff         16#03 /existential
     16#05 /emptyset        16#06 /Delta               16#07 /gradient
     16#08 /element         16#09 /notelement          16#0b /suchthat
     16#0f /product         16#11 /summation           16#12 /minus
     16#15 /fraction        16#17 /asteriskmath        16#19 /bullet
     16#1a /radical         16#1d /proportional        16#1e /infinity
     16#20 /angle           16#23 /bar                 16#27 /logicaland
     16#28 /logicalor       16#29 /intersection        16#2a /union
     16#2b /integral        16#34 /therefore           16#36 /colon
     16#3c /similar         16#45 /congruent           16#48 /approxequal
     16#60 /notequal        16#61 /equivalence         16#64 /lessequal
     16#65 /greaterequal    16#82 /propersubset        16#83 /propersuperset
     16#86 /reflexsubset    16#87 /reflexsuperset      16#95 /circleplus
     16#97 /circlemultiply  16#a5 /perpendicular       16#03 /existential
     16#c0 /logicaland      16#c1 /logicalor           16#c2 /intersection
     16#c3 /union           16#c4 /diamond             16#c5 /dotmath
  >> vg&redef
  def

% Unicode arrows encoding (unicode codes \u2190-\u21ff)
% Also includes those "Letterlike" unicode characters
% which are available in the symbol font. (unicode codes \u2100-\u214f)
/UCArrowsEncoding
  NullEncoding dup length array copy
  << 16#11 /Ifraktur        16#1c /Rfraktur            16#22 /trademarkserif
     16#35 /aleph
     16#90 /arrowleft       16#91 /arrowup             16#92 /arrowright
     16#93 /arrowdown       16#94 /arrowboth           16#d0 /arrowdblleft
     16#d1 /arrowdblup      16#d2 /arrowdblright       16#d3 /arrowdbldown
     16#d4 /arrowdblboth
  >> vg&redef
  def

/ZapfDingbats findfont /Encoding get
dup length array copy /UCDingbatsEncoding exch def
16#20 1 16#7f {
  dup 16#20 sub exch
  UCDingbatsEncoding exch get
  UCDingbatsEncoding 3 1 roll put
} for
16#a0 1 16#ff {
  dup 16#40 sub exch
  UCDingbatsEncoding exch get
  UCDingbatsEncoding 3 1 roll put
} for
UCDingbatsEncoding [ 16#c0 1 16#ff {} for ] vg&undef
[ 16#00  16#05 16#0a 16#0b  16#28 16#4c 16#4e  16#53 16#54 16#55  16#57 16#5f
  16#60  16#68 16#69 16#6a  16#6b 16#6c 16#6d  16#6e 16#6f 16#70  16#71 16#72
  16#73  16#74 16#75 16#95  16#96 16#97 16#b0  16#bf
] vg&undef pop

% Define the base fonts which don't change.
/Undefined-UC NullEncoding       /Helvetica    vg&newbasefont pop
/MathOps-UC   UCMathOpsEncoding  /Symbol       vg&newbasefont pop
/Arrows-UC    UCArrowsEncoding   /Symbol       vg&newbasefont pop
/Dingbats-UC  UCDingbatsEncoding /ZapfDingbats vg&newbasefont pop

% Make the SansSerif composite fonts.
/SansSerif /Helvetica 16#00 vg&newcompositefont
/SansSerif-Bold /Helvetica-Bold 16#01 vg&newcompositefont
/SansSerif-Italic /Helvetica-Oblique 16#02 vg&newcompositefont
/SansSerif-BoldItalic /Helvetica-BoldOblique 16#03 vg&newcompositefont

% Make the Serif composite fonts.
/Serif /Times-Roman 16#00 vg&newcompositefont
/Serif-Bold /Times-Bold 16#01 vg&newcompositefont
/Serif-Italic /Times-Italic 16#02 vg&newcompositefont
/Serif-BoldItalic /Times-BoldItalic 16#03 vg&newcompositefont

% Make the Monospaced composite fonts.
/Monospaced /Courier 16#00 vg&newcompositefont
/Monospaced-Bold /Courier-Bold 16#01 vg&newcompositefont
/Monospaced-Italic /Courier-Oblique 16#02 vg&newcompositefont
/Monospaced-BoldItalic /Courier-BoldOblique 16#03 vg&newcompositefont

% Make the Dialog composite fonts.
/Dialog /Helvetica 16#00 vg&newcompositefont
/Dialog-Bold /Helvetica-Bold 16#01 vg&newcompositefont
/Dialog-Italic /Helvetica-Oblique 16#02 vg&newcompositefont
/Dialog-BoldItalic /Helvetica-BoldOblique 16#03 vg&newcompositefont

% Make the DialogInput composite fonts.
/DialogInput /Courier 16#00 vg&newcompositefont
/DialogInput-Bold /Courier-Bold 16#01 vg&newcompositefont
/DialogInput-Italic /Courier-Oblique 16#02 vg&newcompositefont
/DialogInput-BoldItalic /Courier-BoldOblique 16#03 vg&newcompositefont

% Make the Typewriter composite fonts (JDK 1.1 only).
/Typewriter /Courier 16#00 vg&newcompositefont
/Typewriter-Bold /Courier-Bold 16#01 vg&newcompositefont
/Typewriter-Italic /Courier-Oblique 16#02 vg&newcompositefont
/Typewriter-BoldItalic /Courier-BoldOblique 16#03 vg&newcompositefont


/cfontH {
 dup /fontsize exch def /SansSerif exch sf
 /vg&fontstyles [{cfontH} {cfontHB} {cfontHI} {cfontHBI}] def
} def
/cfontHB {
  dup /fontsize exch def /SansSerif-Bold exch sf
 /vg&fontstyles [{cfontH} {cfontHB} {cfontHI} {cfontHBI}] def
} def
/cfontHI {
 dup /fontsize exch def /SansSerif-Italic exch sf
 /vg&fontstyles [{cfontH} {cfontHB} {cfontHI} {cfontHBI}] def
} def
/cfontHBI {
 dup /fontsize exch def /SansSerif-BoldItalic exch sf
 /vg&fontstyles [{cfontH} {cfontHB} {cfontHI} {cfontHBI}] def
} def

/cfontT {
 dup /fontsize exch def /Serif exch sf
 /vg&fontstyles [{cfontT} {cfontTB} {cfontTI} {cfontTBI}] def
} def
/cfontTB {
 dup /fontsize exch def /Serif-Bold exch sf
 /vg&fontstyles [{cfontT} {cfontTB} {cfontTI} {cfontTBI}] def
} def
/cfontTI {
 dup /fontsize exch def /Serif-Italic exch sf
 /vg&fontstyles [{cfontT} {cfontTB} {cfontTI} {cfontTBI}] def
} def
/cfontTBI {
 dup /fontsize exch def /Serif-BoldItalic exch sf
 /vg&fontstyles [{cfontT} {cfontTB} {cfontTI} {cfontTBI}] def
} def

/cfontC {
 dup /fontsize exch def /Typewriter exch sf
 /vg&fontstyles [{cfontC} {cfontCB} {cfontCI} {cfontCBI}] def
} def
/cfontCB {
 dup /fontsize exch def /Typewriter-Bold exch sf
 /vg&fontstyles [{cfontC} {cfontCB} {cfontCI} {cfontCBI}] def
} def
/cfontCI {
 dup /fontsize exch def /Typewriter-Italic exch sf
 /vg&fontstyles [{cfontC} {cfontCB} {cfontCI} {cfontCBI}] def
} def
/cfontCBI {
 dup /fontsize exch def /Typewriter-BoldItalic exch sf
 /vg&fontstyles [{cfontC} {cfontCB} {cfontCI} {cfontCBI}] def
} def

% Darken or lighten the current color.
/darken {0.7 exch exp 3 copy
         q 4 -1 roll vg&C
         currentrgbcolor 3 {4 -2 roll mul} repeat
         3 array astore Q} def

/displayColorMap
<< /Cr   [1.00 0.00 0.00]       /Cg     [0.00 1.00 0.00]
   /Cb   [0.00 0.00 1.00]       /Cc     [1.00 0.00 0.00 0.00]
   /Cm   [0.00 1.00 0.00 0.00]  /Cy     [0.00 0.00 1.00 0.00]
   /Co   [1.00 0.78 0.00]       /Cp     [1.00 0.67 0.67]
   /Cw   [1   ]                 /Cgrl   [0.75]
   /Cgr  [0.50]                 /Cgrd   [0.25]
   /Ck   [0   ]
   /CGr  [1.00 0.00 0.00]       /CGg    [0.00 1.00 0.00]
   /CGb  [0.00 0.00 1.00]       /CGc    [1.00 0.00 0.00 0.00]
   /CGm  [0.00 1.00 0.00 0.00]  /CGy    [0.00 0.00 1.00 0.00]
   /CGo  [1.00 0.78 0.00]       /CGp    [1.00 0.67 0.67]
   /CGw  [1   ]                 /CGgrl  [0.75]
   /CGgr [0.50]                 /CGgrd  [0.25]
   /CGk  [0   ]
   /CIr  [1.00 0.00 0.00]       /CIg    [0.00 1.00 0.00]
   /CIb  [0.00 0.00 1.00]       /CIc    [1.00 0.00 0.00 0.00]
   /CIm  [0.00 1.00 0.00 0.00]  /CIy    [0.00 0.00 1.00 0.00]
   /CIo  [1.00 0.78 0.00]       /CIp    [1.00 0.67 0.67]
   /CIw  [1   ]                 /CIgrl  [0.75]
   /CIgr [0.50]                 /CIgrd  [0.25]
   /CIk  [0   ]
>> def

/printColorMap
<< /Cr   [1.00 0.33 0.33]       /Cg     [0.33 1.00 0.33]
   /Cb   [0.33 0.33 1.00]       /Cc     [1.00 0.00 0.00 0.00]
   /Cm   [0.00 1.00 0.00 0.00]  /Cy     [0.00 0.00 1.00 0.00]
   /Co   [1.00 0.78 0.00]       /Cp     [1.00 0.67 0.67]
   /Cw   [1   ]                 /Cgrl   [0.75]
   /Cgr  [0.50]                 /Cgrd   [0.25]
   /Ck   [0   ]
   /CGr  [1.00 0.33 0.33]       /CGg    [0.33 1.00 0.33]
   /CGb  [0.33 0.33 1.00]       /CGc    [1.00 0.00 0.00 0.00]
   /CGm  [0.00 1.00 0.00 0.00]  /CGy    [0.00 0.00 1.00 0.00]
   /CGo  [1.00 0.78 0.00]       /CGp    [1.00 0.67 0.67]
   /CGw  [1   ]                 /CGgrl  [0.75]
   /CGgr [0.50]                 /CGgrd  [0.25]
   /CGk  [0   ]
   /CIr  [1.00 0.33 0.33]       /CIg    [0.33 1.00 0.33]
   /CIb  [0.33 0.33 1.00]       /CIc    [1.00 0.00 0.00 0.00]
   /CIm  [0.00 1.00 0.00 0.00]  /CIy    [0.00 0.00 1.00 0.00]
   /CIo  [1.00 0.78 0.00]       /CIp    [1.00 0.67 0.67]
   /CIw  [1   ]                 /CIgrl  [0.75]
   /CIgr [0.50]                 /CIgrd  [0.25]
   /CIk  [0   ]
>> def

/grayColorMap
<< /Cr   [0   ]                 /Cg     [0   ]
   /Cb   [0   ]                 /Cc     [0   ]
   /Cm   [0   ]                 /Cy     [0   ]
   /Co   [0   ]                 /Cp     [0   ]
   /Cw   [0   ]                 /Cgrl   [0   ]
   /Cgr  [0   ]                 /Cgrd   [0   ]
   /Ck   [0   ]
   /CGr  [0.75]                 /CGg    [1   ]
   /CGb  [0.50]                 /CGc    [0.75]
   /CGm  [0.50]                 /CGy    [1   ]
   /CGo  [0.75]                 /CGp    [1   ]
   /CGw  [0   ]                 /CGgrl  [0.25]
   /CGgr [0.50]                 /CGgrd  [0.75]
   /CGk  [1   ]
   /CIr  [1   ]                 /CIg    [1   ]
   /CIb  [1   ]                 /CIc    [1   ]
   /CIm  [1   ]                 /CIy    [1   ]
   /CIo  [1   ]                 /CIp    [1   ]
   /CIw  [1   ]                 /CIgrl  [1   ]
   /CIgr [1   ]                 /CIgrd  [1   ]
   /CIk  [1   ]
>> def

/bwColorMap
<< /Cr   [0   ]                 /Cg     [0   ]
   /Cb   [0   ]                 /Cc     [0   ]
   /Cm   [0   ]                 /Cy     [0   ]
   /Co   [0   ]                 /Cp     [0   ]
   /Cw   [0   ]                 /Cgrl   [0   ]
   /Cgr  [0   ]                 /Cgrd   [0   ]
   /Ck   [0   ]
   /CGr  [1   ]                 /CGg    [1   ]
   /CGb  [1   ]                 /CGc    [1   ]
   /CGm  [1   ]                 /CGy    [1   ]
   /CGo  [1   ]                 /CGp    [1   ]
   /CGw  [0   ]                 /CGgrl  [1   ]
   /CGgr [1   ]                 /CGgrd  [1   ]
   /CGk  [1   ]
   /CIr  [1   ]                 /CIg    [1   ]
   /CIb  [1   ]                 /CIc    [1   ]
   /CIm  [1   ]                 /CIy    [1   ]
   /CIo  [1   ]                 /CIp    [1   ]
   /CIw  [1   ]                 /CIgrl  [1   ]
   /CIgr [1   ]                 /CIgrd  [1   ]
   /CIk  [1   ]
>> def

%
% The following routines handle the alignment of and printing of
% tagged strings.
%

% Predefine the bounding box values.
/bbllx 0 def /bblly 0 def /bburx 0 def /bbury 0 def

% This routine pops the first unicode character off of a string and returns
% the remainder of the string, the character code of first character,
% and a "true" if the string was non-zero length.
% <string>      popfirst <remaining string> <true>
% <null string> popfirst <false>
/popfirst {
  dup length 1 gt
    {dup 0 get /vg&fbyte exch def
     dup 1 get /vg&cbyte exch def
     dup length 2 sub 2 exch getinterval true}
    {pop false} ifelse
} def

% This routine shows a single unicode character given the font and
% character codes.
% <font code> <char code> unicharshow --
/unicharshow {
  2 string
  dup 0 5 -1 roll put
  dup 1 4 -1 roll put
  internalshow
} def

% This is an internal routine to alternate between determining the
% bounding box for stringsize and showing the string for recshow.
% <string> internalshow --
/internalshow {show} def

% This is an internal routine to alternate between determining the
% bounding box for stringsize and stroking various ornaments.
% <string> internalstroke --
/internalstroke {S} def

% Sets up internalshow to use the null device to determine string size.
% -- nullinternalshow --
/nullinternalshow {/internalshow {false charpath flattenpath
                                  pathbbox updatebbox} def} def

% Sets up internalstroke to use the null device to determine string size.
% -- nullinternalstroke --
/nullinternalstroke {
 /internalstroke {flattenpath pathbbox updatebbox} def} def

% This routine tests to see if the character code matches the first
% character of a string.
% <char code> <string> testchar <char code> <true or false>
/testchar {exch dup 3 -1 roll 0 get eq} def

% Raise the text baseline for superscripts.
% -- raise --
/raise {
  0 fontsize 2 div rmoveto
  /fontsize fontsize 2 mul 3 div def
  currentfont /FontName get fontsize sf
} def

% Un-raise the text baseline for superscripts.
% -- unraise --
/unraise {
  /fontsize fontsize 1.5 mul def
  0 fontsize 2 div neg rmoveto
} def

% Lower the text baseline for subscripts.
% -- lower --
/lower {
  0 fontsize 3 div neg rmoveto
  /fontsize fontsize 2 mul 3 div def
  currentfont /FontName get fontsize sf
} def

% Un-lower the text baseline for subscripts.
% -- unlower --
/unlower {
  /fontsize fontsize 1.5 mul def
  0 fontsize 3 div rmoveto
} def

% Compare the top two elements on the stack and leave only the
% larger one.
/maxval {2 copy gt {pop} {exch pop} ifelse} def

% Tokenize a string.  Do not use the usual PostScript token because
% parentheses will not be interpreted correctly because of rescanning
% of the string.
/vg&token {/vg&string exch def /vg&index -1 def /vg&level 0 def
0 2 vg&string length 2 sub {
  dup dup 1 add exch vg&string exch get 8 bitshift vg&string 3 -1 roll get or
  dup 16#f0fe eq {pop 1}{16#f0ff eq {-1}{0} ifelse} ifelse
  /vg&level exch vg&level add def
  vg&level 0 eq {/vg&index exch def exit} if pop
} for
vg&index 0 ge {
  vg&string vg&index 2 add dup vg&string length exch sub getinterval
  vg&index 2 gt {vg&string 2 vg&index 2 sub getinterval}{()} ifelse
  true}
{false} ifelse
} bind def

% Recursively show an unicode string.
% <string> recshow --
/recshow {
  popfirst
  {
    % Test to see if this is a string attribute.
    vg&fbyte 16#f0 and 16#e0 eq
    {
      q

      % Font style.
      currentfont dup /FontStyleBits known {/FontStyleBits get}{pop 0} ifelse
      vg&cbyte or vg&fontstyles exch get fontsize exch exec

      vg&token pop recshow currentpoint Q m recshow
    }
    {
      vg&fbyte 16#F8 and 16#F0 eq {

        % Superscript and/or subscript.
        vg&cbyte 16#00 eq {
          vg&token pop exch vg&token pop 3 -1 roll
          q raise recshow unraise currentpoint pop Q exch
          q lower recshow unlower currentpoint pop Q
          maxval currentpoint exch pop m recshow } if

        % Strikeout.
        vg&cbyte 16#01 eq {
          vg&token pop currentpoint 3 -1 roll recshow
          q 0 J vg&underline vg&uthick w
          currentpoint 4 -2 roll fontsize 3 div add moveto
          fontsize 3 div add lineto internalstroke Q
          recshow} if

        % Underline.
        vg&cbyte 16#02 eq {
          vg&token pop currentpoint 3 -1 roll recshow
          q 0 J vg&underline vg&uthick w
          currentpoint 4 -2 roll vg&uoffset add moveto
          vg&uoffset add lineto internalstroke Q
          recshow} if

        % Dashed underline.
        vg&cbyte 16#03 eq {
          vg&token pop currentpoint 3 -1 roll recshow
          q 0 J [ vg&uthick 5 mul vg&uthick 2 mul] 0 d
          vg&underline vg&uthick w
          currentpoint 4 -2 roll vg&uoffset add moveto
          vg&uoffset add lineto internalstroke Q
          recshow} if

        % Dotted underline.
        vg&cbyte 16#04 eq {
          vg&token pop currentpoint 3 -1 roll recshow
          q 1 J [ 0 vg&uthick 3 mul] 0 d
          vg&underline vg&uthick w
          currentpoint 4 -2 roll vg&uoffset add moveto
          vg&uoffset add lineto internalstroke Q
          recshow} if

        % Thick underline.
        vg&cbyte 16#05 eq {
          vg&token pop currentpoint 3 -1 roll recshow
          q 0 J vg&underline vg&uthick 2 mul w
          currentpoint 4 -2 roll vg&uoffset vg&uthick 2 div sub add moveto
          vg&uoffset vg&uthick 2 div sub add lineto internalstroke Q
          recshow} if

        % Gray thick underline.
        vg&cbyte 16#06 eq {
          vg&token pop currentpoint 3 -1 roll recshow
          q 0 J vg&underline vg&uthick 2 mul w 0.5 setgray
          currentpoint 4 -2 roll vg&uoffset vg&uthick 2 div sub add moveto
          vg&uoffset vg&uthick 2 div sub add lineto internalstroke Q
          recshow} if

        % Overbar.
        vg&cbyte 16#07 eq {
          vg&token pop dup stringsize relative 4 1 roll pop pop exch
          3 -1 roll recshow
          q 0 J vg&underline vg&uthick w
          vg&uoffset neg add dup currentpoint pop exch m l internalstroke Q
          recshow} if
      }
      {
        vg&fbyte vg&cbyte unicharshow recshow
      } ifelse
    } ifelse
  } if
} def

% Get the underline position and thickness from the current font.
/vg&underline {

currentfont dup /FontType get 0 eq {/FDepVector get 0 get} if
dup dup /FontInfo known {
  /FontInfo get dup
  dup /UnderlinePosition known {
    /UnderlinePosition get /vg&uoffset exch def
  }
  {
    pop /vg&uoffset 0 def
  } ifelse
  dup /UnderlineThickness known {
    /UnderlineThickness get /vg&uthick exch def
  }
  {
    pop /vg&uthick 0 def
  } ifelse
}
{
  pop /vg&uoffset 0 def /vg&uthick 0 def
} ifelse
/FontMatrix get
currentfont dup /FontType get 0 eq
{/FontMatrix get matrix concatmatrix}{pop} ifelse
dup 0 vg&uoffset 3 -1 roll transform /vg&uoffset exch def pop
0 vg&uthick 3 -1 roll transform /vg&uthick exch def pop
} def

% Make a frame with the coordinates on the stack.
% <llx> <lly> <urx> <ury> frame --
/frame {4 copy m 3 1 roll exch l 4 -2 roll l l h} def

% Resets the accumulated bounding box to a degenerate box at the
% current point.
% -- resetbbox --
/resetbbox {
  currentpoint 2 copy
  /bbury exch def
  /bburx exch def
  /bblly exch def
  /bbllx exch def
} def

% Update the accumulated bounding box.
% <llx'> <lly'> <urx'> <ury'> updatebbox --
/updatebbox {
  dup bbury gt {/bbury exch def} {pop} ifelse
  dup bburx gt {/bburx exch def} {pop} ifelse
  dup bblly lt {/bblly exch def} {pop} ifelse
  dup bbllx lt {/bbllx exch def} {pop} ifelse
} def

% Set the bounding box to the values on the stack.
% <llx'> <lly'> <urx'> <ury'> updatebbox --
/restorebbox {
  /bbury exch def /bburx exch def /bblly exch def /bbllx exch def
} def

% Push the accumulated bounding box onto the stack.
% -- pushbbox <llx> <lly> <urx> <ury>
/pushbbox {bbllx bblly bburx bbury} def

% Make the relative bounding box relative to the currentpoint.
% <llx'> <lly'> <urx'> <ury'> inflate <llx> <lly> <urx> <ury>
/inflate {
  2 {fontsize 0.2 mul add 4 1 roll} repeat
  2 {fontsize 0.2 mul sub 4 1 roll} repeat
} def

% Make the relative bounding box relative to the currentpoint.
% <llx'> <lly'> <urx'> <ury'> relative <llx> <lly> <urx> <ury>
/relative {
  currentpoint 3 -1 roll add 3 1 roll add exch 4 2 roll
  currentpoint 3 -1 roll add 3 1 roll add exch 4 2 roll
} def

% Returns the size of a string appropriate for recshow.
% <string> stringsize <llx> <lly> <urx> <ury>
/stringsize {
  pushbbox /internalshow load /internalstroke load 7 -1 roll
  q
  nulldevice 0 0 m
  nullinternalshow nullinternalstroke
  resetbbox
  recshow
  /internalstroke exch def /internalshow exch def
  pushbbox 8 -4 roll restorebbox
  Q
} def

% Calculate values for string positioning.
/calcval {4 copy
  3 -1 roll sub /widy exch def sub neg /widx exch def
  pop pop /dy exch def /dx exch def} def

% Utilities to position a string.
% First letter (U=upper, C=center, B=baseline, L=lower)
% Second letter (L=left, C=center, R=right)
/align [
{calcval dx neg widy dy add neg rmoveto} % UL
{calcval dx neg widy 2 div dy add neg rmoveto} % CL
{calcval dx neg 0 rmoveto} % BL
{calcval dx neg dy neg rmoveto} % LL
{calcval widx dx add neg widy dy add neg rmoveto} % UR
{calcval widx dx add neg widy 2 div dy add neg rmoveto} % CR
{calcval widx dx add neg 0 rmoveto} % BR
{calcval widx dx add neg dy neg rmoveto} % LR
{calcval widx 2 div dx add neg widy dy add neg rmoveto} % UC
{calcval widx 2 div dx add neg widy 2 div dy add neg rmoveto} % CC
{calcval widx 2 div dx add neg 0 rmoveto} % BC
{calcval widx 2 div dx add neg dy neg rmoveto} % LC
] def

/vg&str {m q 1 -1 scale dup stringsize 4 copy align 11 -1 roll get exec
         q inflate relative frame exch exec Q recshow Q} def

end /procDict exch def
%%EndProlog

%%BeginSetup
save
procDict begin
printColorMap begin
335 174 setpagesize
0 0 0 0 setmargins
0 0 setorigin
335 174 setsize
naturalsize
portrait
imagescale
cliptobounds
setbasematrix
/Helvetica 10 sf
defaultGraphicsState
%%EndSetup

0.00000 0.00000 0.00000 RG
[ 1.00000 0.00000 0.00000 1.00000 0.00000 0.00000 ] defaultmatrix matrix concatmatrix setmatrix
cliprestore
1.00000 1.00000 1.00000 RG
newpath
0.00000 0.00000 m
335.000 0.00000 l
335.000 174.000 l
0.00000 174.000 l
0.00000 0.00000 l
h
f
0.00000 0.00000 0.00000 RG
0.00000 0.00000 0.00000 RG
[ 1.00000 0.00000 0.00000 1.00000 0.00000 0.00000 ] defaultmatrix matrix concatmatrix setmatrix
cliprestore
1.00000 1.00000 1.00000 RG
newpath
0.00000 0.00000 m
335.000 0.00000 l
335.000 174.000 l
0.00000 174.000 l
0.00000 0.00000 l
h
f
0.00000 0.00000 0.00000 RG
0 0 335 174 rc
q
[ 1.00000 0.00000 0.00000 1.00000 0.00000 0.00000 ] concat
[ 1.00000 0.00000 0.00000 1.00000 -2.00000 422.000 ] concat
1.00000 1.00000 1.00000 RG
newpath
2.00000 -422.000 m
337.000 -422.000 l
337.000 -248.000 l
2.00000 -248.000 l
2.00000 -422.000 l
h
f
0.00000 0.00000 0.00000 RG
[ 1.00000 0.00000 0.00000 1.00000 -2.00000 422.000 ] defaultmatrix matrix concatmatrix setmatrix
[ 1.00000 0.00000 0.00000 1.00000 -2.00000 422.000 ] defaultmatrix matrix concatmatrix setmatrix
[ 1.00000 0.00000 0.00000 1.00000 0.00000 0.00000 ] defaultmatrix matrix concatmatrix setmatrix
[ 1.00000 0.00000 0.00000 1.00000 -2.00000 422.000 ] defaultmatrix matrix concatmatrix setmatrix
0 J
1.45000 M
newpath
98.0732 -406.892 m
186.073 -406.892 l
186.073 -385.892 l
98.0732 -385.892 l
98.0732 -406.892 l
h
S
2 J
10.0000 M
0 J
1.45000 M
newpath
120.033 -391.857 m
120.033 -401.109 l
121.187 -401.109 l
121.187 -391.857 l
h
125.992 -391.711 m
125.082 -391.711 124.355 -392.012 123.812 -392.616  c
123.270 -393.219 122.998 -394.027 122.998 -395.039  c
122.998 -396.062 123.270 -396.872 123.815 -397.467  c
124.360 -398.063 125.100 -398.361 126.033 -398.361  c
126.967 -398.361 127.706 -398.063 128.251 -397.467  c
128.796 -396.872 129.068 -396.066 129.068 -395.050  c
129.068 -394.011 128.795 -393.195 128.248 -392.601  c
127.701 -392.008 126.949 -391.711 125.992 -391.711  c
h
126.010 -392.578 m
127.232 -392.578 127.844 -393.402 127.844 -395.050  c
127.844 -396.679 127.240 -397.494 126.033 -397.494  c
124.830 -397.494 124.229 -396.675 124.229 -395.039  c
124.229 -393.398 124.822 -392.578 126.010 -392.578  c
h
133.357 -391.711 m
132.498 -391.711 131.785 -392.029 131.219 -392.666  c
130.652 -393.302 130.369 -394.105 130.369 -395.074  c
130.369 -396.109 130.649 -396.916 131.210 -397.494  c
131.770 -398.072 132.553 -398.361 133.557 -398.361  c
134.053 -398.361 134.607 -398.293 135.221 -398.156  c
135.221 -397.189 l
134.568 -397.381 134.037 -397.476 133.627 -397.476  c
133.037 -397.476 132.563 -397.255 132.206 -396.811  c
131.849 -396.368 131.670 -395.777 131.670 -395.039  c
131.670 -394.324 131.854 -393.746 132.221 -393.304  c
132.588 -392.863 133.068 -392.642 133.662 -392.642  c
134.189 -392.642 134.732 -392.777 135.291 -393.047  c
135.291 -392.050 l
134.545 -391.824 133.900 -391.711 133.357 -391.711  c
h
140.301 -392.666 m
139.609 -392.029 138.943 -391.711 138.303 -391.711  c
137.775 -391.711 137.338 -391.876 136.990 -392.206  c
136.643 -392.536 136.469 -392.953 136.469 -393.457  c
136.469 -394.152 136.761 -394.686 137.345 -395.059  c
137.929 -395.432 138.766 -395.619 139.855 -395.619  c
140.131 -395.619 l
140.131 -396.386 l
140.131 -397.125 139.752 -397.494 138.994 -397.494  c
138.385 -397.494 137.727 -397.306 137.020 -396.931  c
137.020 -397.886 l
137.797 -398.203 138.525 -398.361 139.205 -398.361  c
139.916 -398.361 140.440 -398.201 140.778 -397.881  c
141.116 -397.560 141.285 -397.062 141.285 -396.386  c
141.285 -393.504 l
141.285 -392.843 141.488 -392.513 141.895 -392.513  c
141.945 -392.513 142.020 -392.521 142.117 -392.537  c
142.199 -391.898 l
141.937 -391.773 141.648 -391.711 141.332 -391.711  c
140.793 -391.711 140.449 -392.029 140.301 -392.666  c
h
140.131 -393.293 m
140.131 -394.939 l
139.744 -394.951 l
139.111 -394.951 138.600 -394.831 138.209 -394.591  c
137.818 -394.350 137.623 -394.035 137.623 -393.644  c
137.623 -393.367 137.721 -393.133 137.916 -392.941  c
138.111 -392.750 138.350 -392.654 138.631 -392.654  c
139.111 -392.654 139.611 -392.867 140.131 -393.293  c
h
145.557 -391.711 m
144.971 -391.711 144.514 -391.879 144.186 -392.215  c
143.857 -392.550 143.693 -393.017 143.693 -393.615  c
143.693 -397.353 l
142.896 -397.353 l
142.896 -398.220 l
143.693 -398.220 l
143.693 -399.375 l
144.848 -399.486 l
144.848 -398.220 l
146.512 -398.220 l
146.512 -397.353 l
144.848 -397.353 l
144.848 -393.826 l
144.848 -392.994 145.207 -392.578 145.926 -392.578  c
146.078 -392.578 146.264 -392.603 146.482 -392.654  c
146.482 -391.857 l
146.127 -391.759 145.818 -391.711 145.557 -391.711  c
h
148.135 -391.857 m
148.135 -398.220 l
149.289 -398.220 l
149.289 -391.857 l
h
148.135 -399.375 m
148.135 -400.529 l
149.289 -400.529 l
149.289 -399.375 l
h
154.094 -391.711 m
153.184 -391.711 152.457 -392.012 151.914 -392.616  c
151.371 -393.219 151.100 -394.027 151.100 -395.039  c
151.100 -396.062 151.372 -396.872 151.917 -397.467  c
152.462 -398.063 153.201 -398.361 154.135 -398.361  c
155.068 -398.361 155.808 -398.063 156.353 -397.467  c
156.897 -396.872 157.170 -396.066 157.170 -395.050  c
157.170 -394.011 156.896 -393.195 156.350 -392.601  c
155.803 -392.008 155.051 -391.711 154.094 -391.711  c
h
154.111 -392.578 m
155.334 -392.578 155.945 -393.402 155.945 -395.050  c
155.945 -396.679 155.342 -397.494 154.135 -397.494  c
152.932 -397.494 152.330 -396.675 152.330 -395.039  c
152.330 -393.398 152.924 -392.578 154.111 -392.578  c
h
158.975 -391.857 m
158.975 -398.220 l
160.129 -398.220 l
160.129 -397.025 l
160.738 -397.916 161.484 -398.361 162.367 -398.361  c
162.918 -398.361 163.357 -398.186 163.686 -397.837  c
164.014 -397.487 164.178 -397.017 164.178 -396.427  c
164.178 -391.857 l
163.023 -391.857 l
163.023 -396.052 l
163.023 -396.525 162.954 -396.862 162.815 -397.063  c
162.677 -397.264 162.447 -397.365 162.127 -397.365  c
161.420 -397.365 160.754 -396.902 160.129 -395.976  c
160.129 -391.857 l
h
f
2 J
10.0000 M
0 J
1.45000 M
newpath
17.0732 -345.892 m
105.073 -345.892 l
105.073 -324.892 l
17.0732 -324.892 l
17.0732 -345.892 l
h
S
2 J
10.0000 M
0 J
1.45000 M
newpath
35.9043 -330.787 m
35.9043 -340.109 l
37.0586 -340.109 l
37.0586 -336.025 l
37.5312 -336.916 38.2402 -337.361 39.1855 -337.361  c
39.9512 -337.361 40.5537 -337.082 40.9931 -336.523  c
41.4326 -335.965 41.6523 -335.201 41.6523 -334.232  c
41.6523 -333.177 41.4033 -332.327 40.9053 -331.680  c
40.4072 -331.034 39.7519 -330.711 38.9394 -330.711  c
38.1855 -330.711 37.5586 -331.000 37.0586 -331.578  c
36.9180 -330.787 l
h
37.0586 -332.375 m
37.6523 -331.843 38.2187 -331.578 38.7578 -331.578  c
39.8672 -331.578 40.4219 -332.424 40.4219 -334.115  c
40.4219 -335.607 39.9297 -336.353 38.9453 -336.353  c
38.3008 -336.353 37.6719 -336.004 37.0586 -335.304  c
h
48.1211 -331.062 m
47.3476 -330.828 46.6855 -330.711 46.1348 -330.711  c
45.1973 -330.711 44.4326 -331.022 43.8408 -331.645  c
43.2490 -332.268 42.9531 -333.076 42.9531 -334.068  c
42.9531 -335.033 43.2139 -335.824 43.7353 -336.441  c
44.2568 -337.058 44.9238 -337.367 45.7363 -337.367  c
46.5058 -337.367 47.1006 -337.093 47.5205 -336.547  c
47.9404 -336.000 48.1504 -335.222 48.1504 -334.215  c
48.1445 -333.857 l
44.1308 -333.857 l
44.2988 -332.345 45.0390 -331.590 46.3515 -331.590  c
46.8320 -331.590 47.4219 -331.718 48.1211 -331.976  c
h
44.1836 -334.724 m
46.9902 -334.724 l
46.9902 -335.908 46.5488 -336.500 45.6660 -336.500  c
44.7793 -336.500 44.2851 -335.908 44.1836 -334.724  c
h
54.2265 -330.857 m
54.2265 -332.052 l
53.7578 -331.158 53.0508 -330.711 52.1055 -330.711  c
51.3398 -330.711 50.7373 -330.990 50.2978 -331.549  c
49.8584 -332.107 49.6387 -332.871 49.6387 -333.840  c
49.6387 -334.898 49.8877 -335.750 50.3857 -336.394  c
50.8838 -337.039 51.5390 -337.361 52.3515 -337.361  c
53.1055 -337.361 53.7305 -337.072 54.2265 -336.494  c
54.2265 -340.109 l
55.3867 -340.109 l
55.3867 -330.857 l
h
54.2265 -335.703 m
53.6289 -336.230 53.0625 -336.494 52.5273 -336.494  c
51.4219 -336.494 50.8691 -335.648 50.8691 -333.957  c
50.8691 -332.468 51.3613 -331.724 52.3457 -331.724  c
52.9863 -331.724 53.6133 -332.074 54.2265 -332.773  c
h
57.6953 -330.857 m
57.6953 -337.220 l
58.8496 -337.220 l
58.8496 -336.025 l
59.3066 -336.916 59.9707 -337.361 60.8418 -337.361  c
60.9590 -337.361 61.0820 -337.351 61.2109 -337.332  c
61.2109 -336.254 l
61.0117 -336.320 60.8359 -336.353 60.6836 -336.353  c
59.9531 -336.353 59.3418 -335.920 58.8496 -335.052  c
58.8496 -330.857 l
h
65.0957 -330.711 m
64.1855 -330.711 63.4590 -331.012 62.9160 -331.616  c
62.3730 -332.219 62.1015 -333.027 62.1015 -334.039  c
62.1015 -335.062 62.3740 -335.872 62.9189 -336.467  c
63.4639 -337.063 64.2031 -337.361 65.1367 -337.361  c
66.0703 -337.361 66.8096 -337.063 67.3545 -336.467  c
67.8994 -335.872 68.1719 -335.066 68.1719 -334.050  c
68.1719 -333.011 67.8984 -332.195 67.3515 -331.601  c
66.8047 -331.008 66.0527 -330.711 65.0957 -330.711  c
h
65.1133 -331.578 m
66.3359 -331.578 66.9473 -332.402 66.9473 -334.050  c
66.9473 -335.679 66.3437 -336.494 65.1367 -336.494  c
63.9336 -336.494 63.3320 -335.675 63.3320 -334.039  c
63.3320 -332.398 63.9258 -331.578 65.1133 -331.578  c
h
72.4668 -330.711 m
71.5566 -330.711 70.8301 -331.012 70.2871 -331.616  c
69.7441 -332.219 69.4726 -333.027 69.4726 -334.039  c
69.4726 -335.062 69.7451 -335.872 70.2900 -336.467  c
70.8349 -337.063 71.5742 -337.361 72.5078 -337.361  c
73.4414 -337.361 74.1806 -337.063 74.7256 -336.467  c
75.2705 -335.872 75.5430 -335.066 75.5430 -334.050  c
75.5430 -333.011 75.2695 -332.195 74.7226 -331.601  c
74.1758 -331.008 73.4238 -330.711 72.4668 -330.711  c
h
72.4844 -331.578 m
73.7070 -331.578 74.3183 -332.402 74.3183 -334.050  c
74.3183 -335.679 73.7148 -336.494 72.5078 -336.494  c
71.3047 -336.494 70.7031 -335.675 70.7031 -334.039  c
70.7031 -332.398 71.2969 -331.578 72.4844 -331.578  c
h
77.3476 -330.857 m
77.3476 -337.220 l
78.5019 -337.220 l
78.5019 -336.025 l
79.0644 -336.916 79.7871 -337.361 80.6699 -337.361  c
81.5215 -337.361 82.1015 -336.916 82.4101 -336.025  c
82.9570 -336.920 83.6680 -337.367 84.5430 -337.367  c
85.1055 -337.367 85.5410 -337.202 85.8496 -336.872  c
86.1582 -336.542 86.3125 -336.080 86.3125 -335.486  c
86.3125 -330.857 l
85.1523 -330.857 l
85.1523 -335.304 l
85.1523 -336.031 84.8652 -336.394 84.2910 -336.394  c
83.6933 -336.394 83.0664 -335.970 82.4101 -335.123  c
82.4101 -330.857 l
81.2500 -330.857 l
81.2500 -335.304 l
81.2500 -336.035 80.9570 -336.400 80.3711 -336.400  c
79.7890 -336.400 79.1660 -335.974 78.5019 -335.123  c
78.5019 -330.857 l
h
f
2 J
10.0000 M
0 J
1.45000 M
newpath
17.0732 -284.892 m
105.073 -284.892 l
105.073 -263.892 l
17.0732 -263.892 l
17.0732 -284.892 l
h
S
2 J
10.0000 M
0 J
1.45000 M
newpath
28.2959 -269.711 m
27.7099 -269.711 27.2529 -269.879 26.9248 -270.215  c
26.5967 -270.550 26.4326 -271.017 26.4326 -271.615  c
26.4326 -275.353 l
25.6357 -275.353 l
25.6357 -276.220 l
26.4326 -276.220 l
26.4326 -277.375 l
27.5869 -277.486 l
27.5869 -276.220 l
29.2510 -276.220 l
29.2510 -275.353 l
27.5869 -275.353 l
27.5869 -271.826 l
27.5869 -270.994 27.9463 -270.578 28.6650 -270.578  c
28.8174 -270.578 29.0029 -270.603 29.2217 -270.654  c
29.2217 -269.857 l
28.8662 -269.759 28.5576 -269.711 28.2959 -269.711  c
h
35.5381 -270.062 m
34.7646 -269.828 34.1025 -269.711 33.5517 -269.711  c
32.6142 -269.711 31.8496 -270.022 31.2578 -270.645  c
30.6660 -271.268 30.3701 -272.076 30.3701 -273.068  c
30.3701 -274.033 30.6308 -274.824 31.1523 -275.441  c
31.6738 -276.058 32.3408 -276.367 33.1533 -276.367  c
33.9228 -276.367 34.5176 -276.093 34.9375 -275.547  c
35.3574 -275.000 35.5674 -274.222 35.5674 -273.215  c
35.5615 -272.857 l
31.5478 -272.857 l
31.7158 -271.345 32.4560 -270.590 33.7685 -270.590  c
34.2490 -270.590 34.8389 -270.718 35.5381 -270.976  c
h
31.6006 -273.724 m
34.4072 -273.724 l
34.4072 -274.908 33.9658 -275.500 33.0830 -275.500  c
32.1963 -275.500 31.7021 -274.908 31.6006 -273.724  c
h
37.5596 -269.857 m
37.5596 -276.220 l
38.7139 -276.220 l
38.7139 -275.025 l
39.2764 -275.916 39.9990 -276.361 40.8818 -276.361  c
41.7334 -276.361 42.3135 -275.916 42.6221 -275.025  c
43.1689 -275.920 43.8799 -276.367 44.7549 -276.367  c
45.3174 -276.367 45.7529 -276.202 46.0615 -275.872  c
46.3701 -275.542 46.5244 -275.080 46.5244 -274.486  c
46.5244 -269.857 l
45.3642 -269.857 l
45.3642 -274.304 l
45.3642 -275.031 45.0771 -275.394 44.5029 -275.394  c
43.9053 -275.394 43.2783 -274.970 42.6221 -274.123  c
42.6221 -269.857 l
41.4619 -269.857 l
41.4619 -274.304 l
41.4619 -275.035 41.1689 -275.400 40.5830 -275.400  c
40.0010 -275.400 39.3779 -274.974 38.7139 -274.123  c
38.7139 -269.857 l
h
48.7627 -267.543 m
48.7627 -276.220 l
49.9170 -276.220 l
49.9170 -275.025 l
50.3896 -275.916 51.0986 -276.361 52.0439 -276.361  c
52.8096 -276.361 53.4121 -276.082 53.8515 -275.523  c
54.2910 -274.965 54.5107 -274.201 54.5107 -273.232  c
54.5107 -272.177 54.2617 -271.327 53.7637 -270.680  c
53.2656 -270.034 52.6103 -269.711 51.7978 -269.711  c
51.0439 -269.711 50.4170 -270.000 49.9170 -270.578  c
49.9170 -267.543 l
h
49.9170 -271.375 m
50.5107 -270.843 51.0771 -270.578 51.6162 -270.578  c
52.7256 -270.578 53.2803 -271.424 53.2803 -273.115  c
53.2803 -274.607 52.7881 -275.353 51.8037 -275.353  c
51.1592 -275.353 50.5303 -275.004 49.9170 -274.304  c
h
60.9795 -270.062 m
60.2060 -269.828 59.5439 -269.711 58.9931 -269.711  c
58.0556 -269.711 57.2910 -270.022 56.6992 -270.645  c
56.1074 -271.268 55.8115 -272.076 55.8115 -273.068  c
55.8115 -274.033 56.0723 -274.824 56.5937 -275.441  c
57.1152 -276.058 57.7822 -276.367 58.5947 -276.367  c
59.3642 -276.367 59.9590 -276.093 60.3789 -275.547  c
60.7988 -275.000 61.0088 -274.222 61.0088 -273.215  c
61.0029 -272.857 l
56.9892 -272.857 l
57.1572 -271.345 57.8974 -270.590 59.2099 -270.590  c
59.6904 -270.590 60.2803 -270.718 60.9795 -270.976  c
h
57.0420 -273.724 m
59.8486 -273.724 l
59.8486 -274.908 59.4072 -275.500 58.5244 -275.500  c
57.6377 -275.500 57.1435 -274.908 57.0420 -273.724  c
h
63.0010 -269.857 m
63.0010 -276.220 l
64.1553 -276.220 l
64.1553 -275.025 l
64.6123 -275.916 65.2764 -276.361 66.1474 -276.361  c
66.2646 -276.361 66.3877 -276.351 66.5166 -276.332  c
66.5166 -275.254 l
66.3174 -275.320 66.1416 -275.353 65.9892 -275.353  c
65.2588 -275.353 64.6474 -274.920 64.1553 -274.052  c
64.1553 -269.857 l
h
71.1924 -270.666 m
70.5010 -270.029 69.8349 -269.711 69.1943 -269.711  c
68.6670 -269.711 68.2295 -269.876 67.8818 -270.206  c
67.5342 -270.536 67.3603 -270.953 67.3603 -271.457  c
67.3603 -272.152 67.6523 -272.686 68.2363 -273.059  c
68.8203 -273.432 69.6572 -273.619 70.7471 -273.619  c
71.0224 -273.619 l
71.0224 -274.386 l
71.0224 -275.125 70.6435 -275.494 69.8857 -275.494  c
69.2764 -275.494 68.6181 -275.306 67.9111 -274.931  c
67.9111 -275.886 l
68.6885 -276.203 69.4170 -276.361 70.0967 -276.361  c
70.8076 -276.361 71.3320 -276.201 71.6699 -275.881  c
72.0078 -275.560 72.1767 -275.062 72.1767 -274.386  c
72.1767 -271.504 l
72.1767 -270.843 72.3799 -270.513 72.7861 -270.513  c
72.8369 -270.513 72.9111 -270.521 73.0088 -270.537  c
73.0908 -269.898 l
72.8291 -269.773 72.5400 -269.711 72.2236 -269.711  c
71.6846 -269.711 71.3408 -270.029 71.1924 -270.666  c
h
71.0224 -271.293 m
71.0224 -272.939 l
70.6357 -272.951 l
70.0029 -272.951 69.4912 -272.831 69.1006 -272.591  c
68.7099 -272.350 68.5146 -272.035 68.5146 -271.644  c
68.5146 -271.367 68.6123 -271.133 68.8076 -270.941  c
69.0029 -270.750 69.2412 -270.654 69.5224 -270.654  c
70.0029 -270.654 70.5029 -270.867 71.0224 -271.293  c
h
76.4482 -269.711 m
75.8623 -269.711 75.4053 -269.879 75.0771 -270.215  c
74.7490 -270.550 74.5849 -271.017 74.5849 -271.615  c
74.5849 -275.353 l
73.7881 -275.353 l
73.7881 -276.220 l
74.5849 -276.220 l
74.5849 -277.375 l
75.7392 -277.486 l
75.7392 -276.220 l
77.4033 -276.220 l
77.4033 -275.353 l
75.7392 -275.353 l
75.7392 -271.826 l
75.7392 -270.994 76.0986 -270.578 76.8174 -270.578  c
76.9697 -270.578 77.1553 -270.603 77.3740 -270.654  c
77.3740 -269.857 l
77.0185 -269.759 76.7099 -269.711 76.4482 -269.711  c
h
83.0049 -269.857 m
83.0049 -271.052 l
82.3916 -270.158 81.6474 -269.711 80.7724 -269.711  c
80.2178 -269.711 79.7764 -269.885 79.4482 -270.235  c
79.1201 -270.585 78.9560 -271.056 78.9560 -271.650  c
78.9560 -276.220 l
80.1103 -276.220 l
80.1103 -272.025 l
80.1103 -271.549 80.1797 -271.210 80.3183 -271.008  c
80.4570 -270.807 80.6885 -270.707 81.0127 -270.707  c
81.7158 -270.707 82.3799 -271.170 83.0049 -272.095  c
83.0049 -276.220 l
84.1592 -276.220 l
84.1592 -269.857 l
h
86.4736 -269.857 m
86.4736 -276.220 l
87.6279 -276.220 l
87.6279 -275.025 l
88.0849 -275.916 88.7490 -276.361 89.6201 -276.361  c
89.7373 -276.361 89.8603 -276.351 89.9892 -276.332  c
89.9892 -275.254 l
89.7900 -275.320 89.6142 -275.353 89.4619 -275.353  c
88.7314 -275.353 88.1201 -274.920 87.6279 -274.052  c
87.6279 -269.857 l
h
96.0478 -270.062 m
95.2744 -269.828 94.6123 -269.711 94.0615 -269.711  c
93.1240 -269.711 92.3594 -270.022 91.7676 -270.645  c
91.1758 -271.268 90.8799 -272.076 90.8799 -273.068  c
90.8799 -274.033 91.1406 -274.824 91.6621 -275.441  c
92.1836 -276.058 92.8506 -276.367 93.6631 -276.367  c
94.4326 -276.367 95.0273 -276.093 95.4473 -275.547  c
95.8672 -275.000 96.0771 -274.222 96.0771 -273.215  c
96.0713 -272.857 l
92.0576 -272.857 l
92.2256 -271.345 92.9658 -270.590 94.2783 -270.590  c
94.7588 -270.590 95.3486 -270.718 96.0478 -270.976  c
h
92.1103 -273.724 m
94.9170 -273.724 l
94.9170 -274.908 94.4756 -275.500 93.5928 -275.500  c
92.7060 -275.500 92.2119 -274.908 92.1103 -273.724  c
h
f
2 J
10.0000 M
0 J
1.45000 M
newpath
179.073 -345.892 m
267.073 -345.892 l
267.073 -324.892 l
179.073 -324.892 l
179.073 -345.892 l
h
S
2 J
10.0000 M
0 J
1.45000 M
newpath
194.550 -330.711 m
194.022 -330.711 193.382 -330.834 192.628 -331.080  c
192.628 -332.140 l
193.382 -331.765 194.038 -331.578 194.597 -331.578  c
194.929 -331.578 195.204 -331.668 195.423 -331.847  c
195.642 -332.027 195.751 -332.252 195.751 -332.521  c
195.751 -332.916 195.444 -333.242 194.831 -333.500  c
194.157 -333.787 l
193.161 -334.201 192.663 -334.797 192.663 -335.574  c
192.663 -336.129 192.859 -336.565 193.252 -336.883  c
193.645 -337.202 194.183 -337.361 194.866 -337.361  c
195.222 -337.361 195.661 -337.312 196.185 -337.215  c
196.425 -337.168 l
196.425 -336.207 l
195.780 -336.398 195.269 -336.494 194.890 -336.494  c
194.147 -336.494 193.776 -336.224 193.776 -335.685  c
193.776 -335.338 194.058 -335.045 194.620 -334.806  c
195.177 -334.572 l
195.806 -334.306 196.251 -334.026 196.513 -333.731  c
196.774 -333.436 196.905 -333.068 196.905 -332.627  c
196.905 -332.068 196.685 -331.609 196.243 -331.250  c
195.802 -330.890 195.237 -330.711 194.550 -330.711  c
h
200.890 -330.711 m
200.304 -330.711 199.847 -330.879 199.519 -331.215  c
199.190 -331.550 199.026 -332.017 199.026 -332.615  c
199.026 -336.353 l
198.229 -336.353 l
198.229 -337.220 l
199.026 -337.220 l
199.026 -338.375 l
200.181 -338.486 l
200.181 -337.220 l
201.845 -337.220 l
201.845 -336.353 l
200.181 -336.353 l
200.181 -332.826 l
200.181 -331.994 200.540 -331.578 201.259 -331.578  c
201.411 -331.578 201.597 -331.603 201.815 -331.654  c
201.815 -330.857 l
201.460 -330.759 201.151 -330.711 200.890 -330.711  c
h
207.446 -330.857 m
207.446 -332.052 l
206.833 -331.158 206.089 -330.711 205.214 -330.711  c
204.659 -330.711 204.218 -330.885 203.890 -331.235  c
203.562 -331.585 203.397 -332.056 203.397 -332.650  c
203.397 -337.220 l
204.552 -337.220 l
204.552 -333.025 l
204.552 -332.549 204.621 -332.210 204.760 -332.008  c
204.898 -331.807 205.130 -331.707 205.454 -331.707  c
206.157 -331.707 206.821 -332.170 207.446 -333.095  c
207.446 -337.220 l
208.601 -337.220 l
208.601 -330.857 l
h
214.999 -330.857 m
214.999 -332.052 l
214.530 -331.158 213.823 -330.711 212.878 -330.711  c
212.112 -330.711 211.510 -330.990 211.070 -331.549  c
210.631 -332.107 210.411 -332.871 210.411 -333.840  c
210.411 -334.898 210.660 -335.750 211.158 -336.394  c
211.656 -337.039 212.312 -337.361 213.124 -337.361  c
213.878 -337.361 214.503 -337.072 214.999 -336.494  c
214.999 -340.109 l
216.159 -340.109 l
216.159 -330.857 l
h
214.999 -335.703 m
214.401 -336.230 213.835 -336.494 213.300 -336.494  c
212.194 -336.494 211.642 -335.648 211.642 -333.957  c
211.642 -332.468 212.134 -331.724 213.118 -331.724  c
213.759 -331.724 214.386 -332.074 214.999 -332.773  c
h
218.837 -328.543 m
219.868 -330.857 l
217.407 -337.220 l
218.655 -337.220 l
220.478 -332.427 l
222.423 -337.220 l
223.513 -337.220 l
220.038 -328.543 l
h
224.737 -330.857 m
224.737 -337.220 l
225.892 -337.220 l
225.892 -336.025 l
226.349 -336.916 227.013 -337.361 227.884 -337.361  c
228.001 -337.361 228.124 -337.351 228.253 -337.332  c
228.253 -336.254 l
228.054 -336.320 227.878 -336.353 227.726 -336.353  c
226.995 -336.353 226.384 -335.920 225.892 -335.052  c
225.892 -330.857 l
h
232.138 -330.711 m
231.228 -330.711 230.501 -331.012 229.958 -331.616  c
229.415 -332.219 229.144 -333.027 229.144 -334.039  c
229.144 -335.062 229.416 -335.872 229.961 -336.467  c
230.506 -337.063 231.245 -337.361 232.179 -337.361  c
233.112 -337.361 233.852 -337.063 234.396 -336.467  c
234.941 -335.872 235.214 -335.066 235.214 -334.050  c
235.214 -333.011 234.940 -332.195 234.394 -331.601  c
233.847 -331.008 233.095 -330.711 232.138 -330.711  c
h
232.155 -331.578 m
233.378 -331.578 233.989 -332.402 233.989 -334.050  c
233.989 -335.679 233.386 -336.494 232.179 -336.494  c
230.976 -336.494 230.374 -335.675 230.374 -334.039  c
230.374 -332.398 230.968 -331.578 232.155 -331.578  c
h
239.509 -330.711 m
238.599 -330.711 237.872 -331.012 237.329 -331.616  c
236.786 -332.219 236.515 -333.027 236.515 -334.039  c
236.515 -335.062 236.787 -335.872 237.332 -336.467  c
237.877 -337.063 238.616 -337.361 239.550 -337.361  c
240.483 -337.361 241.223 -337.063 241.768 -336.467  c
242.312 -335.872 242.585 -335.066 242.585 -334.050  c
242.585 -333.011 242.312 -332.195 241.765 -331.601  c
241.218 -331.008 240.466 -330.711 239.509 -330.711  c
h
239.526 -331.578 m
240.749 -331.578 241.360 -332.402 241.360 -334.050  c
241.360 -335.679 240.757 -336.494 239.550 -336.494  c
238.347 -336.494 237.745 -335.675 237.745 -334.039  c
237.745 -332.398 238.339 -331.578 239.526 -331.578  c
h
244.390 -330.857 m
244.390 -337.220 l
245.544 -337.220 l
245.544 -336.025 l
246.106 -336.916 246.829 -337.361 247.712 -337.361  c
248.563 -337.361 249.144 -336.916 249.452 -336.025  c
249.999 -336.920 250.710 -337.367 251.585 -337.367  c
252.147 -337.367 252.583 -337.202 252.892 -336.872  c
253.200 -336.542 253.354 -336.080 253.354 -335.486  c
253.354 -330.857 l
252.194 -330.857 l
252.194 -335.304 l
252.194 -336.031 251.907 -336.394 251.333 -336.394  c
250.735 -336.394 250.108 -335.970 249.452 -335.123  c
249.452 -330.857 l
248.292 -330.857 l
248.292 -335.304 l
248.292 -336.035 247.999 -336.400 247.413 -336.400  c
246.831 -336.400 246.208 -335.974 245.544 -335.123  c
245.544 -330.857 l
h
f
2 J
10.0000 M
0 J
1.45000 M
newpath
125.073 -284.892 m
213.073 -284.892 l
213.073 -263.892 l
125.073 -263.892 l
125.073 -284.892 l
h
S
2 J
10.0000 M
0 J
1.45000 M
newpath
136.296 -269.711 m
135.710 -269.711 135.253 -269.879 134.925 -270.215  c
134.597 -270.550 134.433 -271.017 134.433 -271.615  c
134.433 -275.353 l
133.636 -275.353 l
133.636 -276.220 l
134.433 -276.220 l
134.433 -277.375 l
135.587 -277.486 l
135.587 -276.220 l
137.251 -276.220 l
137.251 -275.353 l
135.587 -275.353 l
135.587 -271.826 l
135.587 -270.994 135.946 -270.578 136.665 -270.578  c
136.817 -270.578 137.003 -270.603 137.222 -270.654  c
137.222 -269.857 l
136.866 -269.759 136.558 -269.711 136.296 -269.711  c
h
143.538 -270.062 m
142.765 -269.828 142.103 -269.711 141.552 -269.711  c
140.614 -269.711 139.850 -270.022 139.258 -270.645  c
138.666 -271.268 138.370 -272.076 138.370 -273.068  c
138.370 -274.033 138.631 -274.824 139.152 -275.441  c
139.674 -276.058 140.341 -276.367 141.153 -276.367  c
141.923 -276.367 142.518 -276.093 142.937 -275.547  c
143.357 -275.000 143.567 -274.222 143.567 -273.215  c
143.562 -272.857 l
139.548 -272.857 l
139.716 -271.345 140.456 -270.590 141.769 -270.590  c
142.249 -270.590 142.839 -270.718 143.538 -270.976  c
h
139.601 -273.724 m
142.407 -273.724 l
142.407 -274.908 141.966 -275.500 141.083 -275.500  c
140.196 -275.500 139.702 -274.908 139.601 -273.724  c
h
145.560 -269.857 m
145.560 -276.220 l
146.714 -276.220 l
146.714 -275.025 l
147.276 -275.916 147.999 -276.361 148.882 -276.361  c
149.733 -276.361 150.313 -275.916 150.622 -275.025  c
151.169 -275.920 151.880 -276.367 152.755 -276.367  c
153.317 -276.367 153.753 -276.202 154.062 -275.872  c
154.370 -275.542 154.524 -275.080 154.524 -274.486  c
154.524 -269.857 l
153.364 -269.857 l
153.364 -274.304 l
153.364 -275.031 153.077 -275.394 152.503 -275.394  c
151.905 -275.394 151.278 -274.970 150.622 -274.123  c
150.622 -269.857 l
149.462 -269.857 l
149.462 -274.304 l
149.462 -275.035 149.169 -275.400 148.583 -275.400  c
148.001 -275.400 147.378 -274.974 146.714 -274.123  c
146.714 -269.857 l
h
156.763 -267.543 m
156.763 -276.220 l
157.917 -276.220 l
157.917 -275.025 l
158.390 -275.916 159.099 -276.361 160.044 -276.361  c
160.810 -276.361 161.412 -276.082 161.852 -275.523  c
162.291 -274.965 162.511 -274.201 162.511 -273.232  c
162.511 -272.177 162.262 -271.327 161.764 -270.680  c
161.266 -270.034 160.610 -269.711 159.798 -269.711  c
159.044 -269.711 158.417 -270.000 157.917 -270.578  c
157.917 -267.543 l
h
157.917 -271.375 m
158.511 -270.843 159.077 -270.578 159.616 -270.578  c
160.726 -270.578 161.280 -271.424 161.280 -273.115  c
161.280 -274.607 160.788 -275.353 159.804 -275.353  c
159.159 -275.353 158.530 -275.004 157.917 -274.304  c
h
168.979 -270.062 m
168.206 -269.828 167.544 -269.711 166.993 -269.711  c
166.056 -269.711 165.291 -270.022 164.699 -270.645  c
164.107 -271.268 163.812 -272.076 163.812 -273.068  c
163.812 -274.033 164.072 -274.824 164.594 -275.441  c
165.115 -276.058 165.782 -276.367 166.595 -276.367  c
167.364 -276.367 167.959 -276.093 168.379 -275.547  c
168.799 -275.000 169.009 -274.222 169.009 -273.215  c
169.003 -272.857 l
164.989 -272.857 l
165.157 -271.345 165.897 -270.590 167.210 -270.590  c
167.690 -270.590 168.280 -270.718 168.979 -270.976  c
h
165.042 -273.724 m
167.849 -273.724 l
167.849 -274.908 167.407 -275.500 166.524 -275.500  c
165.638 -275.500 165.144 -274.908 165.042 -273.724  c
h
171.001 -269.857 m
171.001 -276.220 l
172.155 -276.220 l
172.155 -275.025 l
172.612 -275.916 173.276 -276.361 174.147 -276.361  c
174.265 -276.361 174.388 -276.351 174.517 -276.332  c
174.517 -275.254 l
174.317 -275.320 174.142 -275.353 173.989 -275.353  c
173.259 -275.353 172.647 -274.920 172.155 -274.052  c
172.155 -269.857 l
h
179.192 -270.666 m
178.501 -270.029 177.835 -269.711 177.194 -269.711  c
176.667 -269.711 176.229 -269.876 175.882 -270.206  c
175.534 -270.536 175.360 -270.953 175.360 -271.457  c
175.360 -272.152 175.652 -272.686 176.236 -273.059  c
176.820 -273.432 177.657 -273.619 178.747 -273.619  c
179.022 -273.619 l
179.022 -274.386 l
179.022 -275.125 178.644 -275.494 177.886 -275.494  c
177.276 -275.494 176.618 -275.306 175.911 -274.931  c
175.911 -275.886 l
176.688 -276.203 177.417 -276.361 178.097 -276.361  c
178.808 -276.361 179.332 -276.201 179.670 -275.881  c
180.008 -275.560 180.177 -275.062 180.177 -274.386  c
180.177 -271.504 l
180.177 -270.843 180.380 -270.513 180.786 -270.513  c
180.837 -270.513 180.911 -270.521 181.009 -270.537  c
181.091 -269.898 l
180.829 -269.773 180.540 -269.711 180.224 -269.711  c
179.685 -269.711 179.341 -270.029 179.192 -270.666  c
h
179.022 -271.293 m
179.022 -272.939 l
178.636 -272.951 l
178.003 -272.951 177.491 -272.831 177.101 -272.591  c
176.710 -272.350 176.515 -272.035 176.515 -271.644  c
176.515 -271.367 176.612 -271.133 176.808 -270.941  c
177.003 -270.750 177.241 -270.654 177.522 -270.654  c
178.003 -270.654 178.503 -270.867 179.022 -271.293  c
h
184.448 -269.711 m
183.862 -269.711 183.405 -269.879 183.077 -270.215  c
182.749 -270.550 182.585 -271.017 182.585 -271.615  c
182.585 -275.353 l
181.788 -275.353 l
181.788 -276.220 l
182.585 -276.220 l
182.585 -277.375 l
183.739 -277.486 l
183.739 -276.220 l
185.403 -276.220 l
185.403 -275.353 l
183.739 -275.353 l
183.739 -271.826 l
183.739 -270.994 184.099 -270.578 184.817 -270.578  c
184.970 -270.578 185.155 -270.603 185.374 -270.654  c
185.374 -269.857 l
185.019 -269.759 184.710 -269.711 184.448 -269.711  c
h
191.005 -269.857 m
191.005 -271.052 l
190.392 -270.158 189.647 -269.711 188.772 -269.711  c
188.218 -269.711 187.776 -269.885 187.448 -270.235  c
187.120 -270.585 186.956 -271.056 186.956 -271.650  c
186.956 -276.220 l
188.110 -276.220 l
188.110 -272.025 l
188.110 -271.549 188.180 -271.210 188.318 -271.008  c
188.457 -270.807 188.688 -270.707 189.013 -270.707  c
189.716 -270.707 190.380 -271.170 191.005 -272.095  c
191.005 -276.220 l
192.159 -276.220 l
192.159 -269.857 l
h
194.474 -269.857 m
194.474 -276.220 l
195.628 -276.220 l
195.628 -275.025 l
196.085 -275.916 196.749 -276.361 197.620 -276.361  c
197.737 -276.361 197.860 -276.351 197.989 -276.332  c
197.989 -275.254 l
197.790 -275.320 197.614 -275.353 197.462 -275.353  c
196.731 -275.353 196.120 -274.920 195.628 -274.052  c
195.628 -269.857 l
h
204.048 -270.062 m
203.274 -269.828 202.612 -269.711 202.062 -269.711  c
201.124 -269.711 200.359 -270.022 199.768 -270.645  c
199.176 -271.268 198.880 -272.076 198.880 -273.068  c
198.880 -274.033 199.141 -274.824 199.662 -275.441  c
200.184 -276.058 200.851 -276.367 201.663 -276.367  c
202.433 -276.367 203.027 -276.093 203.447 -275.547  c
203.867 -275.000 204.077 -274.222 204.077 -273.215  c
204.071 -272.857 l
200.058 -272.857 l
200.226 -271.345 200.966 -270.590 202.278 -270.590  c
202.759 -270.590 203.349 -270.718 204.048 -270.976  c
h
200.110 -273.724 m
202.917 -273.724 l
202.917 -274.908 202.476 -275.500 201.593 -275.500  c
200.706 -275.500 200.212 -274.908 200.110 -273.724  c
h
f
2 J
10.0000 M
0 J
1.45000 M
newpath
233.073 -284.892 m
321.073 -284.892 l
321.073 -263.892 l
233.073 -263.892 l
233.073 -284.892 l
h
S
2 J
10.0000 M
0 J
1.45000 M
newpath
241.123 -270.666 m
240.432 -270.029 239.766 -269.711 239.125 -269.711  c
238.598 -269.711 238.160 -269.876 237.812 -270.206  c
237.465 -270.536 237.291 -270.953 237.291 -271.457  c
237.291 -272.152 237.583 -272.686 238.167 -273.059  c
238.751 -273.432 239.588 -273.619 240.678 -273.619  c
240.953 -273.619 l
240.953 -274.386 l
240.953 -275.125 240.574 -275.494 239.816 -275.494  c
239.207 -275.494 238.549 -275.306 237.842 -274.931  c
237.842 -275.886 l
238.619 -276.203 239.348 -276.361 240.027 -276.361  c
240.738 -276.361 241.263 -276.201 241.601 -275.881  c
241.938 -275.560 242.107 -275.062 242.107 -274.386  c
242.107 -271.504 l
242.107 -270.843 242.311 -270.513 242.717 -270.513  c
242.768 -270.513 242.842 -270.521 242.939 -270.537  c
243.021 -269.898 l
242.760 -269.773 242.471 -269.711 242.154 -269.711  c
241.615 -269.711 241.271 -270.029 241.123 -270.666  c
h
240.953 -271.293 m
240.953 -272.939 l
240.566 -272.951 l
239.934 -272.951 239.422 -272.831 239.031 -272.591  c
238.641 -272.350 238.445 -272.035 238.445 -271.644  c
238.445 -271.367 238.543 -271.133 238.738 -270.941  c
238.934 -270.750 239.172 -270.654 239.453 -270.654  c
239.934 -270.654 240.434 -270.867 240.953 -271.293  c
h
244.469 -269.857 m
244.469 -276.220 l
245.623 -276.220 l
245.623 -275.025 l
246.186 -275.916 246.908 -276.361 247.791 -276.361  c
248.643 -276.361 249.223 -275.916 249.531 -275.025  c
250.078 -275.920 250.789 -276.367 251.664 -276.367  c
252.227 -276.367 252.662 -276.202 252.971 -275.872  c
253.279 -275.542 253.434 -275.080 253.434 -274.486  c
253.434 -269.857 l
252.273 -269.857 l
252.273 -274.304 l
252.273 -275.031 251.986 -275.394 251.412 -275.394  c
250.814 -275.394 250.187 -274.970 249.531 -274.123  c
249.531 -269.857 l
248.371 -269.857 l
248.371 -274.304 l
248.371 -275.035 248.078 -275.400 247.492 -275.400  c
246.910 -275.400 246.287 -274.974 245.623 -274.123  c
245.623 -269.857 l
h
255.672 -269.787 m
255.672 -279.109 l
256.826 -279.109 l
256.826 -275.025 l
257.299 -275.916 258.008 -276.361 258.953 -276.361  c
259.719 -276.361 260.321 -276.082 260.761 -275.523  c
261.200 -274.965 261.420 -274.201 261.420 -273.232  c
261.420 -272.177 261.171 -271.327 260.673 -270.680  c
260.175 -270.034 259.520 -269.711 258.707 -269.711  c
257.953 -269.711 257.326 -270.000 256.826 -270.578  c
256.686 -269.787 l
h
256.826 -271.375 m
257.420 -270.843 257.986 -270.578 258.525 -270.578  c
259.635 -270.578 260.189 -271.424 260.189 -273.115  c
260.189 -274.607 259.697 -275.353 258.713 -275.353  c
258.068 -275.353 257.439 -275.004 256.826 -274.304  c
h
263.225 -269.857 m
263.225 -276.220 l
264.379 -276.220 l
264.379 -269.857 l
h
263.225 -277.375 m
263.225 -278.529 l
264.379 -278.529 l
264.379 -277.375 l
h
271.357 -270.062 m
270.584 -269.828 269.922 -269.711 269.371 -269.711  c
268.434 -269.711 267.669 -270.022 267.077 -270.645  c
266.485 -271.268 266.189 -272.076 266.189 -273.068  c
266.189 -274.033 266.450 -274.824 266.972 -275.441  c
267.493 -276.058 268.160 -276.367 268.973 -276.367  c
269.742 -276.367 270.337 -276.093 270.757 -275.547  c
271.177 -275.000 271.387 -274.222 271.387 -273.215  c
271.381 -272.857 l
267.367 -272.857 l
267.535 -271.345 268.275 -270.590 269.588 -270.590  c
270.068 -270.590 270.658 -270.718 271.357 -270.976  c
h
267.420 -273.724 m
270.227 -273.724 l
270.227 -274.908 269.785 -275.500 268.902 -275.500  c
268.016 -275.500 267.521 -274.908 267.420 -273.724  c
h
273.379 -269.857 m
273.379 -276.220 l
274.533 -276.220 l
274.533 -275.025 l
275.143 -275.916 275.889 -276.361 276.771 -276.361  c
277.322 -276.361 277.762 -276.186 278.090 -275.837  c
278.418 -275.487 278.582 -275.017 278.582 -274.427  c
278.582 -269.857 l
277.428 -269.857 l
277.428 -274.052 l
277.428 -274.525 277.358 -274.862 277.220 -275.063  c
277.081 -275.264 276.852 -275.365 276.531 -275.365  c
275.824 -275.365 275.158 -274.902 274.533 -273.976  c
274.533 -269.857 l
h
282.736 -269.711 m
282.150 -269.711 281.693 -269.879 281.365 -270.215  c
281.037 -270.550 280.873 -271.017 280.873 -271.615  c
280.873 -275.353 l
280.076 -275.353 l
280.076 -276.220 l
280.873 -276.220 l
280.873 -277.375 l
282.027 -277.486 l
282.027 -276.220 l
283.691 -276.220 l
283.691 -275.353 l
282.027 -275.353 l
282.027 -271.826 l
282.027 -270.994 282.387 -270.578 283.105 -270.578  c
283.258 -270.578 283.443 -270.603 283.662 -270.654  c
283.662 -269.857 l
283.307 -269.759 282.998 -269.711 282.736 -269.711  c
h
285.027 -272.892 m
285.027 -273.759 l
290.230 -273.759 l
290.230 -272.892 l
h
292.258 -269.857 m
292.258 -279.109 l
293.412 -279.109 l
293.412 -269.857 l
h
295.727 -269.857 m
295.727 -276.220 l
296.881 -276.220 l
296.881 -269.857 l
h
295.727 -277.375 m
295.727 -278.529 l
296.881 -278.529 l
296.881 -277.375 l
h
299.219 -267.742 m
299.354 -268.744 l
300.021 -268.427 300.680 -268.269 301.328 -268.269  c
302.629 -268.269 303.279 -268.959 303.279 -270.338  c
303.279 -271.340 l
302.854 -270.449 302.154 -270.004 301.182 -270.004  c
300.420 -270.004 299.814 -270.281 299.365 -270.836  c
298.916 -271.390 298.691 -272.138 298.691 -273.080  c
298.691 -274.049 298.947 -274.838 299.459 -275.447  c
299.971 -276.056 300.633 -276.361 301.445 -276.361  c
302.156 -276.361 302.768 -276.072 303.279 -275.494  c
303.279 -276.220 l
304.439 -276.220 l
304.439 -271.591 l
304.439 -270.595 304.388 -269.858 304.284 -269.380  c
304.181 -268.901 303.986 -268.509 303.701 -268.205  c
303.197 -267.670 302.414 -267.402 301.352 -267.402  c
300.609 -267.402 299.898 -267.515 299.219 -267.742  c
h
303.279 -272.060 m
303.279 -274.703 l
302.771 -275.230 302.219 -275.494 301.621 -275.494  c
301.090 -275.494 300.674 -275.281 300.373 -274.855  c
300.072 -274.429 299.922 -273.845 299.922 -273.103  c
299.922 -271.709 300.412 -271.011 301.393 -271.011  c
302.061 -271.011 302.689 -271.361 303.279 -272.060  c
h
306.678 -269.857 m
306.678 -279.109 l
307.832 -279.109 l
307.832 -275.025 l
308.441 -275.916 309.188 -276.361 310.070 -276.361  c
310.621 -276.361 311.061 -276.186 311.389 -275.837  c
311.717 -275.487 311.881 -275.017 311.881 -274.427  c
311.881 -269.857 l
310.727 -269.857 l
310.727 -274.052 l
310.727 -274.525 310.657 -274.862 310.519 -275.063  c
310.380 -275.264 310.150 -275.365 309.830 -275.365  c
309.123 -275.365 308.457 -274.902 307.832 -273.976  c
307.832 -269.857 l
h
316.035 -269.711 m
315.449 -269.711 314.992 -269.879 314.664 -270.215  c
314.336 -270.550 314.172 -271.017 314.172 -271.615  c
314.172 -275.353 l
313.375 -275.353 l
313.375 -276.220 l
314.172 -276.220 l
314.172 -277.375 l
315.326 -277.486 l
315.326 -276.220 l
316.990 -276.220 l
316.990 -275.353 l
315.326 -275.353 l
315.326 -271.826 l
315.326 -270.994 315.686 -270.578 316.404 -270.578  c
316.557 -270.578 316.742 -270.603 316.961 -270.654  c
316.961 -269.857 l
316.605 -269.759 316.297 -269.711 316.035 -269.711  c
h
f
2 J
10.0000 M
0 J
1.45000 M
newpath
128.131 -385.892 m
75.0158 -345.892 l
S
2 J
10.0000 M
0 J
1.45000 M
newpath
61.0732 -324.892 m
61.0732 -284.892 l
S
2 J
10.0000 M
0 J
1.45000 M
newpath
156.016 -385.892 m
209.131 -345.892 l
S
2 J
10.0000 M
0 J
1.45000 M
newpath
213.778 -324.892 m
178.368 -284.892 l
S
2 J
10.0000 M
0 J
1.45000 M
newpath
232.368 -324.892 m
267.778 -284.892 l
S
2 J
10.0000 M
Q
[ 1.00000 0.00000 0.00000 1.00000 0.00000 0.00000 ] defaultmatrix matrix concatmatrix setmatrix
cliprestore

%%Trailer
%%EOF
