%!PS-Adobe-3.0 EPSF-3.0
%%BoundingBox: 0 0 483 113
%%Creator: yExport 1.5
%%Producer: org.freehep.graphicsio.ps.EPSGraphics2D Revision: 12753 
%%For: 
%%Title: 
%%CreationDate: Friday, June 23, 2017 1:25:30 PM CDT
%%LanguageLevel: 3
%%EndComments
%%BeginProlog
100 dict dup begin

%
% File: org/freehep/graphicsio.ps/PSProlog.txt
% Author: Charles Loomis
%

% Redefinitions which save some space in the output file.  These are also
% the same as the PDF operators.
/q {gsave} def
/Q {grestore} def

/n {newpath} def
/m {moveto} def
/l {lineto} def
/c {curveto} def
/h {closepath} def

/re {4 -2 roll moveto
     dup 0 exch rlineto exch 0 rlineto
     neg 0 exch rlineto closepath} def

/f {fill} def
/f* {eofill} def
/F {gsave vg&FC fill grestore} def
/F* {gsave vg&FC eofill grestore} def

/s {closepath stroke} def
/S {stroke} def

/b {closepath gsave vg&FC fill grestore
    gsave stroke grestore newpath} def
/B {gsave vg&FC fill grestore gsave stroke grestore newpath} def
/b* {closepath gsave vg&FC eofill grestore
    gsave stroke grestore newpath} def
/B* {gsave vg&FC eofill grestore gsave stroke grestore newpath} def

/g {1 array astore /vg&fcolor exch def} def
/G {setgray} def
/k {4 array astore /vg&fcolor exch def} def
/K {setcmykcolor} def
/rg {3 array astore /vg&fcolor exch def} def
/RG {setrgbcolor} def

% Initialize the fill color.
0 0 0 rg

/vg&FC {mark vg&fcolor aload pop
        counttomark 1 eq {G} if
        counttomark 3 eq {RG} if
        counttomark 4 eq {K} if
        cleartomark } def

/vg&DFC {/vg&fcolor exch def} def

/vg&C {mark exch aload pop
       counttomark 1 eq {G} if
       counttomark 3 eq {RG} if
       counttomark 4 eq {K} if
       cleartomark } def

/w {setlinewidth} def
/j {setlinejoin} def
/J {setlinecap} def
/M {setmiterlimit} def
/d {setdash} def
/i {setflat} def

/W {clip} def
/W* {eoclip} def

% Setup the default graphics state.
% (black; 1 pt. linewidth; miter join; butt-ends; solid)
/defaultGraphicsState {0 g 1 w 0 j 0 J [] 0 d} def

% Emulation of the rectangle operators for PostScript implementations
% which do not implement all Level 2 features.  This is an INCOMPLETE
% emulation; only the "x y width height rect..." form is emulated.
/*rf {gsave newpath re fill grestore} def
/*rs {gsave newpath re stroke grestore} def
/*rc {newpath re clip} def
/rf  /rectfill where {pop /rectfill}{/*rf} ifelse load def
/rs  /rectstroke where {pop /rectstroke}{/*rs} ifelse load def
/rc  /rectclip where {pop /rectclip}{/*rc} ifelse load def

% Emulation of the selectfont operator.  This includes a 20% increase in
% the fontsize which is necessary to get sizes similar to the Java fonts.
/*sf {exch findfont exch
      dup type /arraytype eq {makefont}{scalefont} ifelse setfont} bind def
/sf /selectfont where {pop {1.2 mul selectfont}}{{1.2 mul *sf}} ifelse def

% Special version of stroke which allows the dash pattern to continue
% across path segments.  (This may be needed for PostScript although
% modern printers seem to do this correctly.)
/vg&stroke {
  currentdash pop length 0 eq
  {stroke}
  {
    currentdash /vg&doffset exch def pop
    flattenpath
    {m vg&resetdash}
    {2 copy
     currentpoint
     3 -1 roll sub dup mul
     3 1 roll sub dup mul
     add sqrt
     3 1 roll l
     currentdash 3 -1 roll add setdash}
     {}
     {h vg&resetdash}
     pathforall
     stroke
     vg&resetdash
  } ifelse
} def
/vg&resetdash {currentdash pop vg&doffset setdash} def

% Initialize variables for safety.
/delta 0 def
/xv 0 def  /yv 0 def  /width 0 def  /height 0 def

% Initialize to portrait INTERNATIONAL (Letter-height, A4-width) page.
/pw 595 def  /ph 791  def  /po true def /ftp false def

% Initialize margins to 20 points.
/ml 20 def  /mr 20 def  /mt 20 def  /mb 20 def

% Temporary matrices.
/smatrix 0 def  /nmatrix 0 def

% set page size (usage: <page width><page height> setpagesize)
/setpagesize {/ph exch def /pw exch def} def

% set page orientation (usage: portrait or landscape)
/portrait {/po true def} def
/landscape {/po false def} def

% force natural size for image (usage: naturalsize)
/naturalsize {/ftp false def} def

% resize image to fill page (usage: fittopage)
/fittopage {/ftp true def} def

% set margins of the page (usage: <left><bottom><top><right> setmargins)
/setmargins {/mr exch def /mt exch def /mb exch def /ml exch def} def

% set the graphic's size (usage: <width><height> setsize)
/setsize {/gh exch def /gw exch def} def

% set the graphic's origin (usage: <x0><y0> setorigin)
/setorigin {/gy exch def /gx exch def} def

% calculate image center
/imagecenter {pw ml sub mr sub 2 div ml add
              ph mt sub mb sub 2 div mb add} def

% calculate the necessary scaling
/imagescale {po {gw}{gh} ifelse pw ml sub mr sub div
             po {gh}{gw} ifelse ph mt sub mb sub div
             2 copy lt {exch} if pop
             ftp not {1 2 copy lt {exch} if pop} if
             1 exch div /sfactor exch def
             /gw gw sfactor mul def /gh gh sfactor mul def} def

% calculate image origin
/imageorigin {pw ml sub mr sub 2 div ml add
              po {gw}{gh} ifelse 2 div sub
              ph mt sub mb sub 2 div mb add
              po {gh}{gw} ifelse 2 div po {add}{sub} ifelse} def

% calculate the clipping origin
/cliporigin  {pw ml sub mr sub 2 div ml add
              po {gw}{gh} ifelse 2 div sub floor
              ph mt sub mb sub 2 div mb add
              po {gh}{gw} ifelse 2 div sub floor} def

% Set the clipping region to the bounding box.
/cliptobounds {cliporigin po {gw}{gh} ifelse 1 add
                          po {gh}{gw} ifelse 1 add rc} def

% set the base transformation matrix (usage: setbasematrix)
/setbasematrix {imageorigin translate
                po {0}{90} ifelse rotate
                sfactor sfactor neg scale
                /defaultmatrix matrix currentmatrix def} def

% The lower-right bias in drawing 1 pt. wide lines.
/bias  {q 0.5 0.5 translate} def
/unbias {Q} def

% Define the composite fonts used to print Unicode strings.
% Undefine particular values in an encoding array.
/vg&undef { {exch dup 3 -1 roll /.notdef put} forall } def
/vg&redef { {3 -1 roll dup 4 2 roll put} forall } def

% usage: key encoding basefontname vg&newbasefont font
/vg&newbasefont {
findfont dup length dict copy
  begin
    currentdict /FID undef
    /Encoding exch def
    dup /FontName exch def
    currentdict
  end
definefont
} def

% usage: key encoding basefontname vg&newskewedbasefont font
/vg&newskewedbasefont {
findfont dup length dict copy
  begin
    currentdict /FID undef
    /Encoding exch def
    dup /FontName exch def
    exch FontMatrix exch matrix concatmatrix /FontMatrix exch def
    currentdict
  end
definefont
} def

% usage: basekey suffix vg&nconcat name
/vg&nconcat {
  2 {dup length string cvs exch} repeat
  dup length 3 -1 roll dup length 3 -1 roll add string
  dup 0 4 -1 roll dup length 5 1 roll putinterval
  dup 4 -2 roll exch putinterval cvn
} def

%usage: fontname vg&skewmatrix matrix
/vg&skewmatrix {
findfont dup /FontInfo known
  {
    /FontInfo get dup /ItalicAngle known
    {
      [ 1 0 4 -1 roll /ItalicAngle get neg dup sin exch cos div 1 0 0 ]
    }
    {pop matrix} ifelse
  }
  {pop matrix} ifelse
} def

% usage: newfontname basefontname vg&newcompositefont --
/vg&newcompositefont {
/vg&fstyle exch def
/vg&bfont exch def
/vg&fname exch def
<<
/FontStyleBits vg&fstyle
/FontType 0
/FontMatrix matrix
/FontName vg&fname
/FMapType 2
/Encoding [ 0 1 255 {pop 6} for ]
          dup 16#00 0 put % Latin
          dup 16#03 1 put % Greek
          dup 16#20 2 put % Punctuation
          dup 16#21 3 put % Arrows
          dup 16#22 4 put % MathOps
          dup 16#27 5 put % Dingbats

/FDepVector [
vg&bfont /-UC-Latin vg&nconcat UCLatinEncoding
vg&bfont vg&newbasefont

vg&bfont vg&skewmatrix
vg&bfont /-UC-Greek vg&nconcat UCGreekEncoding
/Symbol vg&newskewedbasefont

vg&bfont /-UC-Punctuation vg&nconcat UCPunctuationEncoding
vg&bfont vg&newbasefont

/Arrows-UC findfont
/MathOps-UC findfont
/Dingbats-UC findfont
/Undefined-UC findfont ]
>>
vg&fname exch definefont pop
} def

% Null encoding vector (all elements set to .notdef)
/NullEncoding [ 256 {/.notdef} repeat ] def

% Unicode Latin encoding (unicode codes \u0000-\u00ff)
/UCLatinEncoding
  ISOLatin1Encoding dup length array copy
  dup 16#60 /grave put
  [ 16#90 16#91 16#92 16#93 16#94 16#95 16#96
    16#97 16#98 16#9a 16#9b 16#9d 16#9e 16#9f
  ] vg&undef
  def

% Unicode Greek encoding (unicode codes \u0370-\u03ff)
/UCGreekEncoding
  NullEncoding dup length array copy
  << 16#91 /Alpha    16#92 /Beta      16#93 /Gamma    16#94 /Delta
     16#95 /Epsilon  16#96 /Zeta      16#97 /Eta      16#98 /Theta
     16#99 /Iota     16#9a /Kappa     16#9b /Lambda   16#9c /Mu
     16#9d /Nu       16#9e /Xi        16#9f /Omicron  16#a0 /Pi
     16#a1 /Rho      16#a3 /Sigma     16#a4 /Tau      16#a5 /Upsilon
     16#a6 /Phi      16#a7 /Chi       16#a8 /Psi      16#a9 /Omega
     16#b1 /alpha    16#b2 /beta      16#b3 /gamma    16#b4 /delta
     16#b5 /epsilon  16#b6 /zeta      16#b7 /eta      16#b8 /theta
     16#b9 /iota     16#ba /kappa     16#bb /lambda   16#bc /mu
     16#bd /nu       16#be /xi        16#bf /omicron  16#c0 /pi
     16#c1 /rho      16#c2 /sigma1    16#c3 /sigma    16#c4 /tau
     16#c5 /upsilon  16#c6 /phi1      16#c7 /chi      16#c8 /psi
     16#c9 /omega    16#7e /semicolon 16#87 /dotmath  16#d1 /theta1
     16#d2 /Upsilon1 16#d5 /phi       16#d6 /omega1
  >> vg&redef
  def

% Unicode punctuation encoding (unicode codes \u2000-\u206f)
/UCPunctuationEncoding
  NullEncoding dup length array copy
  << 16#10 /hyphen          16#11 /hyphen              16#12 /endash
     16#13 /emdash          16#18 /quoteleft           16#19 /quoteright
     16#1a /quotesinglbase  16#1b /quotesingle         16#1c /quotedblleft
     16#1d /quotedblright   16#1e /quotedblbase        16#1f /quotedbl
     16#20 /dagger          16#21 /daggerdbl           16#22 /bullet
     16#24 /period          16#26 /ellipsis            16#27 /periodcentered
     16#30 /perthousand     16#44 /fraction
     16#70 /zerosuperior    16#74 /foursuperior        16#75 /fivesuperior
     16#76 /sixsuperior     16#77 /sevensuperior       16#78 /eightsuperior
     16#79 /ninesuperior    16#7b /hyphensuperior      16#7d /parenleftsuperior
     16#7e /parenrightsuperior
     16#80 /zeroinferior    16#84 /fourinferior        16#85 /fiveinferior
     16#81 /oneinferior     16#82 /twoinferior         16#83 /threeinferior
     16#86 /sixinferior     16#87 /seveninferior       16#88 /eightinferior
     16#89 /nineinferior    16#8b /hypheninferior      16#8d /parenleftinferior
     16#8e /parenrightinferior
  >> vg&redef
  def

% Unicode mathematical operators encoding (unicode codes \u2200-\u22ff)
/UCMathOpsEncoding
  NullEncoding dup length array copy
  << 16#00 /universal       16#02 /partialdiff         16#03 /existential
     16#05 /emptyset        16#06 /Delta               16#07 /gradient
     16#08 /element         16#09 /notelement          16#0b /suchthat
     16#0f /product         16#11 /summation           16#12 /minus
     16#15 /fraction        16#17 /asteriskmath        16#19 /bullet
     16#1a /radical         16#1d /proportional        16#1e /infinity
     16#20 /angle           16#23 /bar                 16#27 /logicaland
     16#28 /logicalor       16#29 /intersection        16#2a /union
     16#2b /integral        16#34 /therefore           16#36 /colon
     16#3c /similar         16#45 /congruent           16#48 /approxequal
     16#60 /notequal        16#61 /equivalence         16#64 /lessequal
     16#65 /greaterequal    16#82 /propersubset        16#83 /propersuperset
     16#86 /reflexsubset    16#87 /reflexsuperset      16#95 /circleplus
     16#97 /circlemultiply  16#a5 /perpendicular       16#03 /existential
     16#c0 /logicaland      16#c1 /logicalor           16#c2 /intersection
     16#c3 /union           16#c4 /diamond             16#c5 /dotmath
  >> vg&redef
  def

% Unicode arrows encoding (unicode codes \u2190-\u21ff)
% Also includes those "Letterlike" unicode characters
% which are available in the symbol font. (unicode codes \u2100-\u214f)
/UCArrowsEncoding
  NullEncoding dup length array copy
  << 16#11 /Ifraktur        16#1c /Rfraktur            16#22 /trademarkserif
     16#35 /aleph
     16#90 /arrowleft       16#91 /arrowup             16#92 /arrowright
     16#93 /arrowdown       16#94 /arrowboth           16#d0 /arrowdblleft
     16#d1 /arrowdblup      16#d2 /arrowdblright       16#d3 /arrowdbldown
     16#d4 /arrowdblboth
  >> vg&redef
  def

/ZapfDingbats findfont /Encoding get
dup length array copy /UCDingbatsEncoding exch def
16#20 1 16#7f {
  dup 16#20 sub exch
  UCDingbatsEncoding exch get
  UCDingbatsEncoding 3 1 roll put
} for
16#a0 1 16#ff {
  dup 16#40 sub exch
  UCDingbatsEncoding exch get
  UCDingbatsEncoding 3 1 roll put
} for
UCDingbatsEncoding [ 16#c0 1 16#ff {} for ] vg&undef
[ 16#00  16#05 16#0a 16#0b  16#28 16#4c 16#4e  16#53 16#54 16#55  16#57 16#5f
  16#60  16#68 16#69 16#6a  16#6b 16#6c 16#6d  16#6e 16#6f 16#70  16#71 16#72
  16#73  16#74 16#75 16#95  16#96 16#97 16#b0  16#bf
] vg&undef pop

% Define the base fonts which don't change.
/Undefined-UC NullEncoding       /Helvetica    vg&newbasefont pop
/MathOps-UC   UCMathOpsEncoding  /Symbol       vg&newbasefont pop
/Arrows-UC    UCArrowsEncoding   /Symbol       vg&newbasefont pop
/Dingbats-UC  UCDingbatsEncoding /ZapfDingbats vg&newbasefont pop

% Make the SansSerif composite fonts.
/SansSerif /Helvetica 16#00 vg&newcompositefont
/SansSerif-Bold /Helvetica-Bold 16#01 vg&newcompositefont
/SansSerif-Italic /Helvetica-Oblique 16#02 vg&newcompositefont
/SansSerif-BoldItalic /Helvetica-BoldOblique 16#03 vg&newcompositefont

% Make the Serif composite fonts.
/Serif /Times-Roman 16#00 vg&newcompositefont
/Serif-Bold /Times-Bold 16#01 vg&newcompositefont
/Serif-Italic /Times-Italic 16#02 vg&newcompositefont
/Serif-BoldItalic /Times-BoldItalic 16#03 vg&newcompositefont

% Make the Monospaced composite fonts.
/Monospaced /Courier 16#00 vg&newcompositefont
/Monospaced-Bold /Courier-Bold 16#01 vg&newcompositefont
/Monospaced-Italic /Courier-Oblique 16#02 vg&newcompositefont
/Monospaced-BoldItalic /Courier-BoldOblique 16#03 vg&newcompositefont

% Make the Dialog composite fonts.
/Dialog /Helvetica 16#00 vg&newcompositefont
/Dialog-Bold /Helvetica-Bold 16#01 vg&newcompositefont
/Dialog-Italic /Helvetica-Oblique 16#02 vg&newcompositefont
/Dialog-BoldItalic /Helvetica-BoldOblique 16#03 vg&newcompositefont

% Make the DialogInput composite fonts.
/DialogInput /Courier 16#00 vg&newcompositefont
/DialogInput-Bold /Courier-Bold 16#01 vg&newcompositefont
/DialogInput-Italic /Courier-Oblique 16#02 vg&newcompositefont
/DialogInput-BoldItalic /Courier-BoldOblique 16#03 vg&newcompositefont

% Make the Typewriter composite fonts (JDK 1.1 only).
/Typewriter /Courier 16#00 vg&newcompositefont
/Typewriter-Bold /Courier-Bold 16#01 vg&newcompositefont
/Typewriter-Italic /Courier-Oblique 16#02 vg&newcompositefont
/Typewriter-BoldItalic /Courier-BoldOblique 16#03 vg&newcompositefont


/cfontH {
 dup /fontsize exch def /SansSerif exch sf
 /vg&fontstyles [{cfontH} {cfontHB} {cfontHI} {cfontHBI}] def
} def
/cfontHB {
  dup /fontsize exch def /SansSerif-Bold exch sf
 /vg&fontstyles [{cfontH} {cfontHB} {cfontHI} {cfontHBI}] def
} def
/cfontHI {
 dup /fontsize exch def /SansSerif-Italic exch sf
 /vg&fontstyles [{cfontH} {cfontHB} {cfontHI} {cfontHBI}] def
} def
/cfontHBI {
 dup /fontsize exch def /SansSerif-BoldItalic exch sf
 /vg&fontstyles [{cfontH} {cfontHB} {cfontHI} {cfontHBI}] def
} def

/cfontT {
 dup /fontsize exch def /Serif exch sf
 /vg&fontstyles [{cfontT} {cfontTB} {cfontTI} {cfontTBI}] def
} def
/cfontTB {
 dup /fontsize exch def /Serif-Bold exch sf
 /vg&fontstyles [{cfontT} {cfontTB} {cfontTI} {cfontTBI}] def
} def
/cfontTI {
 dup /fontsize exch def /Serif-Italic exch sf
 /vg&fontstyles [{cfontT} {cfontTB} {cfontTI} {cfontTBI}] def
} def
/cfontTBI {
 dup /fontsize exch def /Serif-BoldItalic exch sf
 /vg&fontstyles [{cfontT} {cfontTB} {cfontTI} {cfontTBI}] def
} def

/cfontC {
 dup /fontsize exch def /Typewriter exch sf
 /vg&fontstyles [{cfontC} {cfontCB} {cfontCI} {cfontCBI}] def
} def
/cfontCB {
 dup /fontsize exch def /Typewriter-Bold exch sf
 /vg&fontstyles [{cfontC} {cfontCB} {cfontCI} {cfontCBI}] def
} def
/cfontCI {
 dup /fontsize exch def /Typewriter-Italic exch sf
 /vg&fontstyles [{cfontC} {cfontCB} {cfontCI} {cfontCBI}] def
} def
/cfontCBI {
 dup /fontsize exch def /Typewriter-BoldItalic exch sf
 /vg&fontstyles [{cfontC} {cfontCB} {cfontCI} {cfontCBI}] def
} def

% Darken or lighten the current color.
/darken {0.7 exch exp 3 copy
         q 4 -1 roll vg&C
         currentrgbcolor 3 {4 -2 roll mul} repeat
         3 array astore Q} def

/displayColorMap
<< /Cr   [1.00 0.00 0.00]       /Cg     [0.00 1.00 0.00]
   /Cb   [0.00 0.00 1.00]       /Cc     [1.00 0.00 0.00 0.00]
   /Cm   [0.00 1.00 0.00 0.00]  /Cy     [0.00 0.00 1.00 0.00]
   /Co   [1.00 0.78 0.00]       /Cp     [1.00 0.67 0.67]
   /Cw   [1   ]                 /Cgrl   [0.75]
   /Cgr  [0.50]                 /Cgrd   [0.25]
   /Ck   [0   ]
   /CGr  [1.00 0.00 0.00]       /CGg    [0.00 1.00 0.00]
   /CGb  [0.00 0.00 1.00]       /CGc    [1.00 0.00 0.00 0.00]
   /CGm  [0.00 1.00 0.00 0.00]  /CGy    [0.00 0.00 1.00 0.00]
   /CGo  [1.00 0.78 0.00]       /CGp    [1.00 0.67 0.67]
   /CGw  [1   ]                 /CGgrl  [0.75]
   /CGgr [0.50]                 /CGgrd  [0.25]
   /CGk  [0   ]
   /CIr  [1.00 0.00 0.00]       /CIg    [0.00 1.00 0.00]
   /CIb  [0.00 0.00 1.00]       /CIc    [1.00 0.00 0.00 0.00]
   /CIm  [0.00 1.00 0.00 0.00]  /CIy    [0.00 0.00 1.00 0.00]
   /CIo  [1.00 0.78 0.00]       /CIp    [1.00 0.67 0.67]
   /CIw  [1   ]                 /CIgrl  [0.75]
   /CIgr [0.50]                 /CIgrd  [0.25]
   /CIk  [0   ]
>> def

/printColorMap
<< /Cr   [1.00 0.33 0.33]       /Cg     [0.33 1.00 0.33]
   /Cb   [0.33 0.33 1.00]       /Cc     [1.00 0.00 0.00 0.00]
   /Cm   [0.00 1.00 0.00 0.00]  /Cy     [0.00 0.00 1.00 0.00]
   /Co   [1.00 0.78 0.00]       /Cp     [1.00 0.67 0.67]
   /Cw   [1   ]                 /Cgrl   [0.75]
   /Cgr  [0.50]                 /Cgrd   [0.25]
   /Ck   [0   ]
   /CGr  [1.00 0.33 0.33]       /CGg    [0.33 1.00 0.33]
   /CGb  [0.33 0.33 1.00]       /CGc    [1.00 0.00 0.00 0.00]
   /CGm  [0.00 1.00 0.00 0.00]  /CGy    [0.00 0.00 1.00 0.00]
   /CGo  [1.00 0.78 0.00]       /CGp    [1.00 0.67 0.67]
   /CGw  [1   ]                 /CGgrl  [0.75]
   /CGgr [0.50]                 /CGgrd  [0.25]
   /CGk  [0   ]
   /CIr  [1.00 0.33 0.33]       /CIg    [0.33 1.00 0.33]
   /CIb  [0.33 0.33 1.00]       /CIc    [1.00 0.00 0.00 0.00]
   /CIm  [0.00 1.00 0.00 0.00]  /CIy    [0.00 0.00 1.00 0.00]
   /CIo  [1.00 0.78 0.00]       /CIp    [1.00 0.67 0.67]
   /CIw  [1   ]                 /CIgrl  [0.75]
   /CIgr [0.50]                 /CIgrd  [0.25]
   /CIk  [0   ]
>> def

/grayColorMap
<< /Cr   [0   ]                 /Cg     [0   ]
   /Cb   [0   ]                 /Cc     [0   ]
   /Cm   [0   ]                 /Cy     [0   ]
   /Co   [0   ]                 /Cp     [0   ]
   /Cw   [0   ]                 /Cgrl   [0   ]
   /Cgr  [0   ]                 /Cgrd   [0   ]
   /Ck   [0   ]
   /CGr  [0.75]                 /CGg    [1   ]
   /CGb  [0.50]                 /CGc    [0.75]
   /CGm  [0.50]                 /CGy    [1   ]
   /CGo  [0.75]                 /CGp    [1   ]
   /CGw  [0   ]                 /CGgrl  [0.25]
   /CGgr [0.50]                 /CGgrd  [0.75]
   /CGk  [1   ]
   /CIr  [1   ]                 /CIg    [1   ]
   /CIb  [1   ]                 /CIc    [1   ]
   /CIm  [1   ]                 /CIy    [1   ]
   /CIo  [1   ]                 /CIp    [1   ]
   /CIw  [1   ]                 /CIgrl  [1   ]
   /CIgr [1   ]                 /CIgrd  [1   ]
   /CIk  [1   ]
>> def

/bwColorMap
<< /Cr   [0   ]                 /Cg     [0   ]
   /Cb   [0   ]                 /Cc     [0   ]
   /Cm   [0   ]                 /Cy     [0   ]
   /Co   [0   ]                 /Cp     [0   ]
   /Cw   [0   ]                 /Cgrl   [0   ]
   /Cgr  [0   ]                 /Cgrd   [0   ]
   /Ck   [0   ]
   /CGr  [1   ]                 /CGg    [1   ]
   /CGb  [1   ]                 /CGc    [1   ]
   /CGm  [1   ]                 /CGy    [1   ]
   /CGo  [1   ]                 /CGp    [1   ]
   /CGw  [0   ]                 /CGgrl  [1   ]
   /CGgr [1   ]                 /CGgrd  [1   ]
   /CGk  [1   ]
   /CIr  [1   ]                 /CIg    [1   ]
   /CIb  [1   ]                 /CIc    [1   ]
   /CIm  [1   ]                 /CIy    [1   ]
   /CIo  [1   ]                 /CIp    [1   ]
   /CIw  [1   ]                 /CIgrl  [1   ]
   /CIgr [1   ]                 /CIgrd  [1   ]
   /CIk  [1   ]
>> def

%
% The following routines handle the alignment of and printing of
% tagged strings.
%

% Predefine the bounding box values.
/bbllx 0 def /bblly 0 def /bburx 0 def /bbury 0 def

% This routine pops the first unicode character off of a string and returns
% the remainder of the string, the character code of first character,
% and a "true" if the string was non-zero length.
% <string>      popfirst <remaining string> <true>
% <null string> popfirst <false>
/popfirst {
  dup length 1 gt
    {dup 0 get /vg&fbyte exch def
     dup 1 get /vg&cbyte exch def
     dup length 2 sub 2 exch getinterval true}
    {pop false} ifelse
} def

% This routine shows a single unicode character given the font and
% character codes.
% <font code> <char code> unicharshow --
/unicharshow {
  2 string
  dup 0 5 -1 roll put
  dup 1 4 -1 roll put
  internalshow
} def

% This is an internal routine to alternate between determining the
% bounding box for stringsize and showing the string for recshow.
% <string> internalshow --
/internalshow {show} def

% This is an internal routine to alternate between determining the
% bounding box for stringsize and stroking various ornaments.
% <string> internalstroke --
/internalstroke {S} def

% Sets up internalshow to use the null device to determine string size.
% -- nullinternalshow --
/nullinternalshow {/internalshow {false charpath flattenpath
                                  pathbbox updatebbox} def} def

% Sets up internalstroke to use the null device to determine string size.
% -- nullinternalstroke --
/nullinternalstroke {
 /internalstroke {flattenpath pathbbox updatebbox} def} def

% This routine tests to see if the character code matches the first
% character of a string.
% <char code> <string> testchar <char code> <true or false>
/testchar {exch dup 3 -1 roll 0 get eq} def

% Raise the text baseline for superscripts.
% -- raise --
/raise {
  0 fontsize 2 div rmoveto
  /fontsize fontsize 2 mul 3 div def
  currentfont /FontName get fontsize sf
} def

% Un-raise the text baseline for superscripts.
% -- unraise --
/unraise {
  /fontsize fontsize 1.5 mul def
  0 fontsize 2 div neg rmoveto
} def

% Lower the text baseline for subscripts.
% -- lower --
/lower {
  0 fontsize 3 div neg rmoveto
  /fontsize fontsize 2 mul 3 div def
  currentfont /FontName get fontsize sf
} def

% Un-lower the text baseline for subscripts.
% -- unlower --
/unlower {
  /fontsize fontsize 1.5 mul def
  0 fontsize 3 div rmoveto
} def

% Compare the top two elements on the stack and leave only the
% larger one.
/maxval {2 copy gt {pop} {exch pop} ifelse} def

% Tokenize a string.  Do not use the usual PostScript token because
% parentheses will not be interpreted correctly because of rescanning
% of the string.
/vg&token {/vg&string exch def /vg&index -1 def /vg&level 0 def
0 2 vg&string length 2 sub {
  dup dup 1 add exch vg&string exch get 8 bitshift vg&string 3 -1 roll get or
  dup 16#f0fe eq {pop 1}{16#f0ff eq {-1}{0} ifelse} ifelse
  /vg&level exch vg&level add def
  vg&level 0 eq {/vg&index exch def exit} if pop
} for
vg&index 0 ge {
  vg&string vg&index 2 add dup vg&string length exch sub getinterval
  vg&index 2 gt {vg&string 2 vg&index 2 sub getinterval}{()} ifelse
  true}
{false} ifelse
} bind def

% Recursively show an unicode string.
% <string> recshow --
/recshow {
  popfirst
  {
    % Test to see if this is a string attribute.
    vg&fbyte 16#f0 and 16#e0 eq
    {
      q

      % Font style.
      currentfont dup /FontStyleBits known {/FontStyleBits get}{pop 0} ifelse
      vg&cbyte or vg&fontstyles exch get fontsize exch exec

      vg&token pop recshow currentpoint Q m recshow
    }
    {
      vg&fbyte 16#F8 and 16#F0 eq {

        % Superscript and/or subscript.
        vg&cbyte 16#00 eq {
          vg&token pop exch vg&token pop 3 -1 roll
          q raise recshow unraise currentpoint pop Q exch
          q lower recshow unlower currentpoint pop Q
          maxval currentpoint exch pop m recshow } if

        % Strikeout.
        vg&cbyte 16#01 eq {
          vg&token pop currentpoint 3 -1 roll recshow
          q 0 J vg&underline vg&uthick w
          currentpoint 4 -2 roll fontsize 3 div add moveto
          fontsize 3 div add lineto internalstroke Q
          recshow} if

        % Underline.
        vg&cbyte 16#02 eq {
          vg&token pop currentpoint 3 -1 roll recshow
          q 0 J vg&underline vg&uthick w
          currentpoint 4 -2 roll vg&uoffset add moveto
          vg&uoffset add lineto internalstroke Q
          recshow} if

        % Dashed underline.
        vg&cbyte 16#03 eq {
          vg&token pop currentpoint 3 -1 roll recshow
          q 0 J [ vg&uthick 5 mul vg&uthick 2 mul] 0 d
          vg&underline vg&uthick w
          currentpoint 4 -2 roll vg&uoffset add moveto
          vg&uoffset add lineto internalstroke Q
          recshow} if

        % Dotted underline.
        vg&cbyte 16#04 eq {
          vg&token pop currentpoint 3 -1 roll recshow
          q 1 J [ 0 vg&uthick 3 mul] 0 d
          vg&underline vg&uthick w
          currentpoint 4 -2 roll vg&uoffset add moveto
          vg&uoffset add lineto internalstroke Q
          recshow} if

        % Thick underline.
        vg&cbyte 16#05 eq {
          vg&token pop currentpoint 3 -1 roll recshow
          q 0 J vg&underline vg&uthick 2 mul w
          currentpoint 4 -2 roll vg&uoffset vg&uthick 2 div sub add moveto
          vg&uoffset vg&uthick 2 div sub add lineto internalstroke Q
          recshow} if

        % Gray thick underline.
        vg&cbyte 16#06 eq {
          vg&token pop currentpoint 3 -1 roll recshow
          q 0 J vg&underline vg&uthick 2 mul w 0.5 setgray
          currentpoint 4 -2 roll vg&uoffset vg&uthick 2 div sub add moveto
          vg&uoffset vg&uthick 2 div sub add lineto internalstroke Q
          recshow} if

        % Overbar.
        vg&cbyte 16#07 eq {
          vg&token pop dup stringsize relative 4 1 roll pop pop exch
          3 -1 roll recshow
          q 0 J vg&underline vg&uthick w
          vg&uoffset neg add dup currentpoint pop exch m l internalstroke Q
          recshow} if
      }
      {
        vg&fbyte vg&cbyte unicharshow recshow
      } ifelse
    } ifelse
  } if
} def

% Get the underline position and thickness from the current font.
/vg&underline {

currentfont dup /FontType get 0 eq {/FDepVector get 0 get} if
dup dup /FontInfo known {
  /FontInfo get dup
  dup /UnderlinePosition known {
    /UnderlinePosition get /vg&uoffset exch def
  }
  {
    pop /vg&uoffset 0 def
  } ifelse
  dup /UnderlineThickness known {
    /UnderlineThickness get /vg&uthick exch def
  }
  {
    pop /vg&uthick 0 def
  } ifelse
}
{
  pop /vg&uoffset 0 def /vg&uthick 0 def
} ifelse
/FontMatrix get
currentfont dup /FontType get 0 eq
{/FontMatrix get matrix concatmatrix}{pop} ifelse
dup 0 vg&uoffset 3 -1 roll transform /vg&uoffset exch def pop
0 vg&uthick 3 -1 roll transform /vg&uthick exch def pop
} def

% Make a frame with the coordinates on the stack.
% <llx> <lly> <urx> <ury> frame --
/frame {4 copy m 3 1 roll exch l 4 -2 roll l l h} def

% Resets the accumulated bounding box to a degenerate box at the
% current point.
% -- resetbbox --
/resetbbox {
  currentpoint 2 copy
  /bbury exch def
  /bburx exch def
  /bblly exch def
  /bbllx exch def
} def

% Update the accumulated bounding box.
% <llx'> <lly'> <urx'> <ury'> updatebbox --
/updatebbox {
  dup bbury gt {/bbury exch def} {pop} ifelse
  dup bburx gt {/bburx exch def} {pop} ifelse
  dup bblly lt {/bblly exch def} {pop} ifelse
  dup bbllx lt {/bbllx exch def} {pop} ifelse
} def

% Set the bounding box to the values on the stack.
% <llx'> <lly'> <urx'> <ury'> updatebbox --
/restorebbox {
  /bbury exch def /bburx exch def /bblly exch def /bbllx exch def
} def

% Push the accumulated bounding box onto the stack.
% -- pushbbox <llx> <lly> <urx> <ury>
/pushbbox {bbllx bblly bburx bbury} def

% Make the relative bounding box relative to the currentpoint.
% <llx'> <lly'> <urx'> <ury'> inflate <llx> <lly> <urx> <ury>
/inflate {
  2 {fontsize 0.2 mul add 4 1 roll} repeat
  2 {fontsize 0.2 mul sub 4 1 roll} repeat
} def

% Make the relative bounding box relative to the currentpoint.
% <llx'> <lly'> <urx'> <ury'> relative <llx> <lly> <urx> <ury>
/relative {
  currentpoint 3 -1 roll add 3 1 roll add exch 4 2 roll
  currentpoint 3 -1 roll add 3 1 roll add exch 4 2 roll
} def

% Returns the size of a string appropriate for recshow.
% <string> stringsize <llx> <lly> <urx> <ury>
/stringsize {
  pushbbox /internalshow load /internalstroke load 7 -1 roll
  q
  nulldevice 0 0 m
  nullinternalshow nullinternalstroke
  resetbbox
  recshow
  /internalstroke exch def /internalshow exch def
  pushbbox 8 -4 roll restorebbox
  Q
} def

% Calculate values for string positioning.
/calcval {4 copy
  3 -1 roll sub /widy exch def sub neg /widx exch def
  pop pop /dy exch def /dx exch def} def

% Utilities to position a string.
% First letter (U=upper, C=center, B=baseline, L=lower)
% Second letter (L=left, C=center, R=right)
/align [
{calcval dx neg widy dy add neg rmoveto} % UL
{calcval dx neg widy 2 div dy add neg rmoveto} % CL
{calcval dx neg 0 rmoveto} % BL
{calcval dx neg dy neg rmoveto} % LL
{calcval widx dx add neg widy dy add neg rmoveto} % UR
{calcval widx dx add neg widy 2 div dy add neg rmoveto} % CR
{calcval widx dx add neg 0 rmoveto} % BR
{calcval widx dx add neg dy neg rmoveto} % LR
{calcval widx 2 div dx add neg widy dy add neg rmoveto} % UC
{calcval widx 2 div dx add neg widy 2 div dy add neg rmoveto} % CC
{calcval widx 2 div dx add neg 0 rmoveto} % BC
{calcval widx 2 div dx add neg dy neg rmoveto} % LC
] def

/vg&str {m q 1 -1 scale dup stringsize 4 copy align 11 -1 roll get exec
         q inflate relative frame exch exec Q recshow Q} def

end /procDict exch def
%%EndProlog

%%BeginSetup
save
procDict begin
printColorMap begin
483 113 setpagesize
0 0 0 0 setmargins
0 0 setorigin
483 113 setsize
naturalsize
portrait
imagescale
cliptobounds
setbasematrix
/Helvetica 10 sf
defaultGraphicsState
%%EndSetup

0.00000 0.00000 0.00000 RG
[ 1.00000 0.00000 0.00000 1.00000 0.00000 0.00000 ] defaultmatrix matrix concatmatrix setmatrix
cliprestore
1.00000 1.00000 1.00000 RG
newpath
0.00000 0.00000 m
483.000 0.00000 l
483.000 113.000 l
0.00000 113.000 l
0.00000 0.00000 l
h
f
0.00000 0.00000 0.00000 RG
0.00000 0.00000 0.00000 RG
[ 1.00000 0.00000 0.00000 1.00000 0.00000 0.00000 ] defaultmatrix matrix concatmatrix setmatrix
cliprestore
1.00000 1.00000 1.00000 RG
newpath
0.00000 0.00000 m
483.000 0.00000 l
483.000 113.000 l
0.00000 113.000 l
0.00000 0.00000 l
h
f
0.00000 0.00000 0.00000 RG
0 0 483 113 rc
q
[ 1.00000 0.00000 0.00000 1.00000 0.00000 0.00000 ] concat
[ 1.00000 0.00000 0.00000 1.00000 -78.0000 624.000 ] concat
1.00000 1.00000 1.00000 RG
newpath
78.0000 -624.000 m
561.000 -624.000 l
561.000 -511.000 l
78.0000 -511.000 l
78.0000 -624.000 l
h
f
0.00000 0.00000 0.00000 RG
[ 1.00000 0.00000 0.00000 1.00000 -78.0000 624.000 ] defaultmatrix matrix concatmatrix setmatrix
[ 1.00000 0.00000 0.00000 1.00000 -78.0000 624.000 ] defaultmatrix matrix concatmatrix setmatrix
[ 1.00000 0.00000 0.00000 1.00000 0.00000 0.00000 ] defaultmatrix matrix concatmatrix setmatrix
[ 1.00000 0.00000 0.00000 1.00000 -78.0000 624.000 ] defaultmatrix matrix concatmatrix setmatrix
0 J
1.45000 M
newpath
282.263 -608.334 m
356.763 -608.334 l
356.763 -587.334 l
282.263 -587.334 l
282.263 -608.334 l
h
S
2 J
10.0000 M
0 J
1.45000 M
newpath
287.301 -593.299 m
287.301 -602.551 l
288.456 -602.551 l
288.456 -593.299 l
h
293.260 -593.152 m
292.350 -593.152 291.624 -593.454 291.081 -594.058  c
290.538 -594.661 290.266 -595.469 290.266 -596.480  c
290.266 -597.504 290.539 -598.313 291.084 -598.909  c
291.629 -599.505 292.368 -599.803 293.301 -599.803  c
294.235 -599.803 294.974 -599.505 295.519 -598.909  c
296.064 -598.313 296.337 -597.508 296.337 -596.492  c
296.337 -595.453 296.063 -594.637 295.516 -594.043  c
294.969 -593.449 294.217 -593.152 293.260 -593.152  c
h
293.278 -594.020 m
294.501 -594.020 295.112 -594.844 295.112 -596.492  c
295.112 -598.121 294.508 -598.936 293.301 -598.936  c
292.098 -598.936 291.497 -598.117 291.497 -596.480  c
291.497 -594.840 292.090 -594.020 293.278 -594.020  c
h
300.626 -593.152 m
299.766 -593.152 299.053 -593.471 298.487 -594.107  c
297.921 -594.744 297.637 -595.547 297.637 -596.516  c
297.637 -597.551 297.918 -598.357 298.478 -598.936  c
299.039 -599.514 299.821 -599.803 300.825 -599.803  c
301.321 -599.803 301.876 -599.734 302.489 -599.598  c
302.489 -598.631 l
301.837 -598.822 301.305 -598.918 300.895 -598.918  c
300.305 -598.918 299.832 -598.696 299.474 -598.253  c
299.117 -597.810 298.938 -597.219 298.938 -596.480  c
298.938 -595.766 299.122 -595.188 299.489 -594.746  c
299.856 -594.305 300.337 -594.084 300.930 -594.084  c
301.458 -594.084 302.001 -594.219 302.559 -594.488  c
302.559 -593.492 l
301.813 -593.266 301.169 -593.152 300.626 -593.152  c
h
307.569 -594.107 m
306.878 -593.471 306.212 -593.152 305.571 -593.152  c
305.044 -593.152 304.606 -593.317 304.258 -593.647  c
303.911 -593.978 303.737 -594.395 303.737 -594.898  c
303.737 -595.594 304.029 -596.128 304.613 -596.501  c
305.197 -596.874 306.034 -597.061 307.124 -597.061  c
307.399 -597.061 l
307.399 -597.828 l
307.399 -598.566 307.020 -598.936 306.262 -598.936  c
305.653 -598.936 304.995 -598.748 304.288 -598.373  c
304.288 -599.328 l
305.065 -599.645 305.794 -599.803 306.473 -599.803  c
307.184 -599.803 307.709 -599.643 308.046 -599.322  c
308.384 -599.002 308.553 -598.504 308.553 -597.828  c
308.553 -594.945 l
308.553 -594.285 308.756 -593.955 309.163 -593.955  c
309.213 -593.955 309.288 -593.963 309.385 -593.979  c
309.467 -593.340 l
309.206 -593.215 308.917 -593.152 308.600 -593.152  c
308.061 -593.152 307.717 -593.471 307.569 -594.107  c
h
307.399 -594.734 m
307.399 -596.381 l
307.012 -596.393 l
306.379 -596.393 305.868 -596.272 305.477 -596.032  c
305.087 -595.792 304.891 -595.477 304.891 -595.086  c
304.891 -594.809 304.989 -594.574 305.184 -594.383  c
305.379 -594.191 305.618 -594.096 305.899 -594.096  c
306.379 -594.096 306.879 -594.309 307.399 -594.734  c
h
310.915 -593.299 m
310.915 -602.551 l
312.069 -602.551 l
312.069 -593.299 l
h
314.096 -596.334 m
314.096 -597.201 l
319.299 -597.201 l
319.299 -596.334 l
h
321.327 -593.299 m
321.327 -602.551 l
322.481 -602.551 l
322.481 -598.467 l
323.090 -599.357 323.837 -599.803 324.719 -599.803  c
325.270 -599.803 325.710 -599.628 326.038 -599.278  c
326.366 -598.929 326.530 -598.459 326.530 -597.869  c
326.530 -593.299 l
325.376 -593.299 l
325.376 -597.494 l
325.376 -597.967 325.306 -598.304 325.168 -598.505  c
325.029 -598.706 324.799 -598.807 324.479 -598.807  c
323.772 -598.807 323.106 -598.344 322.481 -597.418  c
322.481 -593.299 l
h
331.264 -593.152 m
330.354 -593.152 329.628 -593.454 329.085 -594.058  c
328.542 -594.661 328.270 -595.469 328.270 -596.480  c
328.270 -597.504 328.543 -598.313 329.087 -598.909  c
329.632 -599.505 330.372 -599.803 331.305 -599.803  c
332.239 -599.803 332.978 -599.505 333.523 -598.909  c
334.068 -598.313 334.340 -597.508 334.340 -596.492  c
334.340 -595.453 334.067 -594.637 333.520 -594.043  c
332.973 -593.449 332.221 -593.152 331.264 -593.152  c
h
331.282 -594.020 m
332.504 -594.020 333.116 -594.844 333.116 -596.492  c
333.116 -598.121 332.512 -598.936 331.305 -598.936  c
330.102 -598.936 329.501 -598.117 329.501 -596.480  c
329.501 -594.840 330.094 -594.020 331.282 -594.020  c
h
336.145 -593.299 m
336.145 -599.662 l
337.299 -599.662 l
337.299 -598.467 l
337.862 -599.357 338.585 -599.803 339.467 -599.803  c
340.319 -599.803 340.899 -599.357 341.208 -598.467  c
341.754 -599.361 342.465 -599.809 343.340 -599.809  c
343.903 -599.809 344.338 -599.644 344.647 -599.313  c
344.956 -598.983 345.110 -598.521 345.110 -597.928  c
345.110 -593.299 l
343.950 -593.299 l
343.950 -597.746 l
343.950 -598.473 343.663 -598.836 343.088 -598.836  c
342.491 -598.836 341.864 -598.412 341.208 -597.564  c
341.208 -593.299 l
340.047 -593.299 l
340.047 -597.746 l
340.047 -598.477 339.754 -598.842 339.169 -598.842  c
338.587 -598.842 337.963 -598.416 337.299 -597.564  c
337.299 -593.299 l
h
352.012 -593.504 m
351.239 -593.270 350.577 -593.152 350.026 -593.152  c
349.088 -593.152 348.324 -593.464 347.732 -594.087  c
347.140 -594.710 346.844 -595.518 346.844 -596.510  c
346.844 -597.475 347.105 -598.266 347.627 -598.883  c
348.148 -599.500 348.815 -599.809 349.628 -599.809  c
350.397 -599.809 350.992 -599.535 351.412 -598.988  c
351.832 -598.441 352.042 -597.664 352.042 -596.656  c
352.036 -596.299 l
348.022 -596.299 l
348.190 -594.787 348.930 -594.031 350.243 -594.031  c
350.723 -594.031 351.313 -594.160 352.012 -594.418  c
h
348.075 -597.166 m
350.881 -597.166 l
350.881 -598.350 350.440 -598.941 349.557 -598.941  c
348.671 -598.941 348.176 -598.350 348.075 -597.166  c
h
f
2 J
10.0000 M
0 J
1.45000 M
newpath
282.263 -547.334 m
356.763 -547.334 l
356.763 -526.334 l
282.263 -526.334 l
282.263 -547.334 l
h
S
2 J
10.0000 M
0 J
1.45000 M
newpath
292.428 -532.229 m
292.428 -541.551 l
293.583 -541.551 l
293.583 -537.467 l
294.055 -538.357 294.764 -538.803 295.710 -538.803  c
296.475 -538.803 297.078 -538.523 297.517 -537.965  c
297.957 -537.406 298.176 -536.643 298.176 -535.674  c
298.176 -534.619 297.927 -533.769 297.429 -533.122  c
296.931 -532.476 296.276 -532.152 295.463 -532.152  c
294.710 -532.152 294.083 -532.441 293.583 -533.020  c
293.442 -532.229 l
h
293.583 -533.816 m
294.176 -533.285 294.743 -533.020 295.282 -533.020  c
296.391 -533.020 296.946 -533.865 296.946 -535.557  c
296.946 -537.049 296.454 -537.795 295.469 -537.795  c
294.825 -537.795 294.196 -537.445 293.583 -536.746  c
h
302.471 -532.152 m
301.561 -532.152 300.835 -532.454 300.292 -533.058  c
299.749 -533.661 299.477 -534.469 299.477 -535.480  c
299.477 -536.504 299.750 -537.313 300.295 -537.909  c
300.839 -538.505 301.579 -538.803 302.512 -538.803  c
303.446 -538.803 304.185 -538.505 304.730 -537.909  c
305.275 -537.313 305.547 -536.508 305.547 -535.492  c
305.547 -534.453 305.274 -533.637 304.727 -533.043  c
304.180 -532.449 303.428 -532.152 302.471 -532.152  c
h
302.489 -533.020 m
303.712 -533.020 304.323 -533.844 304.323 -535.492  c
304.323 -537.121 303.719 -537.936 302.512 -537.936  c
301.309 -537.936 300.708 -537.117 300.708 -535.480  c
300.708 -533.840 301.301 -533.020 302.489 -533.020  c
h
309.842 -532.152 m
308.932 -532.152 308.206 -532.454 307.663 -533.058  c
307.120 -533.661 306.848 -534.469 306.848 -535.480  c
306.848 -536.504 307.121 -537.313 307.666 -537.909  c
308.211 -538.505 308.950 -538.803 309.883 -538.803  c
310.817 -538.803 311.556 -538.505 312.101 -537.909  c
312.646 -537.313 312.919 -536.508 312.919 -535.492  c
312.919 -534.453 312.645 -533.637 312.098 -533.043  c
311.551 -532.449 310.799 -532.152 309.842 -532.152  c
h
309.860 -533.020 m
311.083 -533.020 311.694 -533.844 311.694 -535.492  c
311.694 -537.121 311.090 -537.936 309.883 -537.936  c
308.680 -537.936 308.079 -537.117 308.079 -535.480  c
308.079 -533.840 308.672 -533.020 309.860 -533.020  c
h
316.633 -532.152 m
316.047 -532.152 315.590 -532.320 315.262 -532.656  c
314.934 -532.992 314.770 -533.459 314.770 -534.057  c
314.770 -537.795 l
313.973 -537.795 l
313.973 -538.662 l
314.770 -538.662 l
314.770 -539.816 l
315.924 -539.928 l
315.924 -538.662 l
317.588 -538.662 l
317.588 -537.795 l
315.924 -537.795 l
315.924 -534.268 l
315.924 -533.436 316.284 -533.020 317.003 -533.020  c
317.155 -533.020 317.340 -533.045 317.559 -533.096  c
317.559 -532.299 l
317.204 -532.201 316.895 -532.152 316.633 -532.152  c
h
320.899 -532.152 m
320.372 -532.152 319.731 -532.275 318.977 -532.521  c
318.977 -533.582 l
319.731 -533.207 320.387 -533.020 320.946 -533.020  c
321.278 -533.020 321.553 -533.109 321.772 -533.289  c
321.991 -533.469 322.100 -533.693 322.100 -533.963  c
322.100 -534.357 321.794 -534.684 321.180 -534.941  c
320.506 -535.229 l
319.510 -535.643 319.012 -536.238 319.012 -537.016  c
319.012 -537.570 319.209 -538.007 319.601 -538.325  c
319.994 -538.644 320.532 -538.803 321.215 -538.803  c
321.571 -538.803 322.010 -538.754 322.534 -538.656  c
322.774 -538.609 l
322.774 -537.648 l
322.129 -537.840 321.618 -537.936 321.239 -537.936  c
320.497 -537.936 320.126 -537.666 320.126 -537.127  c
320.126 -536.779 320.407 -536.486 320.969 -536.248  c
321.526 -536.014 l
322.155 -535.748 322.600 -535.468 322.862 -535.173  c
323.124 -534.878 323.254 -534.510 323.254 -534.068  c
323.254 -533.510 323.034 -533.051 322.592 -532.691  c
322.151 -532.332 321.587 -532.152 320.899 -532.152  c
h
327.239 -532.152 m
326.653 -532.152 326.196 -532.320 325.868 -532.656  c
325.540 -532.992 325.376 -533.459 325.376 -534.057  c
325.376 -537.795 l
324.579 -537.795 l
324.579 -538.662 l
325.376 -538.662 l
325.376 -539.816 l
326.530 -539.928 l
326.530 -538.662 l
328.194 -538.662 l
328.194 -537.795 l
326.530 -537.795 l
326.530 -534.268 l
326.530 -533.436 326.889 -533.020 327.608 -533.020  c
327.760 -533.020 327.946 -533.045 328.165 -533.096  c
328.165 -532.299 l
327.809 -532.201 327.501 -532.152 327.239 -532.152  c
h
329.817 -532.299 m
329.817 -538.662 l
330.971 -538.662 l
330.971 -537.467 l
331.428 -538.357 332.092 -538.803 332.963 -538.803  c
333.081 -538.803 333.204 -538.793 333.333 -538.773  c
333.333 -537.695 l
333.133 -537.762 332.958 -537.795 332.805 -537.795  c
332.075 -537.795 331.463 -537.361 330.971 -536.494  c
330.971 -532.299 l
h
338.008 -533.107 m
337.317 -532.471 336.651 -532.152 336.010 -532.152  c
335.483 -532.152 335.046 -532.317 334.698 -532.647  c
334.350 -532.978 334.176 -533.395 334.176 -533.898  c
334.176 -534.594 334.468 -535.128 335.052 -535.501  c
335.636 -535.874 336.473 -536.061 337.563 -536.061  c
337.838 -536.061 l
337.838 -536.828 l
337.838 -537.566 337.460 -537.936 336.702 -537.936  c
336.092 -537.936 335.434 -537.748 334.727 -537.373  c
334.727 -538.328 l
335.504 -538.645 336.233 -538.803 336.913 -538.803  c
337.624 -538.803 338.148 -538.643 338.486 -538.322  c
338.824 -538.002 338.993 -537.504 338.993 -536.828  c
338.993 -533.945 l
338.993 -533.285 339.196 -532.955 339.602 -532.955  c
339.653 -532.955 339.727 -532.963 339.825 -532.979  c
339.907 -532.340 l
339.645 -532.215 339.356 -532.152 339.040 -532.152  c
338.501 -532.152 338.157 -532.471 338.008 -533.107  c
h
337.838 -533.734 m
337.838 -535.381 l
337.452 -535.393 l
336.819 -535.393 336.307 -535.272 335.917 -535.032  c
335.526 -534.792 335.331 -534.477 335.331 -534.086  c
335.331 -533.809 335.428 -533.574 335.624 -533.383  c
335.819 -533.191 336.057 -533.096 336.338 -533.096  c
336.819 -533.096 337.319 -533.309 337.838 -533.734  c
h
341.354 -529.984 m
341.354 -538.662 l
342.508 -538.662 l
342.508 -537.467 l
342.981 -538.357 343.690 -538.803 344.635 -538.803  c
345.401 -538.803 346.004 -538.523 346.443 -537.965  c
346.882 -537.406 347.102 -536.643 347.102 -535.674  c
347.102 -534.619 346.853 -533.769 346.355 -533.122  c
345.857 -532.476 345.202 -532.152 344.389 -532.152  c
343.635 -532.152 343.008 -532.441 342.508 -533.020  c
342.508 -529.984 l
h
342.508 -533.816 m
343.102 -533.285 343.669 -533.020 344.208 -533.020  c
345.317 -533.020 345.872 -533.865 345.872 -535.557  c
345.872 -537.049 345.379 -537.795 344.395 -537.795  c
343.751 -537.795 343.122 -537.445 342.508 -536.746  c
h
f
2 J
10.0000 M
0 J
1.45000 M
newpath
187.763 -547.334 m
262.263 -547.334 l
262.263 -526.334 l
187.763 -526.334 l
187.763 -547.334 l
h
S
2 J
10.0000 M
0 J
1.45000 M
newpath
213.409 -532.299 m
213.409 -540.971 l
214.616 -540.971 l
218.981 -534.273 l
218.981 -540.971 l
220.036 -540.971 l
220.036 -532.299 l
218.835 -532.299 l
214.463 -538.996 l
214.463 -532.299 l
h
226.669 -535.615 m
225.192 -539.354 l
223.710 -535.615 l
h
227.969 -532.299 m
227.026 -534.701 l
223.352 -534.701 l
222.397 -532.299 l
221.255 -532.299 l
224.694 -540.971 l
225.913 -540.971 l
229.299 -532.299 l
h
234.268 -532.082 m
232.921 -532.082 231.880 -532.478 231.145 -533.269  c
230.411 -534.060 230.044 -535.180 230.044 -536.629  c
230.044 -538.074 230.418 -539.195 231.166 -539.992  c
231.914 -540.789 232.967 -541.188 234.327 -541.188  c
235.104 -541.188 236.014 -541.061 237.057 -540.807  c
237.057 -539.652 l
235.870 -540.062 234.954 -540.268 234.309 -540.268  c
233.368 -540.268 232.639 -539.949 232.124 -539.312  c
231.608 -538.676 231.350 -537.777 231.350 -536.617  c
231.350 -535.512 231.626 -534.640 232.176 -534.001  c
232.727 -533.362 233.479 -533.043 234.432 -533.043  c
235.253 -533.043 236.131 -533.295 237.069 -533.799  c
237.069 -532.744 l
236.213 -532.303 235.280 -532.082 234.268 -532.082  c
h
f
2 J
10.0000 M
0 J
1.45000 M
newpath
93.2633 -547.334 m
167.763 -547.334 l
167.763 -526.334 l
93.2633 -526.334 l
93.2633 -547.334 l
h
S
2 J
10.0000 M
0 J
1.45000 M
newpath
116.328 -532.152 m
115.418 -532.152 114.691 -532.454 114.148 -533.058  c
113.605 -533.661 113.334 -534.469 113.334 -535.480  c
113.334 -536.504 113.606 -537.313 114.151 -537.909  c
114.696 -538.505 115.435 -538.803 116.369 -538.803  c
117.302 -538.803 118.042 -538.505 118.587 -537.909  c
119.131 -537.313 119.404 -536.508 119.404 -535.492  c
119.404 -534.453 119.130 -533.637 118.584 -533.043  c
118.037 -532.449 117.285 -532.152 116.328 -532.152  c
h
116.345 -533.020 m
117.568 -533.020 118.179 -533.844 118.179 -535.492  c
118.179 -537.121 117.576 -537.936 116.369 -537.936  c
115.166 -537.936 114.564 -537.117 114.564 -535.480  c
114.564 -533.840 115.158 -533.020 116.345 -533.020  c
h
121.947 -532.299 m
120.125 -538.662 l
121.255 -538.662 l
122.650 -533.734 l
124.156 -538.662 l
125.310 -538.662 l
126.629 -533.734 l
128.228 -538.662 l
129.218 -538.662 l
127.144 -532.299 l
125.984 -532.299 l
124.636 -537.227 l
123.113 -532.299 l
h
130.455 -532.299 m
130.455 -538.662 l
131.609 -538.662 l
131.609 -537.467 l
132.218 -538.357 132.964 -538.803 133.847 -538.803  c
134.398 -538.803 134.837 -538.628 135.166 -538.278  c
135.494 -537.929 135.658 -537.459 135.658 -536.869  c
135.658 -532.299 l
134.504 -532.299 l
134.504 -536.494 l
134.504 -536.967 134.434 -537.304 134.296 -537.505  c
134.157 -537.706 133.927 -537.807 133.607 -537.807  c
132.900 -537.807 132.234 -537.344 131.609 -536.418  c
131.609 -532.299 l
h
142.566 -532.504 m
141.793 -532.270 141.130 -532.152 140.580 -532.152  c
139.642 -532.152 138.878 -532.464 138.286 -533.087  c
137.694 -533.710 137.398 -534.518 137.398 -535.510  c
137.398 -536.475 137.659 -537.266 138.180 -537.883  c
138.702 -538.500 139.369 -538.809 140.181 -538.809  c
140.951 -538.809 141.546 -538.535 141.965 -537.988  c
142.385 -537.441 142.595 -536.664 142.595 -535.656  c
142.589 -535.299 l
138.576 -535.299 l
138.744 -533.787 139.484 -533.031 140.796 -533.031  c
141.277 -533.031 141.867 -533.160 142.566 -533.418  c
h
138.629 -536.166 m
141.435 -536.166 l
141.435 -537.350 140.994 -537.941 140.111 -537.941  c
139.224 -537.941 138.730 -537.350 138.629 -536.166  c
h
144.587 -532.299 m
144.587 -538.662 l
145.742 -538.662 l
145.742 -537.467 l
146.199 -538.357 146.863 -538.803 147.734 -538.803  c
147.851 -538.803 147.974 -538.793 148.103 -538.773  c
148.103 -537.695 l
147.904 -537.762 147.728 -537.795 147.576 -537.795  c
146.845 -537.795 146.234 -537.361 145.742 -536.494  c
145.742 -532.299 l
h
f
2 J
10.0000 M
0 J
1.45000 M
newpath
376.763 -547.334 m
451.263 -547.334 l
451.263 -526.334 l
376.763 -526.334 l
376.763 -547.334 l
h
S
2 J
10.0000 M
0 J
1.45000 M
newpath
391.973 -532.299 m
391.973 -541.551 l
393.128 -541.551 l
393.128 -532.299 l
h
397.932 -532.152 m
397.022 -532.152 396.296 -532.454 395.753 -533.058  c
395.210 -533.661 394.938 -534.469 394.938 -535.480  c
394.938 -536.504 395.211 -537.313 395.755 -537.909  c
396.300 -538.505 397.040 -538.803 397.973 -538.803  c
398.907 -538.803 399.646 -538.505 400.191 -537.909  c
400.736 -537.313 401.008 -536.508 401.008 -535.492  c
401.008 -534.453 400.735 -533.637 400.188 -533.043  c
399.641 -532.449 398.889 -532.152 397.932 -532.152  c
h
397.950 -533.020 m
399.172 -533.020 399.784 -533.844 399.784 -535.492  c
399.784 -537.121 399.180 -537.936 397.973 -537.936  c
396.770 -537.936 396.169 -537.117 396.169 -535.480  c
396.169 -533.840 396.762 -533.020 397.950 -533.020  c
h
405.297 -532.152 m
404.438 -532.152 403.725 -532.471 403.159 -533.107  c
402.592 -533.744 402.309 -534.547 402.309 -535.516  c
402.309 -536.551 402.589 -537.357 403.150 -537.936  c
403.711 -538.514 404.493 -538.803 405.497 -538.803  c
405.993 -538.803 406.547 -538.734 407.161 -538.598  c
407.161 -537.631 l
406.508 -537.822 405.977 -537.918 405.567 -537.918  c
404.977 -537.918 404.504 -537.696 404.146 -537.253  c
403.789 -536.810 403.610 -536.219 403.610 -535.480  c
403.610 -534.766 403.794 -534.188 404.161 -533.746  c
404.528 -533.305 405.008 -533.084 405.602 -533.084  c
406.129 -533.084 406.672 -533.219 407.231 -533.488  c
407.231 -532.492 l
406.485 -532.266 405.840 -532.152 405.297 -532.152  c
h
412.241 -533.107 m
411.549 -532.471 410.883 -532.152 410.243 -532.152  c
409.715 -532.152 409.278 -532.317 408.930 -532.647  c
408.583 -532.978 408.409 -533.395 408.409 -533.898  c
408.409 -534.594 408.701 -535.128 409.285 -535.501  c
409.869 -535.874 410.706 -536.061 411.796 -536.061  c
412.071 -536.061 l
412.071 -536.828 l
412.071 -537.566 411.692 -537.936 410.934 -537.936  c
410.325 -537.936 409.667 -537.748 408.960 -537.373  c
408.960 -538.328 l
409.737 -538.645 410.465 -538.803 411.145 -538.803  c
411.856 -538.803 412.380 -538.643 412.718 -538.322  c
413.056 -538.002 413.225 -537.504 413.225 -536.828  c
413.225 -533.945 l
413.225 -533.285 413.428 -532.955 413.835 -532.955  c
413.885 -532.955 413.960 -532.963 414.057 -532.979  c
414.139 -532.340 l
413.878 -532.215 413.588 -532.152 413.272 -532.152  c
412.733 -532.152 412.389 -532.471 412.241 -533.107  c
h
412.071 -533.734 m
412.071 -535.381 l
411.684 -535.393 l
411.051 -535.393 410.540 -535.272 410.149 -535.032  c
409.758 -534.792 409.563 -534.477 409.563 -534.086  c
409.563 -533.809 409.661 -533.574 409.856 -533.383  c
410.051 -533.191 410.290 -533.096 410.571 -533.096  c
411.051 -533.096 411.551 -533.309 412.071 -533.734  c
h
417.497 -532.152 m
416.911 -532.152 416.454 -532.320 416.126 -532.656  c
415.797 -532.992 415.633 -533.459 415.633 -534.057  c
415.633 -537.795 l
414.837 -537.795 l
414.837 -538.662 l
415.633 -538.662 l
415.633 -539.816 l
416.788 -539.928 l
416.788 -538.662 l
418.452 -538.662 l
418.452 -537.795 l
416.788 -537.795 l
416.788 -534.268 l
416.788 -533.436 417.147 -533.020 417.866 -533.020  c
418.018 -533.020 418.204 -533.045 418.422 -533.096  c
418.422 -532.299 l
418.067 -532.201 417.758 -532.152 417.497 -532.152  c
h
420.075 -532.299 m
420.075 -538.662 l
421.229 -538.662 l
421.229 -532.299 l
h
420.075 -539.816 m
420.075 -540.971 l
421.229 -540.971 l
421.229 -539.816 l
h
426.034 -532.152 m
425.124 -532.152 424.397 -532.454 423.854 -533.058  c
423.311 -533.661 423.040 -534.469 423.040 -535.480  c
423.040 -536.504 423.312 -537.313 423.857 -537.909  c
424.402 -538.505 425.141 -538.803 426.075 -538.803  c
427.008 -538.803 427.748 -538.505 428.293 -537.909  c
428.837 -537.313 429.110 -536.508 429.110 -535.492  c
429.110 -534.453 428.837 -533.637 428.290 -533.043  c
427.743 -532.449 426.991 -532.152 426.034 -532.152  c
h
426.051 -533.020 m
427.274 -533.020 427.885 -533.844 427.885 -535.492  c
427.885 -537.121 427.282 -537.936 426.075 -537.936  c
424.872 -537.936 424.270 -537.117 424.270 -535.480  c
424.270 -533.840 424.864 -533.020 426.051 -533.020  c
h
430.915 -532.299 m
430.915 -538.662 l
432.069 -538.662 l
432.069 -537.467 l
432.678 -538.357 433.424 -538.803 434.307 -538.803  c
434.858 -538.803 435.297 -538.628 435.626 -538.278  c
435.954 -537.929 436.118 -537.459 436.118 -536.869  c
436.118 -532.299 l
434.963 -532.299 l
434.963 -536.494 l
434.963 -536.967 434.894 -537.304 434.755 -537.505  c
434.617 -537.706 434.387 -537.807 434.067 -537.807  c
433.360 -537.807 432.694 -537.344 432.069 -536.418  c
432.069 -532.299 l
h
f
2 J
10.0000 M
0 J
1.45000 M
newpath
471.263 -547.334 m
545.763 -547.334 l
545.763 -526.334 l
471.263 -526.334 l
471.263 -547.334 l
h
S
2 J
10.0000 M
0 J
1.45000 M
newpath
476.237 -532.299 m
474.415 -538.662 l
475.546 -538.662 l
476.940 -533.734 l
478.446 -538.662 l
479.600 -538.662 l
480.919 -533.734 l
482.518 -538.662 l
483.508 -538.662 l
481.434 -532.299 l
480.274 -532.299 l
478.926 -537.227 l
477.403 -532.299 l
h
489.409 -532.504 m
488.635 -532.270 487.973 -532.152 487.422 -532.152  c
486.485 -532.152 485.720 -532.464 485.129 -533.087  c
484.537 -533.710 484.241 -534.518 484.241 -535.510  c
484.241 -536.475 484.502 -537.266 485.023 -537.883  c
485.545 -538.500 486.212 -538.809 487.024 -538.809  c
487.794 -538.809 488.388 -538.535 488.808 -537.988  c
489.228 -537.441 489.438 -536.664 489.438 -535.656  c
489.432 -535.299 l
485.419 -535.299 l
485.587 -533.787 486.327 -533.031 487.639 -533.031  c
488.120 -533.031 488.710 -533.160 489.409 -533.418  c
h
485.471 -536.166 m
488.278 -536.166 l
488.278 -537.350 487.837 -537.941 486.954 -537.941  c
486.067 -537.941 485.573 -537.350 485.471 -536.166  c
h
491.430 -532.299 m
491.430 -541.551 l
492.585 -541.551 l
492.585 -532.299 l
h
494.899 -532.299 m
494.899 -541.551 l
496.053 -541.551 l
496.053 -532.299 l
h
498.081 -535.334 m
498.081 -536.201 l
503.284 -536.201 l
503.284 -535.334 l
h
505.311 -532.299 m
505.311 -541.551 l
506.465 -541.551 l
506.465 -535.574 l
509.161 -538.662 l
510.403 -538.662 l
507.831 -535.691 l
510.936 -532.299 l
509.460 -532.299 l
506.465 -535.562 l
506.465 -532.299 l
h
512.325 -532.299 m
512.325 -538.662 l
513.479 -538.662 l
513.479 -537.467 l
514.089 -538.357 514.835 -538.803 515.717 -538.803  c
516.268 -538.803 516.708 -538.628 517.036 -538.278  c
517.364 -537.929 517.528 -537.459 517.528 -536.869  c
517.528 -532.299 l
516.374 -532.299 l
516.374 -536.494 l
516.374 -536.967 516.304 -537.304 516.166 -537.505  c
516.027 -537.706 515.797 -537.807 515.477 -537.807  c
514.770 -537.807 514.104 -537.344 513.479 -536.418  c
513.479 -532.299 l
h
522.262 -532.152 m
521.352 -532.152 520.626 -532.454 520.083 -533.058  c
519.540 -533.661 519.268 -534.469 519.268 -535.480  c
519.268 -536.504 519.541 -537.313 520.086 -537.909  c
520.630 -538.505 521.370 -538.803 522.303 -538.803  c
523.237 -538.803 523.976 -538.505 524.521 -537.909  c
525.066 -537.313 525.339 -536.508 525.339 -535.492  c
525.339 -534.453 525.065 -533.637 524.518 -533.043  c
523.971 -532.449 523.219 -532.152 522.262 -532.152  c
h
522.280 -533.020 m
523.503 -533.020 524.114 -533.844 524.114 -535.492  c
524.114 -537.121 523.510 -537.936 522.303 -537.936  c
521.100 -537.936 520.499 -537.117 520.499 -535.480  c
520.499 -533.840 521.092 -533.020 522.280 -533.020  c
h
527.881 -532.299 m
526.059 -538.662 l
527.190 -538.662 l
528.585 -533.734 l
530.090 -538.662 l
531.245 -538.662 l
532.563 -533.734 l
534.163 -538.662 l
535.153 -538.662 l
533.079 -532.299 l
531.919 -532.299 l
530.571 -537.227 l
529.047 -532.299 l
h
536.389 -532.299 m
536.389 -538.662 l
537.544 -538.662 l
537.544 -537.467 l
538.153 -538.357 538.899 -538.803 539.782 -538.803  c
540.333 -538.803 540.772 -538.628 541.100 -538.278  c
541.428 -537.929 541.592 -537.459 541.592 -536.869  c
541.592 -532.299 l
540.438 -532.299 l
540.438 -536.494 l
540.438 -536.967 540.369 -537.304 540.230 -537.505  c
540.091 -537.706 539.862 -537.807 539.542 -537.807  c
538.835 -537.807 538.169 -537.344 537.544 -536.418  c
537.544 -532.299 l
h
f
2 J
10.0000 M
0 J
1.45000 M
newpath
319.513 -587.334 m
319.513 -547.334 l
S
2 J
10.0000 M
0 J
1.45000 M
newpath
303.247 -587.334 m
241.280 -547.334 l
S
2 J
10.0000 M
0 J
1.45000 M
newpath
286.980 -587.334 m
163.046 -547.334 l
S
2 J
10.0000 M
0 J
1.45000 M
newpath
335.780 -587.334 m
397.747 -547.334 l
S
2 J
10.0000 M
0 J
1.45000 M
newpath
352.046 -587.334 m
475.980 -547.334 l
S
2 J
10.0000 M
Q
[ 1.00000 0.00000 0.00000 1.00000 0.00000 0.00000 ] defaultmatrix matrix concatmatrix setmatrix
cliprestore

%%Trailer
%%EOF
